<svg class="add-active-js" viewBox="0 0 418 1563" fill="none" xmlns="http://www.w3.org/2000/svg">
<g style="mix-blend-mode:lighten">
<g style="mix-blend-mode:lighten">
<path class="ani-light" opacity="0.32" d="M-679.999 147.244L-541.03 195.053L-455.793 396.173C-455.793 396.173 -211.628 180.505 -217.402 188.818C-223.175 197.131 -139.714 496.98 -139.714 496.98L-6.53787 393.634L345.038 628.812L-6.53787 366.249L-130.996 460.476L-217.402 136.852L-432.704 317.252L-507.282 118.147L-679.986 0.0112305V147.252L-679.999 147.244Z" fill="#7C0FD1"/>
<path class="ani-light-01" d="M-679.999 1086.81L-438.037 1173.65L-299.535 1010.77L180.196 914.591L-340.372 994.317L-450.466 1118.81L-679.999 1026.48V1086.81Z" fill="#7C0FD1"/>
<path class="ani-light-02" d="M-679.999 1562.64C-679.999 1562.64 -394.317 1360.52 -388.31 1360.72C-344.643 1362.17 -184.114 1379.84 -184.114 1379.84C-184.114 1379.84 135.289 993.341 147.831 994.326C160.372 995.31 289.477 1013.56 289.477 1013.56L418 902.09L289.477 1031.67C289.477 1031.67 142.391 1013.11 147.831 1013.56C153.271 1014.01 -180.563 1403.74 -180.563 1403.74L-390.986 1388.15L-596.077 1562.64H-679.999Z" fill="#208CFF"/>
<path class="ani-light-03" d="M-679.999 662.674L-375.889 691.411L-294.649 557.594L64.4685 662.674L-274.672 583.838L-365.236 735.618L-679.999 725.594V662.674Z" fill="#208CFF"/>
<path class="ani-light-04" opacity="0.32" d="M-217.408 0.00210571H-148.15L12.5525 162.83H147.831L256.964 341.128L132.853 192.45L-25.6273 189.332L-217.408 0.00210571Z" fill="#208CFF"/>
</g>
<path class="ani-light-05" opacity="0.32" d="M-680 501.871L-242.066 391.814L-158.163 475.83L259.926 622.438L-162.155 452.054L-248.727 356.889L-680 457.805V501.871Z" fill="#7C0FD1"/>
<path class="ani-light-06" opacity="0.32" d="M-680 1022.16L-574.571 1138.07L-320.642 969.979L-219.425 1053.99L271.213 804.261L-221.2 1030.39L-320.642 931.249L-576.347 1080.76L-680 952.282V1022.16Z" fill="#208CFF"/>
<path class="ani-light-07" d="M-680 1562.64L-467.14 1279.31L-120.871 1247.86L352.8 846.757L-117.32 1259.32L-457.368 1290.49L-583.449 1562.64H-680Z" fill="#7C0FD1"/>
<path class="ani-light-08" d="M-109.424 1562.64L-60.3975 1384.23H100.706L344.51 1034.7L105.218 1392.2L-46.4872 1398.25L-81.1562 1562.64H-109.424Z" fill="#208CFF"/>
<path class="ani-light-09" d="M-512.416 0.000610352L-317.091 207.755L55.8109 268.877L154.498 388.99L65.4492 247.25L-292.227 184.94L-437.838 0.000610352H-512.416Z" fill="#208CFF"/>
</g>
</svg>
