<svg class="ani-light add-active-js" viewBox="0 0 760 171" fill="none" xmlns="http://www.w3.org/2000/svg">
<ellipse cx="12.2652" cy="2" rx="2.23003" ry="2" fill="white"/>
<ellipse cx="34.566" cy="2" rx="2.23003" ry="2" fill="white"/>
<ellipse cx="56.8668" cy="2" rx="2.23003" ry="2" fill="white"/>
<ellipse cx="79.1675" cy="2" rx="2.23003" ry="2" fill="white"/>
<ellipse cx="101.468" cy="2" rx="2.23003" ry="2" fill="white"/>
<ellipse cx="123.765" cy="2" rx="2.23003" ry="2" fill="white"/>
<ellipse cx="146.066" cy="2" rx="2.23003" ry="2" fill="white"/>
<ellipse cx="168.367" cy="2" rx="2.23003" ry="2" fill="white"/>
<ellipse cx="190.668" cy="2" rx="2.23003" ry="2" fill="white"/>
<ellipse cx="212.968" cy="2" rx="2.23003" ry="2" fill="white"/>
<ellipse cx="235.269" cy="2" rx="2.23003" ry="2" fill="white"/>
<ellipse cx="257.57" cy="2" rx="2.23003" ry="2" fill="white"/>
<ellipse cx="279.871" cy="2" rx="2.23003" ry="2" fill="white"/>
<ellipse cx="302.171" cy="2" rx="2.23003" ry="2" fill="white"/>
<ellipse cx="324.468" cy="2" rx="2.23003" ry="2" fill="white"/>
<ellipse cx="346.769" cy="2" rx="2.23003" ry="2" fill="white"/>
<ellipse cx="369.07" cy="2" rx="2.23003" ry="2" fill="white"/>
<ellipse cx="391.371" cy="2" rx="2.23003" ry="2" fill="white"/>
<ellipse cx="413.671" cy="2" rx="2.23003" ry="2" fill="white"/>
<ellipse cx="435.972" cy="2" rx="2.23003" ry="2" fill="white"/>
<ellipse cx="458.273" cy="2" rx="2.23003" ry="2" fill="white"/>
<ellipse cx="480.574" cy="2" rx="2.23003" ry="2" fill="white"/>
<ellipse cx="502.871" cy="2" rx="2.23003" ry="2" fill="white"/>
<ellipse cx="525.171" cy="2" rx="2.23003" ry="2" fill="white"/>
<ellipse cx="547.472" cy="2" rx="2.23003" ry="2" fill="white"/>
<ellipse cx="569.773" cy="2" rx="2.23003" ry="2" fill="white"/>
<ellipse cx="592.074" cy="2" rx="2.23003" ry="2" fill="white"/>
<ellipse cx="614.375" cy="2" rx="2.23003" ry="2" fill="white"/>
<ellipse cx="636.675" cy="2" rx="2.23003" ry="2" fill="white"/>
<ellipse cx="658.976" cy="2" rx="2.23003" ry="2" fill="white"/>
<ellipse cx="681.273" cy="2" rx="2.23003" ry="2" fill="white"/>
<ellipse cx="703.574" cy="2" rx="2.23003" ry="2" fill="white"/>
<ellipse cx="725.875" cy="2" rx="2.23003" ry="2" fill="white"/>
<ellipse cx="748.175" cy="2" rx="2.23003" ry="2" fill="white"/>
<ellipse cx="757.097" cy="11" rx="2.23003" ry="2" fill="white"/>
<ellipse cx="2.23003" cy="11" rx="2.23003" ry="2" fill="white"/>
<ellipse cx="757.097" cy="30" rx="2.23003" ry="2" fill="white"/>
<ellipse cx="2.23003" cy="30" rx="2.23003" ry="2" fill="white"/>
<ellipse cx="757.097" cy="49" rx="2.23003" ry="2" fill="white"/>
<ellipse cx="2.23003" cy="49" rx="2.23003" ry="2" fill="white"/>
<ellipse cx="757.097" cy="68" rx="2.23003" ry="2" fill="white"/>
<ellipse cx="2.23003" cy="68" rx="2.23003" ry="2" fill="white"/>
<ellipse cx="757.097" cy="87" rx="2.23003" ry="2" fill="white"/>
<ellipse cx="2.23003" cy="87" rx="2.23003" ry="2" fill="white"/>
<ellipse cx="757.097" cy="106" rx="2.23003" ry="2" fill="white"/>
<ellipse cx="757.097" cy="106.5" rx="2.23003" ry="2" fill="white"/>
<ellipse cx="757.097" cy="125.5" rx="2.23003" ry="2" fill="white"/>
<ellipse cx="757.097" cy="144.5" rx="2.23003" ry="2" fill="white"/>
<ellipse cx="754.867" cy="163.008" rx="2.23003" ry="2" fill="white"/>
<ellipse cx="2.23003" cy="106" rx="2.23003" ry="2" fill="white"/>
<ellipse cx="2.23003" cy="125" rx="2.23003" ry="2" fill="white"/>
<ellipse cx="2.23003" cy="144" rx="2.23003" ry="2" fill="white"/>
<ellipse cx="2.23003" cy="161.008" rx="2.23003" ry="2" fill="white"/>
<ellipse cx="16.1714" cy="168.016" rx="2.23003" ry="2" fill="white"/>
<ellipse cx="170.043" cy="168.016" rx="2.23003" ry="2" fill="white"/>
<ellipse cx="323.914" cy="168.016" rx="2.23003" ry="2" fill="white"/>
<ellipse cx="477.785" cy="168.016" rx="2.23003" ry="2" fill="white"/>
<ellipse cx="631.656" cy="168.016" rx="2.23003" ry="2" fill="white"/>
<ellipse cx="38.4722" cy="168.016" rx="2.23003" ry="2" fill="white"/>
<ellipse cx="192.339" cy="168.016" rx="2.23003" ry="2" fill="white"/>
<ellipse cx="346.214" cy="168.016" rx="2.23003" ry="2" fill="white"/>
<ellipse cx="500.082" cy="168.016" rx="2.23003" ry="2" fill="white"/>
<ellipse cx="653.957" cy="168.016" rx="2.23003" ry="2" fill="white"/>
<ellipse cx="60.7691" cy="168.016" rx="2.23003" ry="2" fill="white"/>
<ellipse cx="214.644" cy="168.016" rx="2.23003" ry="2" fill="white"/>
<ellipse cx="368.511" cy="168.016" rx="2.23003" ry="2" fill="white"/>
<ellipse cx="522.386" cy="168.016" rx="2.23003" ry="2" fill="white"/>
<ellipse cx="676.253" cy="168.016" rx="2.23003" ry="2" fill="white"/>
<ellipse cx="83.0738" cy="168.016" rx="2.23003" ry="2" fill="white"/>
<ellipse cx="236.941" cy="168.016" rx="2.23003" ry="2" fill="white"/>
<ellipse cx="390.816" cy="168.016" rx="2.23003" ry="2" fill="white"/>
<ellipse cx="544.683" cy="168.016" rx="2.23003" ry="2" fill="white"/>
<ellipse cx="698.558" cy="168.016" rx="2.23003" ry="2" fill="white"/>
<ellipse cx="105.371" cy="168.016" rx="2.23003" ry="2" fill="white"/>
<ellipse cx="259.242" cy="168.016" rx="2.23003" ry="2" fill="white"/>
<ellipse cx="413.113" cy="168.016" rx="2.23003" ry="2" fill="white"/>
<ellipse cx="566.984" cy="168.016" rx="2.23003" ry="2" fill="white"/>
<ellipse cx="720.855" cy="168.016" rx="2.23003" ry="2" fill="white"/>
<ellipse cx="127.671" cy="168.016" rx="2.23003" ry="2" fill="white"/>
<ellipse cx="281.543" cy="168.016" rx="2.23003" ry="2" fill="white"/>
<ellipse cx="435.414" cy="168.016" rx="2.23003" ry="2" fill="white"/>
<ellipse cx="589.285" cy="168.016" rx="2.23003" ry="2" fill="white"/>
<ellipse cx="743.156" cy="168.016" rx="2.23003" ry="2" fill="white"/>
<ellipse cx="147.742" cy="168.016" rx="2.23003" ry="2" fill="white"/>
<ellipse cx="301.613" cy="168.016" rx="2.23003" ry="2" fill="white"/>
<ellipse cx="455.484" cy="168.016" rx="2.23003" ry="2" fill="white"/>
<ellipse cx="609.355" cy="168.016" rx="2.23003" ry="2" fill="white"/>

<style>
    @keyframes neon {
        0%    { opacity: 1; }
        3%    { opacity: 0.4; }
        6%    { opacity: 1; }
        7%    { opacity: 0.4; }
        8%    { opacity: 1; }
        9%    { opacity: 0.4; }
        10%   { opacity: 1; }       
        89%   { opacity: 1; }
        90%   { opacity: 0.4; }
        100%  { opacity: 0.4; }
    }

    .ani-light.active {
        animation: neon 3s linear infinite;
    }
</style>
<script>
    // <![CDATA[
        const configObserver = {
            rootMargin: '-50px -50px -50px -50px',
            threshold: [0, 0.25, 0.75, 1]
        };

        const addActives = document.querySelectorAll('.add-active-js');

        const observerAddActives = new IntersectionObserver(entries => {
            entries.forEach(entry => {
                if (entry.intersectionRatio > 0) {
                    entry.target.classList.add('active')
                } else {
                    entry.target.classList.remove('active')
                }
            });
        }, configObserver);

        addActives.forEach(ele => {
            observerAddActives.observe(ele);
        });
    // ]]>
</script>
</svg>
