<svg width="389" height="632" viewBox="0 0 389 632" fill="none" xmlns="http://www.w3.org/2000/svg">
<path d="M77.958 62.7213C77.958 40.9688 70.3619 35.099 58.2772 35.099C46.1925 35.099 38.5964 41.6593 38.5964 58.9232V84.819H2.6875V61.3401C2.6875 22.669 22.023 0.571289 59.313 0.571289C96.603 0.571289 115.939 22.669 115.939 61.3401C115.939 137.301 40.3228 165.614 40.3228 205.321C40.3228 207.047 40.3228 208.774 40.668 210.5H112.486V245.028H2.6875V215.334C2.6875 144.207 77.958 132.467 77.958 62.7213Z" fill="white"/>
<path d="M174.458 58.9232V571.652C174.458 588.916 182.054 595.476 194.139 595.476C206.223 595.476 213.819 588.916 213.819 571.652V58.9232C213.819 41.6593 206.223 35.099 194.139 35.099C182.054 35.099 174.458 41.6593 174.458 58.9232ZM136.477 569.235V61.3401C136.477 22.669 156.849 0.571289 194.139 0.571289C231.429 0.571289 251.8 22.669 251.8 61.3401V569.235C251.8 607.906 231.429 630.004 194.139 630.004C156.849 630.004 136.477 607.906 136.477 569.235Z" fill="white"/>
<path d="M311.355 58.9232V571.652C311.355 588.916 318.951 595.476 331.036 595.476C343.12 595.476 350.717 588.916 350.717 571.652V58.9232C350.717 41.6593 343.12 35.099 331.036 35.099C318.951 35.099 311.355 41.6593 311.355 58.9232ZM273.374 569.235V61.3401C273.374 22.669 293.746 0.571289 331.036 0.571289C368.326 0.571289 388.697 22.669 388.697 61.3401V569.235C388.697 607.906 368.326 630.004 331.036 630.004C293.746 630.004 273.374 607.906 273.374 569.235Z" fill="white"/>
<path d="M75.8838 459.62V446.154C75.8838 424.401 68.2877 418.532 56.203 418.532C44.1183 418.532 36.5222 425.092 36.5222 442.356V457.893H0.613281V444.773C0.613281 406.102 19.9488 384.004 57.2388 384.004C94.5288 384.004 113.864 406.102 113.864 444.773V450.988C113.864 476.884 105.578 493.112 87.278 500.708C106.268 508.994 113.864 526.949 113.864 551.464V570.454C113.864 609.125 94.5288 631.223 57.2388 631.223C19.9488 631.223 0.613281 609.125 0.613281 570.454V550.428H36.5222V572.871C36.5222 590.135 44.1183 596.695 56.203 596.695C68.2877 596.695 75.8838 590.825 75.8838 569.418V550.428C75.8838 527.985 68.2877 519.698 51.0238 519.698H38.2485V485.17H53.0955C67.2519 485.17 75.8838 478.955 75.8838 459.62Z" fill="white"/>
</svg>
