<svg width="92" height="30" viewBox="0 0 92 30" fill="none" xmlns="http://www.w3.org/2000/svg">
<rect x="0.744141" y="0.330078" width="90.8835" height="28.9126" rx="14.4563" fill="#4A1674"/>
<path d="M14.6776 18.7871H11.7202V10.0598H14.7372C15.6037 10.0598 16.348 10.2346 16.9702 10.584C17.5952 10.9306 18.0753 11.4292 18.4105 12.0797C18.7457 12.7303 18.9134 13.5087 18.9134 14.415C18.9134 15.324 18.7443 16.1053 18.4062 16.7587C18.071 17.4121 17.5866 17.9135 16.9531 18.263C16.3224 18.6124 15.5639 18.7871 14.6776 18.7871ZM13.3011 17.4192H14.6009C15.2088 17.4192 15.7159 17.3084 16.1222 17.0868C16.5284 16.8624 16.8338 16.5286 17.0384 16.0854C17.2429 15.6394 17.3452 15.0826 17.3452 14.415C17.3452 13.7473 17.2429 13.1934 17.0384 12.753C16.8338 12.3098 16.5313 11.9789 16.1307 11.7601C15.733 11.5385 15.2386 11.4277 14.6477 11.4277H13.3011V17.4192ZM20.3473 18.7871V12.2417H21.8899V18.7871H20.3473ZM21.1229 11.3127C20.8786 11.3127 20.6683 11.2317 20.4922 11.0698C20.3161 10.905 20.228 10.7076 20.228 10.4774C20.228 10.2445 20.3161 10.0471 20.4922 9.88512C20.6683 9.72035 20.8786 9.63796 21.1229 9.63796C21.37 9.63796 21.5803 9.72035 21.7536 9.88512C21.9297 10.0471 22.0178 10.2445 22.0178 10.4774C22.0178 10.7076 21.9297 10.905 21.7536 11.0698C21.5803 11.2317 21.37 11.3127 21.1229 11.3127ZM21.1314 21.1436C20.8842 21.1436 20.6726 21.0613 20.4964 20.8965C20.3232 20.7317 20.2365 20.5343 20.2365 20.3042C20.2365 20.074 20.3232 19.8766 20.4964 19.7118C20.6726 19.5471 20.8828 19.4647 21.1271 19.4647C21.3743 19.4647 21.5845 19.5471 21.7578 19.7118C21.9339 19.8766 22.022 20.074 22.022 20.3042C22.022 20.5343 21.9339 20.7317 21.7578 20.8965C21.5845 21.0613 21.3757 21.1436 21.1314 21.1436ZM26.3313 18.915C25.6779 18.915 25.1168 18.7715 24.6481 18.4846C24.1822 18.1976 23.8228 17.8013 23.57 17.2956C23.32 16.7871 23.195 16.2019 23.195 15.54C23.195 14.8752 23.3228 14.2885 23.5785 13.78C23.8342 13.2686 24.195 12.8709 24.6609 12.5868C25.1296 12.2999 25.6836 12.1564 26.3228 12.1564C26.854 12.1564 27.3242 12.2544 27.7333 12.4505C28.1452 12.6436 28.4734 12.9178 28.7177 13.2729C28.962 13.6252 29.1012 14.0371 29.1353 14.5087H27.6609C27.6012 14.1934 27.4592 13.9306 27.2347 13.7203C27.0131 13.5073 26.7163 13.4007 26.3441 13.4007C26.0288 13.4007 25.7518 13.486 25.5131 13.6564C25.2745 13.824 25.0884 14.0655 24.9549 14.3809C24.8242 14.6962 24.7589 15.074 24.7589 15.5144C24.7589 15.9604 24.8242 16.3439 24.9549 16.665C25.0856 16.9831 25.2688 17.2289 25.5046 17.4022C25.7433 17.5726 26.0231 17.6578 26.3441 17.6578C26.5714 17.6578 26.7745 17.6152 26.9535 17.53C27.1353 17.4419 27.2873 17.3155 27.4094 17.1507C27.5316 16.986 27.6154 16.7857 27.6609 16.5499H29.1353C29.0984 17.013 28.962 17.4235 28.7262 17.7814C28.4904 18.1365 28.1694 18.415 27.7631 18.6167C27.3569 18.8155 26.8796 18.915 26.3313 18.915ZM31.9446 14.9519V18.7871H30.402V10.0598H31.9105V13.3539H31.9872C32.1406 12.9846 32.3778 12.6934 32.6989 12.4803C33.0227 12.2644 33.4347 12.1564 33.9347 12.1564C34.3892 12.1564 34.7855 12.2516 35.1236 12.4419C35.4616 12.6323 35.723 12.9107 35.9077 13.2772C36.0952 13.6436 36.1889 14.0911 36.1889 14.6195V18.7871H34.6463V14.8581C34.6463 14.4178 34.5327 14.0755 34.3054 13.8311C34.081 13.584 33.7656 13.4604 33.3594 13.4604C33.0866 13.4604 32.8423 13.5201 32.6264 13.6394C32.4134 13.7559 32.2457 13.9249 32.1236 14.1465C32.0043 14.3681 31.9446 14.6365 31.9446 14.9519ZM46.5845 12.2417L44.2536 18.7871H42.549L40.218 12.2417H41.8629L43.3672 17.1039H43.4354L44.9439 12.2417H46.5845ZM51.8239 16.0343V12.2417H53.3665V18.7871H51.8707V17.6238H51.8026C51.6548 17.9902 51.4119 18.29 51.0739 18.5229C50.7386 18.7559 50.3253 18.8723 49.8338 18.8723C49.4048 18.8723 49.0256 18.7772 48.696 18.5868C48.3693 18.3936 48.1136 18.1138 47.929 17.7473C47.7443 17.378 47.652 16.932 47.652 16.4093V12.2417H49.1946V16.1706C49.1946 16.5854 49.3082 16.915 49.5355 17.1593C49.7628 17.4036 50.0611 17.5257 50.4304 17.5257C50.6577 17.5257 50.8778 17.4703 51.0909 17.3596C51.304 17.2488 51.4787 17.084 51.6151 16.8652C51.7543 16.6436 51.8239 16.3667 51.8239 16.0343ZM50.6989 21.1436C50.4517 21.1436 50.2401 21.0613 50.0639 20.8965C49.8906 20.7317 49.804 20.5343 49.804 20.3042C49.804 20.074 49.8906 19.8766 50.0639 19.7118C50.2401 19.5471 50.4503 19.4647 50.6946 19.4647C50.9418 19.4647 51.152 19.5471 51.3253 19.7118C51.5014 19.8766 51.5895 20.074 51.5895 20.3042C51.5895 20.5343 51.5014 20.7317 51.3253 20.8965C51.152 21.0613 50.9432 21.1436 50.6989 21.1436ZM62.7404 12.459C62.7006 12.0868 62.533 11.7971 62.2376 11.5897C61.945 11.3823 61.5643 11.2786 61.0955 11.2786C60.766 11.2786 60.4833 11.3283 60.2475 11.4277C60.0117 11.5272 59.8313 11.6621 59.7063 11.8326C59.5813 12.003 59.5174 12.1976 59.5146 12.4164C59.5146 12.5982 59.5558 12.7559 59.6381 12.8894C59.7234 13.0229 59.8384 13.1365 59.9833 13.2303C60.1282 13.3212 60.2887 13.3979 60.4648 13.4604C60.641 13.5229 60.8185 13.5755 60.9975 13.6181L61.8157 13.8226C62.1452 13.8993 62.462 14.003 62.766 14.1337C63.0728 14.2644 63.3469 14.4292 63.5884 14.628C63.8327 14.8269 64.0259 15.0669 64.168 15.3482C64.31 15.6294 64.381 15.959 64.381 16.3368C64.381 16.8482 64.2504 17.2985 63.989 17.6877C63.7276 18.074 63.3498 18.3766 62.8555 18.5953C62.364 18.8113 61.7688 18.9192 61.07 18.9192C60.391 18.9192 59.8015 18.8141 59.3015 18.6039C58.8043 18.3936 58.4151 18.0868 58.1339 17.6834C57.8555 17.28 57.7049 16.7885 57.6822 16.209H59.2376C59.2603 16.513 59.354 16.7658 59.5188 16.9675C59.6836 17.1692 59.8981 17.3198 60.1623 17.4192C60.4293 17.5186 60.7276 17.5684 61.0572 17.5684C61.4009 17.5684 61.7021 17.5172 61.9606 17.415C62.2219 17.3098 62.4265 17.165 62.5742 16.9803C62.7219 16.7928 62.7972 16.574 62.8001 16.324C62.7972 16.0968 62.7305 15.9093 62.5998 15.7615C62.4691 15.611 62.2859 15.486 62.0501 15.3865C61.8171 15.2843 61.5444 15.1934 61.2319 15.1138L60.239 14.8581C59.5202 14.6735 58.9521 14.3936 58.5344 14.0186C58.1197 13.6408 57.9123 13.1394 57.9123 12.5144C57.9123 12.0002 58.0515 11.5499 58.3299 11.1635C58.6112 10.7772 58.9933 10.4775 59.4762 10.2644C59.9592 10.0485 60.506 9.94052 61.1168 9.94052C61.7362 9.94052 62.2788 10.0485 62.7447 10.2644C63.2134 10.4775 63.5813 10.7743 63.8484 11.155C64.1154 11.5328 64.2532 11.9675 64.2617 12.459H62.7404ZM65.7905 18.7871V10.0598H71.4666V11.3851H67.3714V13.7544H71.1726V15.0797H67.3714V17.4618H71.5007V18.7871H65.7905ZM80.8778 14.4235C80.8778 15.3638 80.7017 16.1692 80.3494 16.8397C80 17.5073 79.5227 18.0186 78.9176 18.3738C78.3153 18.7289 77.6321 18.9064 76.8679 18.9064C76.1037 18.9064 75.419 18.7289 74.8139 18.3738C74.2116 18.0158 73.7344 17.503 73.3821 16.8354C73.0327 16.165 72.858 15.361 72.858 14.4235C72.858 13.4831 73.0327 12.6792 73.3821 12.0115C73.7344 11.3411 74.2116 10.8283 74.8139 10.4732C75.419 10.1181 76.1037 9.94052 76.8679 9.94052C77.6321 9.94052 78.3153 10.1181 78.9176 10.4732C79.5227 10.8283 80 11.3411 80.3494 12.0115C80.7017 12.6792 80.8778 13.4831 80.8778 14.4235ZM79.2884 14.4235C79.2884 13.7615 79.1847 13.2033 78.9773 12.7488C78.7727 12.2914 78.4886 11.9462 78.125 11.7132C77.7614 11.4775 77.3423 11.3596 76.8679 11.3596C76.3935 11.3596 75.9744 11.4775 75.6108 11.7132C75.2472 11.9462 74.9616 12.2914 74.7543 12.7488C74.5497 13.2033 74.4474 13.7615 74.4474 14.4235C74.4474 15.0854 74.5497 15.6451 74.7543 16.1025C74.9616 16.557 75.2472 16.9022 75.6108 17.138C75.9744 17.3709 76.3935 17.4874 76.8679 17.4874C77.3423 17.4874 77.7614 17.3709 78.125 17.138C78.4886 16.9022 78.7727 16.557 78.9773 16.1025C79.1847 15.6451 79.2884 15.0854 79.2884 14.4235Z" fill="#F41E92"/>
</svg>
