<svg width="2052" height="853" viewBox="0 0 2052 853" fill="none" xmlns="http://www.w3.org/2000/svg">
<path fill-rule="evenodd" clip-rule="evenodd" d="M1131.84 693.995C1101.01 730.451 1070.94 761.534 1041.9 782.359C1027.87 792.417 1015.03 800.235 1003.33 805.58C991.848 810.821 979.896 814.413 968.106 814.213C955.369 813.997 943.491 809.297 934.56 799.575C926.351 790.638 922.474 779.458 920.568 769.246C916.822 749.176 919.039 723.352 923.528 696.172C928.136 668.277 935.691 635.972 944.488 601.648C950.932 576.507 958.011 550.365 965.216 523.755C977.965 476.677 991.109 428.137 1001.83 381.089C1018.73 306.934 1028.03 242.534 1021.15 200.037C1019.71 191.104 1017.33 188.492 1017 188.172C1016.89 188.067 1016.84 188.029 1016.61 187.953C1016.29 187.844 1015.3 187.586 1013.31 187.661C1003.39 188.034 984.934 195.481 957.555 214.439C904.756 250.999 835.506 318.174 765.26 393.136C695.417 467.669 626.008 548.346 573.057 610.748C561.596 624.255 550.86 636.96 541.06 648.557C528.326 663.627 517.171 676.828 508.054 687.493C499.981 696.937 493.261 704.681 488.282 710.161C485.831 712.859 483.523 715.317 481.549 717.238C480.602 718.161 479.346 719.34 477.954 720.452C477.913 720.486 477.869 720.52 477.824 720.556C450.65 750.194 417.006 781.375 381.566 805.932C345.861 830.674 305.413 850.748 266.397 852.687C246.342 853.684 226.274 849.893 207.908 839.139C189.585 828.411 174.634 811.738 163.147 789.675C140.634 746.435 130.099 680.001 133.345 585.347C136.512 493.033 132.212 426.749 123.752 380.257C115.166 333.078 102.825 309.326 92.6181 298.644C87.8624 293.667 83.9567 291.909 81.2018 291.267C78.3871 290.611 75.0233 290.716 70.811 292.18C61.6652 295.357 50.7961 304.274 41.8991 317.152L0.761719 288.732C13.2815 270.61 31.8458 252.785 54.4032 244.948C66.0425 240.905 79.0977 239.436 92.5511 242.572C106.064 245.721 118.276 253.121 128.768 264.102C149.058 285.335 163.735 320.698 172.944 371.306C182.279 422.601 186.55 492.775 183.316 587.061C180.163 679.006 191.011 734.921 207.496 766.585C215.508 781.973 224.46 790.89 233.171 795.991C241.84 801.067 251.941 803.344 263.915 802.749C288.957 801.504 320.013 787.754 353.089 764.835C385.551 742.341 417.176 712.968 442.826 684.732L448.492 678.494L449.684 678.274C450.166 677.753 450.696 677.176 451.276 676.537C455.705 671.662 462.002 664.417 470.047 655.004C479.114 644.398 490.091 631.408 502.71 616.473C512.504 604.884 523.286 592.123 534.933 578.398C587.997 515.863 658.057 434.415 728.776 358.947C799.093 283.909 871.499 213.21 929.091 173.332C956.908 154.071 985.831 138.659 1011.43 137.696C1025.53 137.166 1040.05 140.996 1051.61 152.094C1062.6 162.638 1068.08 177.042 1070.51 192.047C1079.13 245.299 1067.37 318.525 1050.58 392.198C1039.68 440.054 1025.99 490.634 1013.04 538.478C1005.91 564.804 999.012 590.301 992.923 614.061C984.22 648.018 977.104 678.628 972.86 704.32C968.498 730.729 967.683 749.166 969.719 760.073C970.054 761.867 970.415 763.165 970.726 764.074C972.908 763.746 976.721 762.762 982.558 760.097C990.329 756.548 1000.29 750.667 1012.76 741.725C1036.72 724.55 1063.61 697.248 1093.66 661.707C1123.55 626.369 1155.55 584.13 1189.93 537.906C1197.75 527.383 1205.7 516.658 1213.76 505.775C1276.15 421.549 1345.57 327.839 1421.22 244.733C1506.48 151.058 1601.79 68.376 1707.07 27.5209C1813.92 -13.9453 1929.64 -11.7053 2051.72 61.7856L2025.94 104.623C1917.53 39.3642 1818.05 38.0839 1725.16 74.1341C1630.68 110.795 1541.68 186.666 1458.19 278.389C1384.37 359.491 1316.54 451.049 1253.97 535.495C1245.91 546.376 1237.94 557.138 1230.05 567.744C1195.67 613.966 1162.84 657.336 1131.84 693.995Z" fill="#FF4BAD"/>
</svg>
