<svg width="1728" height="501" viewBox="0 0 1728 501" fill="none" xmlns="http://www.w3.org/2000/svg">
<path d="M5.52395 443.835C52.9065 406.23 92.3124 373.442 125.262 322.63C143.632 294.301 150.811 273.642 146.533 241.857C142.029 208.4 111.092 183.194 83.4546 167.96C56.4368 153.069 20.4867 142.027 -9.9705 153.2C-33.4268 161.804 -47.2291 187.038 -40.1342 211.418C-31.2084 242.091 3.07417 258.115 31.2869 265.42C134.072 292.031 247.068 258.442 340.809 216.828C389.254 195.322 436.035 168.55 476.317 133.854C499.851 113.584 525.129 88.2236 536.369 58.4908C542.803 41.4733 540.628 24.061 522.984 15.3081C503.599 5.69207 482.386 13.2015 467.79 27.6853C404.339 90.6523 527.462 145.754 572.217 159.801C645.437 182.781 729.477 193.76 804.634 173.461C848.609 161.585 879.62 144.923 913.37 114.968C921.336 107.897 954.179 79.9825 943.626 59.2243C932.89 38.106 883.463 47.4067 867.712 52.5314C839.181 61.8147 818.728 91.8823 837.09 120.56C862.583 160.375 929.506 170.497 971.131 176.304C1052.98 187.721 1138.57 183.569 1218.49 162.184C1247.53 154.413 1281.86 140.834 1308.71 126.245C1316.54 121.99 1340.53 106.337 1347.77 97.2728C1363.68 77.3186 1337.74 52.778 1322.83 42.6296C1275.61 10.4953 1132.13 -13.0841 1132.49 77.836C1132.69 126.799 1178.39 165.632 1215.56 189.506C1276.18 228.448 1349.05 253.103 1419.28 267.62C1472.61 278.645 1528.4 280.204 1582.11 270.737C1613.93 265.128 1658.76 254.539 1676.36 223.429C1685.3 207.618 1680.37 183.043 1661.14 177.404C1635.48 169.879 1600.49 196.823 1585.59 214.26C1570.79 231.585 1561.54 253.587 1559.92 276.422C1558.26 299.763 1565.99 358.493 1576.97 377.64C1608.91 433.341 1663.83 459.678 1723.67 477.758C1740.32 482.791 1755.53 487.071 1769.57 490.73" stroke="#973ADF" stroke-width="20" stroke-linecap="round"/>
</svg>
