<svg width="1106" height="339" viewBox="0 0 1106 339" fill="none" xmlns="http://www.w3.org/2000/svg">
<path d="M0.781785 1.11693C169.217 4.58067 358.79 -9.25068 465.207 145.171C508.979 208.687 523.418 288.967 601.349 323.717C698.163 366.887 789.262 298.702 856.295 235.7C885.887 207.888 915.302 189.38 956.563 180.911C1005.14 170.941 1057.98 178.3 1105.02 191.848" stroke="url(#paint0_linear_4904_8485)" stroke-dasharray="10 10"/>
<defs>
<linearGradient id="paint0_linear_4904_8485" x1="-40.4232" y1="140.545" x2="1124.78" y2="492.04" gradientUnits="userSpaceOnUse">
<stop stop-color="#9D6FC2"/>
<stop offset="1" stop-color="#9D6FC2" stop-opacity="0.1"/>
</linearGradient>
</defs>
<style>
    @keyframes galactic {
        0% {
            stroke-dashoffset: 0;
        }
        100% {
            stroke-dashoffset: 25;
        }
    }
    path {
        stroke-dasharray: 7 5;
        animation: galactic .4s infinite linear reverse;
    }
</style>
</svg>
