<svg width="900" height="172" viewBox="0 0 900 172" fill="none" xmlns="http://www.w3.org/2000/svg">
<path d="M898.646 101.383C859.938 66.5327 738.404 -15.969 540.538 5.06164C300.504 5.06164 289.477 202.931 0.138672 166.278" stroke="url(#paint0_linear_4904_8493)" stroke-dasharray="10 10"/>
<defs>
<linearGradient id="paint0_linear_4904_8493" x1="0.799786" y1="170.536" x2="983.961" y2="170.536" gradientUnits="userSpaceOnUse">
<stop stop-color="#9D6FC2" stop-opacity="0.1"/>
<stop offset="1" stop-color="#9D6FC2"/>
</linearGradient>
</defs>
<style>
    @keyframes galactic {
        0% {
            stroke-dashoffset: 0;
        }
        100% {
            stroke-dashoffset: 25;
        }
    }
    path {
        stroke-dasharray: 7 5;
        animation: galactic .4s infinite linear reverse;
    }
</style>
</svg>
