<svg width="31" height="34" viewBox="0 0 31 34" fill="none" xmlns="http://www.w3.org/2000/svg">
<g filter="url(#filter0_f_4607_10460)">
<path d="M9.62357 6.54578C9.63902 6.52003 9.65704 6.49429 9.67248 6.46854C9.71883 6.39902 9.76774 6.33722 9.82181 6.278C9.85013 6.2471 9.87587 6.21878 9.90677 6.19046C9.96598 6.13382 10.0329 6.07975 10.0999 6.0334C10.1539 5.99736 10.208 5.96131 10.2672 5.93041C10.2955 5.91496 10.3238 5.90209 10.3547 5.88664C10.365 5.88149 10.3753 5.87891 10.3831 5.87376C10.4036 5.86604 10.4242 5.85575 10.4448 5.84802C10.4577 5.84287 10.468 5.84029 10.4809 5.83514C10.5015 5.82742 10.5195 5.82227 10.5401 5.81455C10.553 5.8094 10.5658 5.80682 10.5787 5.80167C10.5864 5.7991 10.5967 5.79652 10.6045 5.79395C10.6173 5.7888 10.6328 5.78623 10.6457 5.78365C10.6534 5.78365 10.6611 5.77851 10.6714 5.77593C10.7023 5.76821 10.7358 5.76047 10.7692 5.75275C10.7744 5.75275 10.7795 5.75276 10.7873 5.75018C10.8156 5.74503 10.8439 5.73988 10.8722 5.73473C10.8825 5.73473 10.8928 5.73215 10.9031 5.72958C10.9288 5.727 10.9572 5.72186 10.9829 5.71929C10.9906 5.71929 11.0009 5.71928 11.0087 5.71671C11.0447 5.71413 11.0782 5.71156 11.1142 5.70898C11.1219 5.70898 11.1297 5.70898 11.1374 5.70898C11.1657 5.70898 11.1966 5.70898 11.2249 5.70898C11.2352 5.70898 11.2481 5.70898 11.2584 5.70898C11.2687 5.70898 11.279 5.70898 11.2893 5.70898C11.2996 5.70898 11.3125 5.70898 11.3253 5.70898C11.3511 5.70898 11.3768 5.70899 11.4026 5.71156C11.4232 5.71156 11.4412 5.71156 11.4618 5.71413C11.4875 5.71413 11.5158 5.71928 11.5416 5.72185C11.5622 5.72185 11.5828 5.72443 11.6008 5.72701C11.6291 5.72958 11.6549 5.73473 11.6832 5.7373C11.7038 5.73988 11.7244 5.74245 11.745 5.74503C11.7733 5.75018 11.8042 5.75533 11.8325 5.76048C11.848 5.76306 11.8608 5.76563 11.8763 5.76821C11.8814 5.76821 11.8866 5.7682 11.8917 5.77078C11.9097 5.77335 11.9303 5.7785 11.9484 5.78108C11.9741 5.78623 12.0024 5.79138 12.0282 5.7991C12.0488 5.80425 12.0668 5.8094 12.0874 5.81197C12.1131 5.81712 12.1414 5.82485 12.1672 5.83258C12.1878 5.83772 12.2084 5.84287 12.229 5.84802C12.2573 5.85575 12.283 5.86347 12.3114 5.87119C12.332 5.87634 12.3526 5.88407 12.3757 5.88922C12.3886 5.89179 12.3989 5.89694 12.4118 5.89951C12.4298 5.90466 12.4504 5.91239 12.4684 5.91754C12.4839 5.92269 12.4993 5.92784 12.5148 5.93299C12.5559 5.94586 12.5971 5.96131 12.6409 5.97418C12.6461 5.97418 12.6512 5.97675 12.6589 5.97933C12.7078 5.99735 12.7542 6.01281 12.8031 6.0334C12.8185 6.03855 12.8314 6.0437 12.8469 6.04885C12.87 6.05658 12.8932 6.06687 12.9164 6.07459C12.9292 6.07974 12.9421 6.0849 12.955 6.09005C12.9679 6.0952 12.9833 6.10034 12.9962 6.10807C13.0374 6.12609 13.0811 6.14412 13.1223 6.16214C13.1301 6.16472 13.1378 6.16729 13.1455 6.17244C13.1944 6.19303 13.2459 6.21621 13.2948 6.23938C13.3077 6.24453 13.3206 6.25226 13.336 6.25741C13.3566 6.26771 13.3772 6.27543 13.3952 6.28572C13.4158 6.29602 13.4364 6.30632 13.457 6.31662C13.4673 6.32177 13.4776 6.32692 13.4905 6.33207C13.542 6.35782 13.5909 6.38099 13.6424 6.40674C13.6527 6.41189 13.663 6.41704 13.6759 6.42219C13.7196 6.44536 13.7634 6.46854 13.8072 6.49171C13.8175 6.49686 13.8303 6.50458 13.8406 6.50973C13.8484 6.5123 13.8535 6.51745 13.8612 6.52003C13.8741 6.52775 13.8895 6.53548 13.905 6.5432C13.9565 6.57152 14.0054 6.59985 14.0569 6.62817C14.0801 6.64104 14.1058 6.65649 14.129 6.66937C14.1779 6.69769 14.2268 6.72601 14.2757 6.75433C14.2912 6.76205 14.3066 6.77236 14.3195 6.78008C14.3272 6.78523 14.3375 6.79038 14.3452 6.79553C14.3967 6.82642 14.4482 6.85732 14.4997 6.89079C14.5177 6.90109 14.5357 6.91139 14.5538 6.92426C14.6233 6.96804 14.6928 7.0118 14.7649 7.05815C14.7649 7.05815 14.77 7.06073 14.7726 7.0633C14.8318 7.10192 14.8885 7.14054 14.9477 7.17916C15.0275 7.23323 15.1099 7.28987 15.1897 7.34652C15.2 7.35424 15.2077 7.3594 15.218 7.36712C15.236 7.38 15.2515 7.39029 15.2695 7.40316C15.3107 7.43149 15.3519 7.46238 15.3931 7.4907C15.4214 7.5113 15.4497 7.53191 15.478 7.5525C15.5192 7.5834 15.5604 7.61172 15.6016 7.64262C15.6196 7.65549 15.6376 7.66837 15.6531 7.68124C15.6634 7.68896 15.6763 7.69927 15.6866 7.70699C15.7252 7.73789 15.7664 7.7662 15.805 7.7971C15.8333 7.8177 15.8616 7.84087 15.8899 7.86405C15.9311 7.89494 15.9723 7.92841 16.0135 7.95931C16.0341 7.97733 16.0573 7.99278 16.0779 8.00823C16.083 8.01338 16.0908 8.01853 16.0959 8.02111C16.1345 8.05201 16.1731 8.0829 16.2118 8.11637C16.2401 8.13955 16.2658 8.16014 16.2941 8.18331C16.3353 8.21678 16.3791 8.25284 16.4203 8.28631C16.4435 8.30433 16.4641 8.32235 16.4872 8.34038C16.4872 8.34038 16.4924 8.34552 16.495 8.34552C16.5258 8.37127 16.5567 8.39702 16.5876 8.42277C16.6211 8.45109 16.6546 8.47941 16.688 8.50773C16.7189 8.53348 16.7498 8.5618 16.7807 8.58755C16.8116 8.6133 16.8425 8.64162 16.8734 8.66737C16.8734 8.66737 16.8786 8.66994 16.8786 8.67252C16.9867 8.76779 17.0922 8.86305 17.1978 8.95831C17.2055 8.96604 17.2158 8.97376 17.2235 8.98148C17.2287 8.98663 17.2338 8.99178 17.239 8.99693C17.3317 9.0819 17.4218 9.16687 17.5145 9.25441C17.5222 9.26213 17.5299 9.26985 17.5402 9.27758C17.5531 9.28788 17.5634 9.30075 17.5763 9.31105C17.6509 9.38057 17.723 9.45267 17.7977 9.52476C17.8054 9.53248 17.8157 9.54021 17.8234 9.54793C17.826 9.55051 17.8286 9.55308 17.8311 9.55566C17.9058 9.63032 17.9804 9.70499 18.0551 9.77966C18.0603 9.78481 18.068 9.78996 18.0731 9.79768C18.0912 9.81571 18.1066 9.83372 18.1246 9.84917C18.171 9.89552 18.2173 9.94187 18.2611 9.98821C18.2714 9.99851 18.2842 10.0114 18.2945 10.0217C18.3126 10.0397 18.328 10.0577 18.346 10.0758C18.3795 10.1092 18.413 10.1453 18.4464 10.1813C18.4593 10.1968 18.4748 10.2096 18.4876 10.2225C18.5057 10.2405 18.5211 10.2586 18.5391 10.2766C18.5674 10.3075 18.5983 10.3384 18.6267 10.3693C18.6395 10.3847 18.655 10.3976 18.6678 10.413C18.6884 10.4336 18.709 10.4568 18.7296 10.4774C18.7528 10.5032 18.776 10.5263 18.7991 10.5521C18.8094 10.5624 18.8197 10.5753 18.83 10.5856C18.8584 10.6165 18.8893 10.6499 18.9176 10.6808C18.933 10.6988 18.951 10.7169 18.9665 10.7349C18.9716 10.74 18.9768 10.7452 18.9794 10.7503C19.0257 10.8018 19.072 10.8533 19.1158 10.9022C19.1184 10.9074 19.1235 10.91 19.1261 10.9151C19.1364 10.928 19.1467 10.9383 19.1596 10.9512C19.1879 10.9846 19.2188 11.0181 19.2471 11.0516C19.2626 11.0696 19.278 11.0851 19.2935 11.1031C19.3063 11.1185 19.3218 11.134 19.3346 11.1494C19.3475 11.1623 19.3578 11.1752 19.3707 11.1906C19.4119 11.237 19.4505 11.2833 19.4917 11.3297C19.4917 11.3297 19.4917 11.3297 19.4943 11.3322C19.4943 11.3348 19.4994 11.3374 19.502 11.34C19.5355 11.3786 19.5689 11.4172 19.6024 11.4558C19.6204 11.4764 19.6384 11.497 19.6565 11.5176C19.6668 11.5305 19.6771 11.5434 19.6874 11.5537C19.6951 11.564 19.7028 11.5717 19.7105 11.582C19.7466 11.6232 19.78 11.6669 19.8161 11.7081C19.8238 11.7159 19.8315 11.7262 19.8393 11.7339C19.8495 11.7442 19.8573 11.7545 19.8676 11.7674C19.8856 11.788 19.901 11.8086 19.9191 11.8292C19.9525 11.8703 19.986 11.9115 20.0195 11.9527C20.0195 11.9527 20.0195 11.9553 20.022 11.9579C20.0246 11.9605 20.0272 11.9656 20.0298 11.9682C20.0581 12.0042 20.0864 12.0377 20.1147 12.0738C20.1379 12.1021 20.1611 12.1304 20.1842 12.1613C20.1894 12.169 20.1945 12.1742 20.1997 12.1819C20.2023 12.1845 20.2048 12.1896 20.21 12.1948C20.2409 12.2334 20.2718 12.2746 20.3052 12.3132C20.3207 12.3338 20.3361 12.3518 20.3516 12.3724C20.3593 12.3827 20.3696 12.393 20.3773 12.4059C20.385 12.4162 20.3928 12.4265 20.4005 12.4368C20.434 12.478 20.4649 12.5192 20.4983 12.5604C20.5061 12.5707 20.5138 12.581 20.5241 12.5939C20.5318 12.6042 20.5421 12.617 20.5498 12.6273C20.5653 12.6479 20.5807 12.6659 20.5936 12.6865C20.6271 12.7303 20.6605 12.7741 20.694 12.8179C20.694 12.8179 20.6966 12.823 20.6991 12.823C20.7017 12.8282 20.7069 12.8307 20.7094 12.8359C20.7378 12.8719 20.7661 12.9105 20.7944 12.9466C20.8176 12.9801 20.8433 13.011 20.8665 13.0444C20.8768 13.0573 20.8871 13.0728 20.8974 13.0856C20.936 13.1371 20.9746 13.1886 21.0107 13.2427C21.0132 13.2478 21.0184 13.253 21.021 13.2556C21.0287 13.2684 21.039 13.2787 21.0467 13.2916C21.0724 13.3277 21.0982 13.3611 21.1239 13.3972C21.1368 13.4126 21.1471 13.4306 21.16 13.4461C21.1806 13.4744 21.2012 13.5027 21.2192 13.5311C21.2346 13.5517 21.2475 13.5723 21.263 13.5929C21.2784 13.6135 21.2913 13.634 21.3067 13.6546C21.3299 13.6881 21.3531 13.7216 21.3762 13.7551C21.3891 13.7705 21.3994 13.7885 21.4123 13.804C21.4226 13.8194 21.4329 13.8349 21.4457 13.8503C21.4895 13.9121 21.5333 13.9765 21.5745 14.0383C21.5873 14.0563 21.5976 14.0743 21.6105 14.0898C21.6182 14.1001 21.6234 14.1104 21.6311 14.1181C21.662 14.1619 21.6903 14.2082 21.7212 14.252C21.7418 14.2855 21.765 14.3164 21.7856 14.3498C21.8165 14.3988 21.8474 14.4451 21.8783 14.494C21.8989 14.5249 21.9169 14.5532 21.9375 14.5841C21.9735 14.6382 22.0096 14.6948 22.043 14.7489C22.0585 14.7721 22.0714 14.7953 22.0868 14.8184C22.1357 14.8957 22.1846 14.9755 22.2336 15.0527C22.2336 15.0553 22.2361 15.0579 22.2387 15.063C22.2953 15.1531 22.3494 15.2458 22.406 15.336C22.4138 15.3488 22.4215 15.3591 22.4266 15.372C22.4395 15.3926 22.4498 15.4132 22.4627 15.4338C22.4884 15.475 22.5142 15.5188 22.5373 15.56C22.5476 15.578 22.5579 15.5934 22.5682 15.6115C22.5811 15.6346 22.594 15.6578 22.6069 15.6784C22.6223 15.7067 22.6377 15.7325 22.6558 15.7608C22.6635 15.7762 22.6738 15.7891 22.6815 15.8046C22.7021 15.8406 22.7227 15.8767 22.7433 15.9127C22.7536 15.9307 22.7639 15.9487 22.7742 15.9668C22.7768 15.9719 22.7819 15.9771 22.7845 15.9848C22.8154 16.0389 22.8437 16.0904 22.8746 16.1444C22.8798 16.1522 22.8823 16.1599 22.8875 16.165C22.8952 16.1805 22.9029 16.1959 22.9132 16.2088C22.9312 16.2397 22.9467 16.2706 22.9647 16.2989C22.9776 16.3247 22.993 16.3478 23.0059 16.3736C23.0136 16.389 23.0214 16.4045 23.0291 16.4174C23.0342 16.4277 23.0394 16.4354 23.0445 16.4457C23.0703 16.4946 23.0986 16.5435 23.1243 16.5924C23.1269 16.6002 23.1321 16.6053 23.1346 16.613C23.1424 16.6259 23.1475 16.6388 23.1552 16.6517C23.1707 16.6826 23.1861 16.7109 23.2016 16.7418C23.2144 16.7701 23.2299 16.7958 23.2428 16.8216C23.2505 16.8345 23.2582 16.8499 23.2634 16.8628C23.2685 16.8705 23.2711 16.8782 23.2762 16.8885C23.302 16.9374 23.3277 16.9864 23.3509 17.0379C23.3535 17.0456 23.3586 17.0533 23.3612 17.061C23.3689 17.0739 23.3741 17.0894 23.3818 17.1022C23.3972 17.1306 23.4101 17.1589 23.4256 17.1872C23.4384 17.2129 23.4513 17.2413 23.4642 17.267C23.4719 17.2825 23.4796 17.2953 23.4848 17.3108C23.4899 17.3185 23.4925 17.3288 23.4976 17.3365C23.5234 17.3906 23.5491 17.4447 23.5749 17.5013C23.5749 17.5039 23.5774 17.509 23.58 17.5116C23.5852 17.5245 23.5903 17.5348 23.5955 17.5477C23.6135 17.5863 23.6315 17.6249 23.6495 17.6661C23.6573 17.6816 23.6624 17.6944 23.6701 17.7099C23.6804 17.7356 23.6933 17.7588 23.7036 17.7845C23.7139 17.8051 23.7242 17.8257 23.7319 17.8489C23.7422 17.8721 23.7525 17.8953 23.7628 17.9184C23.7731 17.9442 23.786 17.9699 23.7963 17.9931C23.8014 18.006 23.8092 18.0188 23.8143 18.0317C23.8272 18.06 23.8375 18.0858 23.8478 18.1115C23.8606 18.145 23.8761 18.1759 23.889 18.2094C23.8941 18.2197 23.8967 18.23 23.9018 18.2403C23.9121 18.266 23.9224 18.2918 23.9327 18.3175C23.9482 18.3561 23.9636 18.3948 23.9791 18.4308C23.9842 18.4411 23.9868 18.4514 23.9919 18.4617C23.9997 18.4823 24.0074 18.5003 24.0151 18.5209C24.0357 18.5724 24.0563 18.6213 24.0743 18.6728C24.0795 18.6883 24.0846 18.7011 24.0924 18.7166C24.0975 18.7295 24.1026 18.7449 24.1078 18.7578C24.1361 18.8299 24.1619 18.9046 24.1902 18.9767C24.1953 18.9895 24.2005 19.0024 24.2056 19.0153C24.2056 19.0178 24.2056 19.023 24.2108 19.0256C24.2468 19.1286 24.2829 19.2316 24.3163 19.332C24.3189 19.3423 24.3241 19.3526 24.3266 19.3654C24.3318 19.3835 24.3369 19.3989 24.3447 19.4169C24.355 19.453 24.3678 19.4864 24.3781 19.5225C24.3884 19.5585 24.4013 19.592 24.4116 19.6281C24.4219 19.6641 24.4322 19.6976 24.4425 19.7336C24.4476 19.7516 24.4528 19.7697 24.4579 19.7877C24.4605 19.798 24.4631 19.8109 24.4682 19.8212C24.494 19.9113 24.5197 20.004 24.5455 20.0941C24.5635 20.1585 24.5789 20.2228 24.5944 20.2872C24.5944 20.2872 24.5944 20.2898 24.5944 20.2923C24.5944 20.2975 24.597 20.3052 24.5995 20.3104C24.6124 20.3644 24.6253 20.4159 24.6382 20.47C24.6407 20.4854 24.6459 20.5009 24.6484 20.5138C24.6613 20.5704 24.6742 20.6271 24.6845 20.6837C24.6845 20.6837 24.6845 20.6863 24.6845 20.6889C24.6922 20.7301 24.6999 20.7687 24.7077 20.8099C24.7102 20.8227 24.7128 20.8382 24.7154 20.8511C24.718 20.8665 24.7205 20.8794 24.7231 20.8948C24.7308 20.9438 24.7411 20.9952 24.7489 21.0416C24.7489 21.0467 24.7489 21.0519 24.7514 21.057C24.7592 21.1111 24.7669 21.1626 24.7746 21.2141C24.7746 21.227 24.7772 21.2424 24.7797 21.2553C24.7797 21.2733 24.7849 21.2888 24.7875 21.3068C24.79 21.3351 24.7952 21.3609 24.7978 21.3892C24.7978 21.3969 24.7978 21.4046 24.8003 21.4124C24.8055 21.4639 24.8106 21.5128 24.8158 21.5617C24.8158 21.5746 24.8158 21.5849 24.8184 21.5977C24.8209 21.6415 24.8261 21.6827 24.8261 21.7265C24.8261 21.7342 24.8261 21.7419 24.8261 21.7496C24.8261 21.7522 24.8261 21.7548 24.8261 21.7574C24.8261 21.7677 24.8261 21.7754 24.8261 21.7857C24.8261 21.8372 24.8312 21.8861 24.8312 21.935C24.8312 21.9556 24.8312 21.9737 24.8312 21.9943C24.8312 22.0354 24.8312 22.0766 24.8312 22.1178C24.8312 22.1307 24.8312 22.141 24.8312 22.1539C24.8312 22.1616 24.8312 22.1693 24.8312 22.1771C24.8312 22.2183 24.8287 22.2595 24.8261 22.3006C24.8261 22.3161 24.8261 22.329 24.8261 22.3444C24.8235 22.3985 24.8184 22.4526 24.8132 22.5041V22.5092C24.8132 22.5195 24.8106 22.5298 24.8081 22.5401C24.8029 22.5787 24.7978 22.6173 24.7926 22.6534C24.79 22.6714 24.7875 22.6869 24.7849 22.7049C24.7797 22.7358 24.7746 22.7667 24.7669 22.7976C24.7669 22.8053 24.7643 22.8156 24.7617 22.8233C24.7617 22.8336 24.7566 22.8413 24.7566 22.8516C24.7514 22.88 24.7437 22.9083 24.736 22.9366C24.7308 22.9546 24.7283 22.9701 24.7231 22.9881C24.7154 23.019 24.7077 23.0473 24.6974 23.0756C24.6948 23.0859 24.6922 23.0962 24.6871 23.1065C24.6871 23.1091 24.6871 23.1117 24.6845 23.1143C24.6716 23.1555 24.6587 23.1941 24.6433 23.2353C24.6279 23.2739 24.6124 23.3125 24.5944 23.3511C24.5944 23.3511 24.5944 23.3563 24.5918 23.3589C24.5867 23.3692 24.5815 23.3769 24.5789 23.3872C24.5661 23.4129 24.5558 23.4361 24.5429 23.4619C24.5352 23.4747 24.5274 23.4876 24.5197 23.503C24.5069 23.5236 24.4966 23.5468 24.4837 23.5674C24.4785 23.5751 24.476 23.5803 24.4734 23.588C24.4682 23.5957 24.4657 23.6009 24.4605 23.6086C24.4476 23.6292 24.4348 23.6498 24.4193 23.6704C24.4116 23.6833 24.4013 23.6936 24.3936 23.7065C24.3781 23.7271 24.3627 23.7477 24.3472 23.7683C24.3421 23.776 24.3344 23.7837 24.3292 23.7914L24.3241 23.7966C24.3009 23.8249 24.2751 23.8532 24.2494 23.879C24.2237 23.9073 24.1953 23.933 24.1696 23.9562C24.1696 23.9562 24.167 23.9588 24.1644 23.9614C24.1567 23.9665 24.1516 23.9717 24.1438 23.9794C24.1232 23.9974 24.1026 24.0128 24.0821 24.0309C24.0718 24.0386 24.0589 24.0489 24.0486 24.0566C24.028 24.0721 24.01 24.0849 23.9894 24.0978C23.9816 24.103 23.9765 24.1081 23.9688 24.1107C23.9611 24.1158 23.9533 24.121 23.943 24.1261C23.9353 24.1313 23.9276 24.1339 23.9224 24.139C23.8967 24.1545 23.8709 24.1699 23.8426 24.1854C23.8117 24.2008 23.7783 24.2188 23.7448 24.2317C23.7062 24.2497 23.6701 24.2626 23.6289 24.2781C23.6161 24.2832 23.6032 24.2858 23.5929 24.2909C23.5646 24.3012 23.5388 24.309 23.5079 24.3167C23.5028 24.3167 23.4951 24.3218 23.4899 24.3218C23.4667 24.327 23.4436 24.3347 23.4204 24.3398C23.3869 24.3476 23.3509 24.3553 23.3174 24.3604C23.3097 24.3604 23.302 24.363 23.2943 24.3656C23.2634 24.3707 23.2325 24.3759 23.199 24.381C23.199 24.381 23.1938 24.381 23.1913 24.381C23.163 24.3836 23.1346 24.3862 23.1063 24.3888C23.0909 24.3888 23.078 24.3913 23.0625 24.3939C23.0188 24.3965 22.975 24.3991 22.9312 24.4016L22.0405 24.4248C22.0842 24.4248 22.1254 24.4222 22.1666 24.4197C22.1795 24.4197 22.1924 24.4171 22.2078 24.4145C22.2361 24.4145 22.2619 24.4094 22.2902 24.4068C22.3237 24.4016 22.3546 24.3965 22.388 24.3913C22.3957 24.3913 22.4009 24.3888 22.4086 24.3862C22.4421 24.381 22.4756 24.3733 22.5065 24.3656C22.5348 24.3579 22.5631 24.3501 22.5888 24.3424C22.6172 24.3347 22.6429 24.327 22.6686 24.3167C22.6815 24.3115 22.6918 24.3089 22.7047 24.3038C22.7407 24.2909 22.7793 24.2755 22.8128 24.26C22.8437 24.2446 22.8746 24.2317 22.9055 24.2137C22.9312 24.2008 22.957 24.1854 22.9802 24.1699C22.9879 24.1648 22.993 24.1622 23.0008 24.157C23.0162 24.1493 23.0291 24.139 23.0419 24.1287C23.0625 24.1158 23.0806 24.103 23.0986 24.0875C23.1089 24.0798 23.1192 24.0721 23.1295 24.0643C23.1501 24.0489 23.1681 24.0334 23.1887 24.0154C23.1964 24.0077 23.2067 24.0026 23.2144 23.9948C23.2402 23.9717 23.2659 23.9459 23.2917 23.9202C23.3148 23.8944 23.338 23.8687 23.3612 23.8403C23.3689 23.83 23.3766 23.8223 23.3844 23.812C23.3998 23.794 23.4153 23.7734 23.4281 23.7554C23.4359 23.7451 23.4436 23.7322 23.4513 23.7219C23.4642 23.7039 23.477 23.6833 23.4899 23.6653C23.4976 23.6524 23.5054 23.6395 23.5131 23.6266C23.526 23.6061 23.5363 23.5854 23.5491 23.5648C23.5569 23.552 23.562 23.5391 23.5697 23.5262C23.5826 23.5031 23.5929 23.4799 23.6032 23.4567C23.6083 23.4464 23.6135 23.4335 23.6186 23.4232C23.6341 23.3872 23.6495 23.3511 23.665 23.3125C23.6804 23.2739 23.6933 23.2353 23.7062 23.1967C23.7113 23.1838 23.7139 23.1709 23.719 23.158C23.7268 23.1297 23.7345 23.1014 23.7422 23.0731C23.7474 23.0576 23.7499 23.0422 23.7551 23.0242C23.7628 22.9984 23.768 22.9701 23.7731 22.9418C23.7757 22.9237 23.7808 22.9083 23.7834 22.8903C23.7886 22.8619 23.7937 22.831 23.7989 22.8001C23.8014 22.7847 23.804 22.7667 23.8066 22.7512C23.8117 22.7152 23.8169 22.6791 23.822 22.6431C23.822 22.6302 23.8246 22.6199 23.8272 22.6096C23.8323 22.5607 23.8375 22.5092 23.84 22.4577C23.84 22.4448 23.84 22.432 23.84 22.4165C23.84 22.3779 23.8452 22.3393 23.8452 22.2981C23.8452 22.28 23.8452 22.262 23.8452 22.244C23.8452 22.2054 23.8452 22.1668 23.8452 22.1256C23.8452 22.1075 23.8452 22.0869 23.8452 22.0689C23.8452 22.0226 23.8426 21.9737 23.84 21.9247C23.84 21.9119 23.84 21.9016 23.84 21.8887C23.84 21.881 23.84 21.8732 23.84 21.8681C23.84 21.8269 23.8349 21.7883 23.8323 21.7471C23.8323 21.7368 23.8323 21.7239 23.8298 21.7136C23.8246 21.6673 23.822 21.6209 23.8169 21.572C23.8169 21.5643 23.8169 21.5565 23.8143 21.5488C23.8092 21.5076 23.804 21.4639 23.7989 21.4227C23.7989 21.4098 23.7963 21.3969 23.7937 21.384C23.786 21.3351 23.7783 21.2836 23.7705 21.2321C23.7705 21.227 23.7705 21.2218 23.768 21.2167C23.7602 21.1703 23.7525 21.124 23.7448 21.0751C23.7448 21.0622 23.7396 21.0467 23.7371 21.0339C23.7268 20.9824 23.719 20.9309 23.7062 20.8794C23.7062 20.8794 23.7062 20.8768 23.7062 20.8742C23.6959 20.8202 23.683 20.7661 23.6701 20.712C23.6676 20.6992 23.665 20.6837 23.6598 20.6708C23.6495 20.6219 23.6367 20.5704 23.6238 20.5189C23.6238 20.5138 23.6212 20.5086 23.6186 20.5009C23.6032 20.4391 23.5877 20.3747 23.5697 20.3129C23.5466 20.228 23.5208 20.1404 23.4976 20.0529C23.4899 20.0246 23.4822 19.9988 23.4745 19.9705C23.4642 19.937 23.4539 19.9036 23.4436 19.8701C23.4333 19.8366 23.423 19.8031 23.4127 19.7697C23.4024 19.7362 23.3921 19.7027 23.3792 19.6693C23.3715 19.6435 23.3612 19.6152 23.3535 19.5894C23.32 19.4916 23.2865 19.3963 23.2531 19.2959C23.2479 19.2805 23.2402 19.2624 23.235 19.247C23.2093 19.1775 23.1835 19.108 23.1578 19.0384C23.1475 19.0127 23.1372 18.9844 23.1269 18.9586C23.1089 18.9097 23.0883 18.8634 23.0703 18.8144C23.06 18.7861 23.0471 18.7578 23.0368 18.7269C23.0214 18.6909 23.0059 18.6548 22.993 18.6188C22.9802 18.5853 22.9647 18.5518 22.9518 18.5158C22.939 18.4849 22.9261 18.454 22.9107 18.4231C22.8952 18.3845 22.8772 18.3484 22.8617 18.3098C22.8514 18.2866 22.8411 18.2609 22.8308 18.2377C22.8128 18.1965 22.7922 18.1527 22.7742 18.1115C22.7639 18.0884 22.7536 18.0652 22.7433 18.042C22.7201 17.9905 22.697 17.939 22.6712 17.8875C22.6661 17.8772 22.6609 17.8644 22.6558 17.8541C22.6249 17.7897 22.5966 17.7279 22.5657 17.6635C22.5579 17.6507 22.5528 17.6352 22.5451 17.6223C22.5193 17.5708 22.4936 17.5168 22.4678 17.4653C22.4601 17.4524 22.455 17.4395 22.4472 17.4241C22.4163 17.3623 22.3854 17.3005 22.352 17.2387C22.3443 17.2258 22.3391 17.2129 22.3314 17.1975C22.3031 17.1434 22.2747 17.0894 22.2464 17.0353C22.2387 17.0224 22.2336 17.0095 22.2258 16.9992C22.1924 16.9375 22.1589 16.8757 22.1254 16.8139C22.1177 16.7984 22.11 16.7855 22.1023 16.7701C22.0739 16.7186 22.0456 16.6645 22.0173 16.613C22.0096 16.5976 22.0018 16.5847 21.9941 16.5693C21.9581 16.5075 21.9246 16.4431 21.8886 16.3813C21.8783 16.3633 21.868 16.3478 21.8577 16.3298C21.8294 16.2835 21.8036 16.2345 21.7753 16.1882C21.7598 16.1625 21.7444 16.1367 21.7289 16.1084C21.7058 16.0698 21.6852 16.0337 21.662 15.9951C21.6388 15.9539 21.6157 15.9153 21.5899 15.8741C21.5719 15.8432 21.5539 15.8123 21.5359 15.7814C21.4844 15.6938 21.4303 15.6089 21.3762 15.5213C21.3762 15.5188 21.3711 15.5136 21.3711 15.511C21.3247 15.4364 21.2784 15.3617 21.2321 15.287C21.2192 15.2639 21.2037 15.2433 21.1909 15.2201C21.1574 15.1686 21.1239 15.1145 21.0905 15.063C21.0724 15.0347 21.0544 15.0064 21.0338 14.9781C21.0029 14.9317 20.9746 14.888 20.9437 14.8416C20.9231 14.8107 20.9025 14.7798 20.8819 14.7489C20.8536 14.7051 20.8253 14.6614 20.7944 14.6202C20.7764 14.5944 20.7584 14.5687 20.7403 14.5429C20.6991 14.4837 20.6579 14.4219 20.6168 14.3627C20.5962 14.3318 20.573 14.3009 20.5524 14.27C20.5292 14.2391 20.5086 14.2056 20.4855 14.1748C20.4597 14.1361 20.4314 14.0975 20.4031 14.0589C20.3825 14.0306 20.3645 14.0048 20.3439 13.9765C20.3078 13.9276 20.2743 13.8787 20.2383 13.8297C20.2306 13.8169 20.2203 13.8066 20.2126 13.7937C20.1636 13.7267 20.1147 13.6598 20.0658 13.5929C20.0169 13.5259 19.968 13.4615 19.9191 13.3946C19.9165 13.3895 19.9113 13.3843 19.9088 13.3792C19.8624 13.3174 19.8161 13.2556 19.7672 13.1938C19.7594 13.1835 19.7491 13.1706 19.7414 13.1603C19.6951 13.1011 19.6487 13.0419 19.6024 12.9826C19.5947 12.9723 19.5844 12.962 19.5766 12.9492C19.5303 12.8899 19.4814 12.8282 19.4351 12.7689C19.4299 12.7638 19.4248 12.7561 19.4196 12.7509C19.3707 12.6891 19.3218 12.6299 19.2729 12.5681C19.2703 12.5655 19.2677 12.5604 19.2651 12.5578C19.2162 12.4986 19.1673 12.4368 19.1184 12.3776C19.1107 12.3673 19.1004 12.357 19.0926 12.3467C19.0437 12.29 18.9974 12.2308 18.9485 12.1742C18.9382 12.1613 18.9279 12.151 18.9176 12.1381C18.8687 12.0815 18.8223 12.0248 18.7734 11.9682C18.7708 11.9656 18.7683 11.9605 18.7657 11.9579C18.7168 11.8987 18.6653 11.842 18.6164 11.7854C18.6035 11.7699 18.5906 11.7571 18.5777 11.7416C18.5365 11.6927 18.4928 11.6463 18.4516 11.5974C18.4413 11.5846 18.431 11.5743 18.4207 11.5614C18.3692 11.5047 18.3177 11.4455 18.2662 11.3889C18.2508 11.3709 18.2353 11.3554 18.2199 11.3374C18.1813 11.2962 18.1452 11.255 18.1066 11.2138C18.086 11.1906 18.0628 11.1674 18.0397 11.1417C18.0062 11.1082 17.9753 11.0722 17.9418 11.0387C17.9135 11.0104 17.8852 10.9795 17.8594 10.9512C17.8311 10.9203 17.8002 10.8894 17.7719 10.8585C17.741 10.825 17.7076 10.7915 17.6767 10.7581C17.6509 10.7297 17.6226 10.7014 17.5968 10.6757C17.5531 10.6319 17.5093 10.5856 17.4655 10.5418C17.445 10.5186 17.4218 10.498 17.4012 10.4748C17.3291 10.4027 17.2596 10.3332 17.1875 10.2637C17.1772 10.2534 17.1669 10.2431 17.154 10.2328C17.0845 10.1659 17.015 10.0964 16.9429 10.0294C16.9249 10.0114 16.9043 9.99336 16.8863 9.97534C16.7987 9.89295 16.7112 9.81055 16.6237 9.73074C16.6108 9.71786 16.5954 9.70499 16.5825 9.69212C16.4821 9.59943 16.3791 9.50931 16.2787 9.41919C16.2478 9.39087 16.2169 9.36513 16.186 9.33938C16.1577 9.31363 16.1268 9.28788 16.0985 9.26471C16.0676 9.23639 16.0341 9.21064 16.0032 9.18231C15.9749 9.15657 15.9466 9.1334 15.9157 9.10765C15.8925 9.08705 15.8693 9.06903 15.8462 9.04843C15.8076 9.01496 15.7664 8.98149 15.7277 8.95059C15.702 8.92999 15.6763 8.90939 15.6505 8.88622C15.6145 8.85532 15.5759 8.827 15.5398 8.7961C15.5141 8.7755 15.4883 8.75491 15.4626 8.73431C15.424 8.70341 15.3853 8.67251 15.3467 8.64162C15.3184 8.62102 15.2927 8.60042 15.2643 8.57982C15.2257 8.5515 15.1897 8.52318 15.1511 8.49486C15.1227 8.47426 15.097 8.45366 15.0687 8.43306C15.0301 8.40474 14.9914 8.37642 14.9528 8.3481C14.9245 8.3275 14.8988 8.3069 14.8704 8.28888C14.8318 8.26055 14.7932 8.23224 14.7546 8.20649C14.7288 8.18847 14.7031 8.17044 14.6799 8.15242C14.6027 8.09835 14.5254 8.04428 14.4508 7.99278C14.3916 7.95416 14.3349 7.91554 14.2757 7.87692C14.2088 7.83315 14.1418 7.78937 14.0749 7.74818C14.0569 7.73788 14.0414 7.72758 14.0234 7.71728C13.9745 7.68639 13.9256 7.6555 13.8767 7.62717C13.8535 7.6143 13.8329 7.60142 13.8097 7.58855C13.7634 7.56022 13.7171 7.53448 13.6707 7.50616C13.6475 7.49329 13.6244 7.48041 13.6012 7.46753C13.5523 7.43921 13.5034 7.41346 13.457 7.38772C13.4364 7.37742 13.4184 7.36454 13.3978 7.35424C13.3875 7.34909 13.3772 7.34395 13.3643 7.33623C13.3232 7.31305 13.2794 7.29245 13.2382 7.26928C13.2279 7.26413 13.2176 7.25898 13.2073 7.25383C13.1584 7.22808 13.1095 7.20491 13.0631 7.18174C13.0528 7.17659 13.0425 7.17144 13.0322 7.16629C12.9936 7.14827 12.9524 7.12767 12.9138 7.10965C12.9009 7.1045 12.8881 7.09677 12.8752 7.09162C12.8263 7.07102 12.7799 7.04785 12.7336 7.02725C12.7259 7.02468 12.7207 7.0221 12.713 7.01695C12.6718 6.99893 12.6332 6.98348 12.592 6.96546C12.5791 6.96031 12.5662 6.95516 12.5508 6.95001C12.5173 6.93714 12.4813 6.92169 12.4478 6.90882C12.4349 6.90367 12.4195 6.89852 12.4066 6.89337C12.3603 6.87535 12.3139 6.85989 12.2676 6.84187C12.2624 6.84187 12.2573 6.8393 12.2522 6.83672C12.211 6.82385 12.1723 6.8084 12.1337 6.79553C12.1183 6.79038 12.1054 6.78522 12.09 6.78265C12.0616 6.77235 12.0307 6.76463 12.0024 6.75691C11.9818 6.75176 11.9612 6.74403 11.9432 6.73888C11.9175 6.73116 11.8917 6.72343 11.866 6.71828C11.8454 6.71313 11.8274 6.70798 11.8068 6.70283C11.781 6.69511 11.7553 6.68996 11.7295 6.68482C11.7115 6.67967 11.6909 6.67709 11.6729 6.67194C11.6471 6.66679 11.6214 6.66164 11.5956 6.65649C11.5776 6.65391 11.5596 6.64876 11.5416 6.64619C11.521 6.64361 11.503 6.63847 11.4824 6.63589C11.4541 6.63074 11.4257 6.62559 11.4 6.62302C11.3794 6.62044 11.3614 6.61787 11.3433 6.61529C11.3176 6.61272 11.2919 6.60757 11.2635 6.605C11.2455 6.605 11.2249 6.59984 11.2069 6.59984C11.1812 6.59984 11.1554 6.5947 11.1322 6.5947C11.1142 6.5947 11.0936 6.5947 11.0756 6.59212C11.0499 6.59212 11.0267 6.59212 11.0009 6.58954C10.9803 6.58954 10.9597 6.58954 10.9391 6.58954C10.9288 6.58954 10.9186 6.58954 10.9057 6.58954C10.8774 6.58954 10.849 6.58954 10.8207 6.58954C10.813 6.58954 10.8053 6.58954 10.7975 6.58954C10.7641 6.58954 10.7306 6.5947 10.6971 6.59727C10.6894 6.59727 10.6817 6.59727 10.674 6.59984C10.6482 6.60242 10.6225 6.605 10.5967 6.61015C10.5864 6.61015 10.5761 6.61272 10.5658 6.61529C10.5401 6.62044 10.5118 6.62302 10.486 6.62817C10.4809 6.62817 10.4757 6.62817 10.4706 6.63074C10.4397 6.63589 10.4088 6.64362 10.3779 6.65134C10.3702 6.65134 10.3625 6.65649 10.3547 6.65649C10.3341 6.66164 10.311 6.66936 10.2904 6.67451C10.2775 6.67709 10.2672 6.68224 10.2543 6.68482C10.2363 6.68996 10.2157 6.69769 10.1977 6.70541C10.1874 6.71056 10.1745 6.71313 10.1642 6.71828C10.1436 6.726 10.1256 6.73374 10.105 6.74146C10.0947 6.74661 10.087 6.74918 10.0767 6.75433C10.0484 6.7672 10.02 6.78008 9.9943 6.79553C9.5901 7.00923 9.30433 7.38514 9.16016 7.91297C9.23997 7.62717 9.3172 7.34137 9.39701 7.053C9.45365 6.84702 9.53089 6.66164 9.62872 6.49943C9.62872 6.49943 9.62872 6.49943 9.62872 6.49686L9.62357 6.54578Z" fill="url(#paint0_linear_4607_10460)"/>
<path d="M25.0727 25.8771C23.9219 26.4847 21.9884 26.0393 19.5426 24.3914C17.0969 22.7436 14.6073 20.2126 12.5528 17.4448C10.5009 14.6769 8.88672 11.6799 8.19932 9.10516C7.51193 6.53041 7.88008 4.86712 9.03089 4.25948C10.1817 3.65184 12.1152 4.09727 14.561 5.74511C17.0067 7.39295 19.4963 9.92393 21.5508 12.6918C23.6027 15.4596 25.2169 18.4566 25.9043 21.0314C26.5917 23.6061 26.2235 25.2694 25.0727 25.8771ZM9.56639 10.0269C10.1482 12.2051 11.5127 14.7413 13.2479 17.0791C14.9832 19.417 17.0917 21.5618 19.159 22.9547C21.2264 24.3477 22.8612 24.7261 23.8344 24.2112C24.8075 23.6962 25.119 22.2904 24.5372 20.1122C23.9554 17.934 22.5909 15.3978 20.8556 13.06C19.1204 10.7221 17.0119 8.57734 14.9446 7.1844C12.8772 5.79146 11.2424 5.41297 10.2692 5.92792C9.29606 6.44287 8.98455 7.84868 9.56639 10.0269Z" fill="url(#paint1_linear_4607_10460)"/>
<path d="M10.0278 6.81894C9.70342 6.99144 9.45369 7.26695 9.29407 7.64286C9.2297 8.28655 9.31466 9.08471 9.56697 10.0271C10.1488 12.2027 11.5133 14.7414 13.2485 17.0793C14.9837 19.4172 17.0923 21.5619 19.1596 22.9549C20.4314 23.8123 21.5385 24.2834 22.4318 24.4019C22.6198 24.3684 22.7923 24.3092 22.9467 24.2294C23.8736 23.7402 24.1696 22.4013 23.6161 20.3261C23.0626 18.2534 21.7625 15.8383 20.1096 13.6111C18.4568 11.384 16.4512 9.34219 14.4817 8.01619C12.5122 6.6902 10.9572 6.32974 10.0304 6.82151L10.0278 6.81894Z" fill="url(#paint2_linear_4607_10460)"/>
<path d="M4.36823 7.80762C4.12622 8.68818 4.18029 9.89831 4.58449 11.4071C4.60508 11.4844 4.62568 11.559 4.64885 11.6363C4.65657 11.6594 4.66172 11.6852 4.66944 11.7084C4.68489 11.7624 4.70034 11.8165 4.71836 11.8731C4.72608 11.8989 4.73381 11.9272 4.74153 11.953C4.75955 12.0096 4.77757 12.0662 4.7956 12.1229C4.80332 12.1461 4.80847 12.1667 4.81619 12.1898C4.84194 12.2671 4.86768 12.3469 4.89343 12.4267C4.89858 12.4396 4.90373 12.455 4.90887 12.4679C4.93205 12.5349 4.95522 12.5992 4.97839 12.6662C4.98868 12.6919 4.99641 12.7177 5.00671 12.746C5.0273 12.8026 5.0479 12.8567 5.06849 12.9133C5.07879 12.9391 5.08909 12.9674 5.09939 12.9932C5.11484 13.0318 5.13028 13.073 5.14573 13.1116C5.1689 13.1734 5.19465 13.2378 5.22039 13.2996C5.23584 13.3382 5.25129 13.3742 5.26673 13.4128C5.29248 13.4746 5.31822 13.539 5.34397 13.6034C5.35941 13.6394 5.37486 13.6755 5.39031 13.7115C5.41863 13.781 5.44952 13.8531 5.48042 13.9226C5.49329 13.951 5.50616 13.9793 5.51903 14.0102C5.5628 14.1106 5.60657 14.2084 5.65291 14.3089C5.66063 14.3243 5.66836 14.3397 5.67608 14.3578C5.7147 14.4427 5.75332 14.5251 5.79451 14.6101C5.80996 14.6436 5.82798 14.6796 5.84342 14.7131C5.87432 14.78 5.90779 14.847 5.94126 14.9139C5.95928 14.9525 5.97987 14.9912 5.99789 15.0272C6.02879 15.0916 6.06226 15.1559 6.09315 15.2203C6.11117 15.2589 6.13177 15.2976 6.15237 15.3362C6.18583 15.4031 6.22188 15.4726 6.25792 15.5396C6.27594 15.5731 6.29396 15.6065 6.31199 15.6426C6.35833 15.7327 6.40724 15.8202 6.45358 15.9103C6.46131 15.9232 6.46646 15.9335 6.47418 15.9464C6.52825 16.0494 6.58488 16.1498 6.64152 16.2528C6.65955 16.2837 6.67499 16.3146 6.69301 16.3455C6.73421 16.4176 6.77282 16.4897 6.81402 16.5592C6.83461 16.5978 6.85778 16.6338 6.87838 16.6725C6.917 16.7368 6.95304 16.8038 6.99166 16.8681C7.01483 16.9068 7.038 16.9454 7.06117 16.984C7.09979 17.051 7.14098 17.1153 7.1796 17.1823C7.20277 17.2183 7.22336 17.2544 7.24654 17.293C7.29288 17.3676 7.33922 17.4449 7.38556 17.5196C7.40101 17.5453 7.41903 17.5736 7.43448 17.5994C7.49884 17.7024 7.56063 17.8028 7.62499 17.9058C7.64044 17.9289 7.65331 17.9521 7.66876 17.9753C7.72025 18.0551 7.76916 18.1323 7.82065 18.2122C7.8361 18.2379 7.85412 18.2637 7.86957 18.2894C7.9571 18.4233 8.04721 18.5572 8.13732 18.6911C8.14247 18.6988 8.14762 18.7065 8.15277 18.7142C8.24545 18.8507 8.3407 18.9897 8.43596 19.1262C8.45398 19.1519 8.472 19.1777 8.49003 19.2034C8.58271 19.3373 8.67797 19.4686 8.77065 19.6025C8.78867 19.6283 8.80669 19.6515 8.82471 19.6772C8.92512 19.8137 9.02295 19.9527 9.12593 20.0892C11.2628 22.9677 13.8553 25.6068 16.4015 27.319C18.2706 28.5781 19.8539 29.1626 21.0382 29.1342C20.7421 29.142 20.4435 29.1497 20.1474 29.1574C20.1217 29.1574 20.0959 29.1574 20.0702 29.1574C20.0599 29.1574 20.0496 29.1574 20.0393 29.1574C20.0084 29.1574 19.9801 29.1574 19.9492 29.1574C19.9415 29.1574 19.9363 29.1574 19.9286 29.1574C19.9054 29.1574 19.8823 29.1574 19.8565 29.1548C19.8436 29.1548 19.8282 29.1548 19.8153 29.1548C19.7973 29.1548 19.7793 29.1523 19.7613 29.1497C19.7407 29.1497 19.7201 29.1471 19.6995 29.1445C19.684 29.1445 19.6686 29.142 19.6531 29.1394C19.63 29.1394 19.6068 29.1342 19.581 29.1317C19.5553 29.1291 19.5296 29.1239 19.5038 29.1214C19.4909 29.1214 19.4755 29.1188 19.4626 29.1162C19.4343 29.1111 19.4086 29.1085 19.3802 29.1033C19.3674 29.1033 19.3545 29.0982 19.3416 29.0956C19.321 29.093 19.2978 29.0879 19.2773 29.0827C19.2592 29.0802 19.2386 29.075 19.2206 29.0724C19.2077 29.0699 19.1949 29.0673 19.182 29.0647C19.1537 29.0596 19.1254 29.0519 19.097 29.0467C19.0352 29.0313 18.9709 29.0158 18.9065 28.9978C18.8422 28.9798 18.7778 28.9617 18.7109 28.9437C18.6903 28.9386 18.6697 28.9308 18.6465 28.9231C18.6233 28.9154 18.6002 28.9077 18.577 28.9025C18.4431 28.8587 18.3067 28.8098 18.1676 28.7583C18.1393 28.748 18.1136 28.7377 18.0853 28.7249C18.0647 28.7171 18.0466 28.7094 18.026 28.7017C18.0183 28.6991 18.0132 28.6965 18.0054 28.694C17.9179 28.6579 17.8278 28.6193 17.7377 28.5807C17.7274 28.5755 17.7145 28.5704 17.7042 28.5652C17.6193 28.5266 17.5317 28.4854 17.4442 28.4442C17.4365 28.4391 17.4262 28.4365 17.4185 28.4313C17.3773 28.4107 17.3361 28.3901 17.2949 28.3695C17.2949 28.3695 17.2923 28.3695 17.2897 28.3695C17.0889 28.2691 16.8855 28.1584 16.6744 28.0374C16.5972 27.9936 16.5199 27.9473 16.4401 27.9009C16.3037 27.8185 16.1672 27.7336 16.0282 27.646C16.0128 27.6357 15.9973 27.6254 15.9844 27.6177C15.8892 27.5559 15.7939 27.4941 15.6961 27.4272C13.2503 25.7793 10.7608 23.2484 8.70629 20.4805C8.60845 20.3492 8.5132 20.2179 8.41794 20.084C8.39992 20.0608 8.38447 20.0377 8.36645 20.0145C8.27634 19.8883 8.18366 19.7596 8.09613 19.6309C8.0781 19.6051 8.06266 19.5819 8.04464 19.5562C7.95195 19.4249 7.86185 19.291 7.77174 19.1597C7.76659 19.1519 7.76144 19.1442 7.75629 19.1391C7.66876 19.0103 7.5838 18.8816 7.49884 18.7503C7.48854 18.7374 7.48082 18.722 7.47052 18.7091C7.46279 18.6988 7.45765 18.6885 7.44992 18.6782C7.40101 18.601 7.35209 18.5263 7.30317 18.449C7.2903 18.4284 7.27486 18.4053 7.26198 18.3847C7.20019 18.2868 7.13841 18.189 7.07662 18.0912C7.06117 18.0654 7.04572 18.0397 7.03028 18.0139C6.98651 17.9418 6.94017 17.8697 6.8964 17.7951C6.8758 17.759 6.85263 17.7255 6.83204 17.6895C6.79342 17.6251 6.7548 17.5633 6.71876 17.499C6.69559 17.4603 6.67499 17.4243 6.65182 17.3857C6.61578 17.3239 6.57716 17.2595 6.54112 17.1977C6.52052 17.1617 6.49993 17.1256 6.47933 17.0896C6.44071 17.0201 6.40209 16.9531 6.36348 16.8836C6.34803 16.8527 6.33001 16.8244 6.31456 16.7935C6.2605 16.6956 6.20643 16.5978 6.15494 16.5C6.14979 16.4871 6.14207 16.4768 6.13692 16.4639C6.09058 16.3789 6.04424 16.2914 6.00047 16.2064C5.98245 16.173 5.967 16.1421 5.94898 16.1086C5.91551 16.0442 5.88204 15.9773 5.84857 15.9129C5.83055 15.8769 5.80996 15.8383 5.79193 15.8022C5.76104 15.7404 5.73015 15.6786 5.69925 15.6168C5.68123 15.5808 5.66321 15.5422 5.64519 15.5061C5.61429 15.4417 5.5834 15.3774 5.5525 15.313C5.53706 15.2795 5.52161 15.2461 5.50616 15.2126C5.46754 15.1328 5.4315 15.0504 5.39288 14.9706C5.38516 14.9551 5.37744 14.9397 5.37229 14.9242C5.32852 14.829 5.28733 14.7337 5.24356 14.6384C5.23069 14.6101 5.22039 14.5818 5.20752 14.5535C5.1792 14.4865 5.1483 14.417 5.11998 14.35C5.10454 14.314 5.09167 14.2805 5.07622 14.2445C5.05047 14.1827 5.0273 14.1235 5.00156 14.0617C4.98611 14.0256 4.97324 13.9896 4.95779 13.9535C4.93462 13.8917 4.91145 13.8325 4.8857 13.7707C4.87798 13.7476 4.86768 13.7244 4.85996 13.7012C4.85481 13.6858 4.84966 13.6703 4.84194 13.6549C4.83164 13.6291 4.82134 13.6034 4.81362 13.5776C4.79302 13.5236 4.775 13.4695 4.7544 13.418C4.74411 13.3922 4.73638 13.3665 4.72608 13.3433C4.70291 13.279 4.68232 13.2172 4.65915 13.1528C4.654 13.1399 4.64885 13.127 4.64627 13.1142C4.62053 13.0395 4.59478 12.9623 4.57161 12.8876C4.56389 12.867 4.55874 12.8464 4.55102 12.8232C4.53299 12.7692 4.51497 12.7125 4.49953 12.6584C4.4918 12.6327 4.48408 12.6069 4.47636 12.5812C4.46091 12.5297 4.44546 12.4756 4.43001 12.4241C4.42229 12.401 4.41714 12.3778 4.40942 12.3546C4.38882 12.28 4.36823 12.2079 4.34763 12.1332C4.31159 12.0019 4.28069 11.8706 4.2498 11.7444C4.22148 11.6285 4.19831 11.5152 4.17514 11.402C4.14424 11.2501 4.1185 11.1033 4.09533 10.9591C4.01552 10.4442 3.9872 9.97813 4.00522 9.56102C4.00522 9.543 4.00779 9.52497 4.00779 9.50695C4.01552 9.37306 4.02839 9.24432 4.04641 9.11816C4.05928 9.0229 4.07731 8.93021 4.09533 8.84009C4.10305 8.80147 4.11335 8.76285 4.12365 8.72423C4.1288 8.70878 4.13137 8.69333 4.13652 8.67788H4.13137L4.36823 7.81792V7.80762Z" fill="url(#paint3_linear_4607_10460)"/>
<path d="M7.87986 4.42678C7.87986 4.42678 7.88244 4.42678 7.88501 4.42421C7.90303 4.41134 7.92363 4.39846 7.94165 4.38558C7.95195 4.38043 7.96225 4.37271 7.97254 4.36756C7.98027 4.36242 7.99057 4.35727 7.99829 4.35212C8.02918 4.33152 8.06265 4.3135 8.09612 4.29547C8.13474 4.27487 8.17593 4.25427 8.21455 4.23625C8.21455 4.23625 8.21712 4.23625 8.2197 4.23625C8.25574 4.2208 8.29436 4.20535 8.3304 4.18991C8.33812 4.18733 8.34327 4.18476 8.351 4.18218C8.38962 4.16931 8.42566 4.15643 8.46685 4.14356C8.47457 4.14356 8.4823 4.13841 8.49002 4.13583C8.50289 4.13326 8.51577 4.12811 8.52864 4.12554C8.55696 4.11781 8.58528 4.11009 8.6136 4.10237C8.65479 4.09207 8.69856 4.08434 8.73975 4.07662C8.75005 4.07662 8.75777 4.07404 8.76807 4.07146C8.80669 4.06374 8.8453 4.05859 8.88392 4.05345C8.8865 4.05345 8.88907 4.05345 8.89422 4.05345C8.92769 4.0483 8.96373 4.04572 8.99978 4.04314C9.0178 4.04314 9.03324 4.04057 9.05127 4.038C9.10533 4.03285 9.1594 4.03027 9.21346 4.03027C9.22633 4.03027 9.24435 4.03027 9.25723 4.03027C9.2701 4.03027 9.28555 4.03027 9.29842 4.03027H9.30357C9.31902 4.03027 9.33704 4.03027 9.35506 4.03027H9.38595C9.38595 4.03027 9.38595 4.03027 9.38853 4.03027C9.38853 4.03027 9.39368 4.03027 9.39625 4.03027H9.41427C9.43744 4.03027 9.46061 4.03027 9.47864 4.03027C9.49151 4.03027 9.50953 4.03027 9.5224 4.03027C9.54815 4.03027 9.58419 4.03027 9.61251 4.03027C9.62538 4.03027 9.63826 4.03027 9.6537 4.03027H9.70777C9.70777 4.03027 9.73609 4.03027 9.74639 4.03027C9.75153 4.03027 9.75668 4.03027 9.76183 4.03027H9.7747C9.7953 4.03027 9.81847 4.03027 9.83392 4.03027C9.84679 4.03027 9.86224 4.03027 9.87511 4.03027H9.88283C9.88283 4.03027 9.90343 4.03027 9.91373 4.03027H9.97809C9.97809 4.03027 10.0038 4.03027 10.0141 4.03027C10.0167 4.03027 10.0219 4.03027 10.027 4.03027H10.0502C10.0682 4.03027 10.0888 4.03027 10.1042 4.03027C10.0502 4.03027 9.99869 4.03542 9.9472 4.038C9.92918 4.038 9.91373 4.04057 9.89571 4.04314C9.86224 4.04572 9.82877 4.0483 9.7953 4.05345C9.75411 4.05859 9.71549 4.06374 9.6743 4.07146C9.66658 4.07146 9.65628 4.07404 9.64855 4.07662C9.60736 4.08434 9.56617 4.09207 9.52498 4.10237C9.48378 4.11266 9.44517 4.12296 9.40655 4.13583C9.39883 4.13583 9.3911 4.14098 9.38338 4.14356C9.34476 4.15385 9.30872 4.16673 9.27267 4.17961C9.26495 4.17961 9.2598 4.18475 9.25208 4.18733C9.21603 4.2002 9.17999 4.21565 9.14395 4.2311C9.14395 4.2311 9.14137 4.2311 9.1388 4.2311C9.10018 4.24913 9.06156 4.26715 9.02295 4.28775C8.99205 4.30577 8.95858 4.32379 8.92769 4.34182C8.91997 4.34696 8.90967 4.35211 8.90194 4.35726C8.87362 4.37529 8.8453 4.39331 8.81956 4.41133C8.81956 4.41133 8.81698 4.41133 8.81441 4.41391C8.78609 4.43451 8.75777 4.4551 8.72945 4.47828C8.7243 4.48343 8.71915 4.486 8.714 4.49115C8.68568 4.51432 8.65994 4.53492 8.63419 4.55809C8.62905 4.56324 8.6239 4.56581 8.62132 4.57096C8.59558 4.59671 8.56983 4.61989 8.54409 4.64563C8.51834 4.67138 8.49517 4.69971 8.46942 4.72803C8.46428 4.73318 8.4617 4.73833 8.45655 4.74348C8.44625 4.75635 8.43596 4.76922 8.42566 4.78209C8.40764 4.80527 8.38962 4.82844 8.37159 4.85419C8.3613 4.86706 8.351 4.88251 8.3407 4.89796C8.32525 4.92113 8.30723 4.94431 8.29178 4.97005C8.28149 4.9855 8.27119 5.00095 8.26346 5.0164C8.24802 5.04215 8.23514 5.06789 8.2197 5.09364C8.21197 5.10909 8.20168 5.12454 8.19395 5.13999C8.1785 5.16831 8.16563 5.19921 8.15018 5.22753C8.14246 5.24298 8.13731 5.25585 8.12959 5.26873C8.10899 5.3125 8.09097 5.35884 8.07295 5.40519C8.05493 5.45153 8.03948 5.49787 8.02403 5.54679C8.01116 5.58542 8.00086 5.62147 7.99056 5.66266C7.99056 5.67039 7.98542 5.67811 7.98284 5.68583C7.97254 5.72703 7.95967 5.7708 7.95195 5.81199C7.95195 5.81714 7.95195 5.8223 7.94937 5.82487C7.93907 5.86607 7.93135 5.90984 7.92363 5.95103C7.92363 5.95876 7.92363 5.96391 7.92105 5.96906C7.91333 6.01283 7.90561 6.05917 7.89788 6.10552C7.89788 6.11582 7.89531 6.12354 7.89273 6.13384C7.88501 6.18018 7.87986 6.22653 7.87471 6.27545C7.87471 6.28318 7.87471 6.28832 7.87471 6.29605C7.86956 6.33982 7.86699 6.38616 7.86184 6.43251C7.86184 6.44023 7.86184 6.44796 7.86184 6.45826C7.85926 6.50718 7.85669 6.55867 7.85412 6.60759C7.85412 6.61789 7.85412 6.63076 7.85412 6.64106C7.85412 6.69256 7.85154 6.74663 7.85154 6.80069C7.85154 6.85476 7.85154 6.90884 7.85154 6.96291C7.85154 6.97578 7.85154 6.98865 7.85154 7.00152C7.85154 7.05559 7.85669 7.11224 7.85926 7.16631C7.85926 7.17404 7.85926 7.18434 7.85926 7.19206C7.86184 7.24098 7.86699 7.29248 7.86956 7.34397C7.86956 7.35684 7.86956 7.37229 7.87214 7.38517C7.87729 7.44439 7.88244 7.50103 7.89016 7.56025C7.89016 7.57055 7.89016 7.57827 7.89273 7.58857C7.89788 7.64006 7.90561 7.69414 7.91333 7.74563C7.91333 7.76108 7.91848 7.7791 7.92105 7.79455C7.92878 7.85634 7.93907 7.91813 7.94937 7.9825C7.94937 7.99023 7.94937 7.99538 7.95195 8.0031C7.96225 8.05975 7.96997 8.11897 7.98284 8.17819C7.98542 8.19621 7.98799 8.21424 7.99314 8.22968C8.00601 8.29148 8.01631 8.35584 8.02918 8.42021C8.02918 8.42021 8.02918 8.42536 8.02918 8.42794C8.04206 8.49488 8.0575 8.56183 8.07295 8.63134C8.0781 8.64937 8.08067 8.66739 8.08582 8.68283C8.10127 8.74463 8.11414 8.809 8.12959 8.87079C8.12959 8.87852 8.13216 8.88366 8.13474 8.89139C8.15276 8.96863 8.17336 9.04587 8.19395 9.12569C8.22227 9.23125 8.25317 9.33939 8.28406 9.44753C8.29436 9.48101 8.30466 9.51448 8.31495 9.55052C8.32783 9.59172 8.3407 9.63292 8.35357 9.67411C8.36644 9.71531 8.37932 9.75651 8.39219 9.7977C8.40506 9.8389 8.41793 9.88009 8.43338 9.92386C8.44883 9.97021 8.46428 10.0166 8.47972 10.0603C8.49002 10.0886 8.49774 10.117 8.50804 10.1453C8.52606 10.1994 8.54666 10.2534 8.56468 10.3075C8.57241 10.3307 8.58013 10.3538 8.59043 10.377C8.59815 10.4002 8.60587 10.4208 8.61617 10.444C8.64707 10.5289 8.68054 10.6165 8.714 10.704C8.72688 10.7375 8.73975 10.771 8.75262 10.8019C8.77579 10.8611 8.79896 10.9203 8.82213 10.9795C8.83758 11.0156 8.85045 11.0516 8.8659 11.0851C8.88392 11.1314 8.90194 11.1752 8.92254 11.2215C8.94056 11.2627 8.95858 11.3065 8.97403 11.3477C8.98948 11.3863 9.0075 11.4249 9.02295 11.4636C9.04354 11.5099 9.06414 11.5588 9.08473 11.6052C9.09761 11.6361 9.11048 11.6644 9.12335 11.6953C9.14652 11.7468 9.16969 11.8009 9.19286 11.8523C9.20574 11.8807 9.21861 11.909 9.23148 11.9399C9.2598 12.0043 9.2907 12.0686 9.31902 12.133C9.32416 12.1459 9.33189 12.1613 9.33704 12.1742C9.37308 12.254 9.4117 12.3313 9.45032 12.4111C9.45804 12.4291 9.46834 12.4471 9.47606 12.4626C9.50695 12.5269 9.54042 12.5939 9.57132 12.6582C9.57904 12.6737 9.58677 12.6917 9.59706 12.7072C9.63568 12.7844 9.6743 12.8616 9.71292 12.9389C9.72064 12.9543 9.73094 12.9724 9.73866 12.9878C9.77213 13.0548 9.80817 13.1217 9.84422 13.1912C9.85194 13.2067 9.85966 13.2221 9.86739 13.235C9.90858 13.3122 9.94977 13.3895 9.99096 13.4667C10.0013 13.4847 10.009 13.5028 10.0193 13.5182C10.0553 13.5826 10.0914 13.6495 10.1274 13.7139C10.1377 13.7319 10.148 13.7499 10.1557 13.768C10.1995 13.8452 10.2433 13.925 10.287 14.0023C10.2999 14.0229 10.3128 14.046 10.3231 14.0666C10.3565 14.1258 10.39 14.1851 10.4261 14.2443C10.4441 14.2778 10.4647 14.3087 10.4827 14.3421C10.511 14.3885 10.5393 14.4374 10.5651 14.4837C10.5934 14.5327 10.6243 14.5842 10.6552 14.6331C10.6784 14.6717 10.7015 14.7103 10.7247 14.7464C10.7891 14.8545 10.856 14.9626 10.9229 15.0682C10.9255 15.0734 10.9281 15.0785 10.9307 15.0811C10.9873 15.1738 11.0465 15.2665 11.1032 15.3566C11.1212 15.3849 11.1392 15.4132 11.1572 15.4415C11.1984 15.5059 11.2396 15.5703 11.2808 15.6321C11.304 15.6681 11.3271 15.7042 11.3503 15.7402C11.3864 15.7969 11.425 15.8535 11.461 15.9101C11.4868 15.9488 11.5125 15.9874 11.5382 16.026C11.5743 16.0801 11.6103 16.1316 11.6464 16.1856C11.667 16.2191 11.6901 16.25 11.7133 16.2835C11.7648 16.3582 11.8163 16.4328 11.8678 16.5075C11.8935 16.5461 11.9219 16.5847 11.9476 16.6233C11.9759 16.662 12.0042 16.7032 12.03 16.7418C12.0634 16.7907 12.0969 16.8371 12.133 16.886C12.1561 16.9194 12.1793 16.9529 12.205 16.9864C12.2488 17.0482 12.2926 17.11 12.3363 17.1692C12.3466 17.1847 12.3569 17.1975 12.3672 17.213C12.429 17.2954 12.4882 17.3803 12.55 17.4627C12.6118 17.5451 12.6736 17.6275 12.7354 17.7099C12.7405 17.715 12.7431 17.7202 12.7483 17.7253C12.8075 17.8026 12.8641 17.8798 12.9233 17.9545C12.9336 17.9674 12.9439 17.9802 12.9542 17.9957C13.0109 18.0704 13.0675 18.1425 13.1267 18.2171C13.137 18.23 13.1473 18.2429 13.1576 18.2557C13.2168 18.3304 13.276 18.4051 13.3353 18.4797C13.3404 18.4875 13.3481 18.4952 13.3533 18.5029C13.4151 18.5802 13.4743 18.6548 13.5361 18.7295C13.5386 18.7321 13.5412 18.7372 13.5464 18.7398C13.6082 18.8145 13.6699 18.8891 13.7317 18.9638C13.742 18.9767 13.7523 18.9895 13.7626 19.0024C13.8218 19.0745 13.8836 19.1466 13.9428 19.2187C13.9557 19.2341 13.966 19.247 13.9789 19.2625C14.0381 19.332 14.0973 19.4041 14.1591 19.4736C14.1617 19.4762 14.1668 19.4813 14.1694 19.4839C14.2312 19.556 14.293 19.6281 14.3573 19.7002C14.3728 19.7182 14.3882 19.7362 14.4063 19.7542C14.4578 19.8135 14.5118 19.8727 14.5633 19.9319C14.5762 19.9473 14.5891 19.9628 14.6019 19.9757C14.6663 20.0478 14.7306 20.1199 14.795 20.1894C14.813 20.21 14.8336 20.2306 14.8517 20.2512C14.898 20.3027 14.9469 20.3542 14.9932 20.4057C15.019 20.434 15.0473 20.4623 15.0731 20.4932C15.1143 20.537 15.1529 20.5807 15.1941 20.6219C15.2301 20.658 15.2636 20.6966 15.2996 20.7326C15.3357 20.7713 15.3717 20.8099 15.4077 20.8459C15.4489 20.8871 15.4876 20.9283 15.5287 20.9695C15.5622 21.003 15.5957 21.039 15.6292 21.0725C15.6832 21.1266 15.7373 21.1807 15.7888 21.2347C15.8171 21.263 15.8428 21.2914 15.8712 21.3171C15.9587 21.4047 16.0488 21.4948 16.1363 21.5797C16.1492 21.5926 16.1621 21.6055 16.175 21.6184C16.2625 21.7033 16.35 21.7883 16.4376 21.8707C16.4607 21.8939 16.4839 21.917 16.5096 21.9376C16.6178 22.0406 16.7259 22.141 16.8366 22.2414C16.8778 22.2775 16.9164 22.3135 16.9576 22.3522C16.9859 22.3779 17.0168 22.4037 17.0451 22.432C17.0941 22.4758 17.1404 22.517 17.1893 22.5607C17.2151 22.5839 17.2382 22.6045 17.264 22.6277C17.3026 22.6611 17.3412 22.6972 17.3824 22.7306C17.4184 22.7615 17.4545 22.795 17.4931 22.8259C17.5317 22.8594 17.5703 22.8929 17.609 22.9263C17.645 22.9572 17.6836 22.9881 17.7197 23.0216C17.748 23.0448 17.7763 23.0679 17.8046 23.0937C17.8535 23.1349 17.905 23.1761 17.9539 23.2173C17.9848 23.243 18.0183 23.2688 18.0492 23.2945C18.0955 23.3331 18.1419 23.3692 18.1882 23.4078C18.2191 23.4336 18.2526 23.4567 18.2835 23.4825C18.3324 23.5211 18.3813 23.5597 18.4302 23.5958C18.4637 23.6215 18.4972 23.6473 18.5306 23.673C18.577 23.7091 18.6233 23.7451 18.6697 23.7786C18.7031 23.8043 18.7366 23.8301 18.7701 23.8558C18.819 23.8919 18.8679 23.9279 18.9142 23.964C18.9477 23.9897 18.9812 24.0129 19.0172 24.0386C19.0661 24.0747 19.1125 24.1081 19.1614 24.1416C19.1923 24.1648 19.2232 24.1854 19.2566 24.2085C19.3519 24.2755 19.4472 24.3424 19.5424 24.4068C19.6171 24.4557 19.6892 24.5047 19.7638 24.5536C19.7716 24.5587 19.7793 24.5639 19.787 24.569C19.8488 24.6102 19.9132 24.6488 19.9749 24.69C19.9852 24.6952 19.9955 24.7029 20.0033 24.708C20.0676 24.7492 20.132 24.7879 20.1963 24.8265C20.2092 24.8342 20.2221 24.8419 20.235 24.8497C20.2993 24.8883 20.3637 24.9269 20.4281 24.9655C20.4358 24.9707 20.4409 24.9733 20.4487 24.9784C20.5079 25.0119 20.5671 25.0453 20.6237 25.0788C20.6366 25.0865 20.6495 25.0943 20.6623 25.0994C20.7241 25.1329 20.7859 25.1664 20.8451 25.1998C20.858 25.2076 20.8709 25.2153 20.8863 25.2204C20.9378 25.2487 20.9919 25.2745 21.0434 25.3028C21.0562 25.3105 21.0691 25.3157 21.082 25.3234C21.1412 25.3543 21.203 25.3852 21.2622 25.4135C21.2751 25.4187 21.2879 25.4264 21.3008 25.4316C21.3497 25.4547 21.3986 25.4779 21.4476 25.5011C21.463 25.5088 21.4785 25.5165 21.4939 25.5243C21.5531 25.5526 21.6123 25.5783 21.6715 25.6041C21.6793 25.6066 21.6896 25.6118 21.6973 25.6144C21.7488 25.635 21.7977 25.6581 21.8466 25.6762C21.8646 25.6839 21.8801 25.689 21.8981 25.6968C21.9419 25.7148 21.9831 25.7302 22.0268 25.7483C22.0449 25.756 22.0603 25.7611 22.0783 25.7688C22.135 25.7894 22.1942 25.8126 22.2508 25.8307C22.2585 25.8307 22.2637 25.8358 22.2714 25.8384C22.3203 25.8564 22.3718 25.8718 22.4207 25.8873C22.4388 25.8924 22.4568 25.8976 22.4748 25.9053C22.5108 25.9156 22.5469 25.9285 22.5829 25.9388C22.6087 25.9465 22.6318 25.9542 22.6576 25.9594C22.6911 25.9697 22.7219 25.9774 22.7554 25.9851C22.7786 25.9929 22.8043 25.998 22.8275 26.0032C22.8584 26.0109 22.8919 26.0186 22.9228 26.0263C22.9459 26.0315 22.9691 26.0366 22.9923 26.0418C23.0232 26.0495 23.0566 26.0546 23.0875 26.0624C23.1107 26.0675 23.1313 26.0727 23.1545 26.0752C23.1776 26.0804 23.2034 26.083 23.2266 26.0881C23.2626 26.0933 23.2961 26.101 23.3295 26.1061C23.3527 26.1087 23.3785 26.1139 23.4016 26.1164C23.4351 26.1216 23.466 26.1242 23.4995 26.1293C23.5226 26.1319 23.5458 26.1345 23.5715 26.137C23.6024 26.1396 23.6333 26.1422 23.6668 26.1448C23.69 26.1448 23.7131 26.1473 23.7363 26.1499C23.7672 26.1499 23.7981 26.1525 23.829 26.1525C23.8547 26.1525 23.8805 26.1525 23.9062 26.1525C23.9191 26.1525 23.9345 26.1525 23.9474 26.1525C23.9835 26.1525 24.0169 26.1525 24.053 26.1525C24.0607 26.1525 24.071 26.1525 24.0787 26.1525C24.1225 26.1525 24.1637 26.1473 24.2049 26.1448C24.2152 26.1448 24.2255 26.1448 24.2358 26.1422C24.2667 26.1396 24.3001 26.1345 24.331 26.1319C24.3439 26.1319 24.3568 26.1293 24.3671 26.1267C24.4005 26.1216 24.434 26.1164 24.4675 26.1087C24.4752 26.1087 24.4803 26.1087 24.4881 26.1061C24.5267 26.0984 24.5653 26.0907 24.6039 26.0804C24.6142 26.0804 24.6245 26.0753 24.6322 26.0727C24.6606 26.065 24.6863 26.0572 24.7121 26.0495C24.7275 26.0443 24.7429 26.0392 24.7558 26.034C24.779 26.0263 24.8022 26.0186 24.8253 26.0109C24.8382 26.0057 24.8536 26.0006 24.8665 25.9954C24.8923 25.9851 24.9154 25.9748 24.9386 25.9645C24.9489 25.9594 24.9618 25.9542 24.9721 25.9491C25.0081 25.9336 25.0416 25.9156 25.0751 25.8976C25.5771 25.6324 25.9324 25.1638 26.1126 24.5072C26.11 24.5201 26.1049 24.5381 26.0997 24.551C26.0971 24.5639 26.092 24.5819 26.0868 24.5948C26.0817 24.6102 26.0765 24.6308 26.0714 24.6488L26.0611 24.69C26.0611 24.69 26.0534 24.7132 26.0508 24.7261C26.0431 24.7544 26.0354 24.7879 26.0276 24.8136C26.0251 24.8265 26.0199 24.8445 26.0148 24.8574C26.0148 24.8625 26.0122 24.8677 26.0096 24.8703L25.989 24.9475C25.9839 24.9681 25.9761 24.9913 25.971 25.0119L25.9607 25.0505C25.9555 25.0711 25.9478 25.0943 25.9427 25.1149C25.9349 25.1406 25.9272 25.1741 25.9195 25.1998C25.9195 25.2076 25.9143 25.2153 25.9118 25.2256L25.8989 25.2668C25.8989 25.2668 25.8963 25.2796 25.8938 25.2848C25.8912 25.2977 25.886 25.3157 25.8809 25.3286C25.8783 25.3414 25.8783 25.362 25.868 25.3723C25.8603 25.4032 25.85 25.4316 25.8423 25.4599C25.8397 25.4728 25.8345 25.4856 25.832 25.4959C25.7959 25.6118 25.7522 25.7199 25.7058 25.8229C25.7032 25.8306 25.6981 25.8384 25.6955 25.8461C25.6672 25.9027 25.6389 25.9594 25.608 26.0134C25.5797 26.0624 25.5513 26.1087 25.5204 26.1551C25.5076 26.1757 25.4921 26.1937 25.4793 26.2143C25.4715 26.2272 25.4638 26.2374 25.4535 26.2503C25.4458 26.2606 25.4355 26.2709 25.4278 26.2838C25.2527 26.5104 25.039 26.6906 24.7893 26.8219C24.7532 26.8399 24.7172 26.858 24.6812 26.8734C24.6683 26.8786 24.658 26.8837 24.6451 26.8889C24.6194 26.8992 24.5962 26.9095 24.5705 26.9198C24.555 26.9249 24.5421 26.9301 24.5267 26.9352C24.5035 26.9429 24.4778 26.9532 24.4546 26.961C24.4392 26.9661 24.4237 26.9713 24.4083 26.9764C24.398 26.979 24.3877 26.9841 24.3774 26.9867C24.3593 26.9919 24.3439 26.997 24.3259 26.9996C24.3156 27.0022 24.3053 27.0047 24.295 27.0073C24.2564 27.0176 24.2152 27.0253 24.1765 27.0331C24.1688 27.0331 24.1611 27.0331 24.156 27.0382C24.1225 27.0459 24.0864 27.0511 24.053 27.0562C24.0401 27.0562 24.0272 27.0588 24.0144 27.0614C23.9809 27.0665 23.95 27.0691 23.9165 27.0742C23.9062 27.0742 23.8959 27.0742 23.8856 27.0768C23.8419 27.082 23.7981 27.0845 23.7543 27.0871C23.744 27.0871 23.7363 27.0871 23.726 27.0871C23.69 27.0871 23.6539 27.0871 23.6179 27.0897C23.605 27.0897 23.5896 27.0897 23.5767 27.0897C23.5638 27.0897 23.5535 27.0897 23.5406 27.0897C23.5252 27.0897 23.5123 27.0897 23.4969 27.0897C23.466 27.0897 23.4325 27.0897 23.4016 27.0871C23.3785 27.0871 23.3527 27.0845 23.3295 27.082C23.2961 27.082 23.2652 27.0768 23.2317 27.0742C23.206 27.0742 23.1828 27.0691 23.157 27.0665C23.1236 27.064 23.0901 27.0588 23.0541 27.0537C23.0283 27.0511 23.0051 27.0459 22.9794 27.0433C22.9434 27.0382 22.9073 27.033 22.8713 27.0253C22.8532 27.0227 22.8352 27.0202 22.8172 27.0176C22.8095 27.0176 22.8043 27.015 22.7966 27.0125C22.7734 27.0073 22.7503 27.0022 22.7271 26.9996C22.6936 26.9919 22.6602 26.9867 22.6267 26.979C22.6035 26.9738 22.5778 26.9687 22.552 26.961C22.5186 26.9532 22.4851 26.9455 22.4516 26.9378C22.4259 26.9326 22.4001 26.9249 22.3744 26.9172C22.3409 26.9095 22.3075 26.8992 22.274 26.8889C22.2482 26.8811 22.2225 26.8734 22.1967 26.8657C22.1813 26.8605 22.1684 26.858 22.153 26.8528C22.1298 26.8451 22.1066 26.8374 22.0835 26.8296C22.0654 26.8245 22.0474 26.8168 22.0268 26.8116C21.9753 26.7962 21.9238 26.7782 21.8724 26.7601C21.8646 26.7601 21.8595 26.755 21.8518 26.7524C21.7925 26.7318 21.7333 26.7086 21.6741 26.688C21.6561 26.6803 21.6381 26.6752 21.6201 26.6674C21.5917 26.6571 21.5634 26.6468 21.5351 26.634C21.5196 26.6288 21.5042 26.6211 21.4862 26.6134C21.4682 26.6056 21.4527 26.6005 21.4347 26.5928C21.3832 26.5722 21.3317 26.549 21.2776 26.5284C21.2673 26.5232 21.2596 26.5207 21.2493 26.5155C21.1875 26.4898 21.1283 26.4615 21.0665 26.4331C21.0511 26.4254 21.0331 26.4177 21.0176 26.41C20.9919 26.3997 20.9687 26.3868 20.943 26.3765C20.9172 26.3636 20.8915 26.3507 20.8657 26.3379C20.8528 26.3301 20.84 26.325 20.8245 26.3173C20.7627 26.2864 20.701 26.2555 20.6366 26.2246C20.6237 26.2169 20.6108 26.2117 20.598 26.204C20.5439 26.1757 20.4898 26.1473 20.4358 26.119C20.4229 26.1113 20.4075 26.1036 20.3946 26.0958C20.3869 26.0907 20.3791 26.0881 20.3714 26.083C20.3148 26.0521 20.2607 26.0212 20.2041 25.9903C20.1912 25.9826 20.1783 25.9748 20.1629 25.9671C20.1011 25.9336 20.0419 25.8976 19.9801 25.8615C19.9724 25.8564 19.9672 25.8538 19.9595 25.8487C19.908 25.8203 19.8591 25.7894 19.8076 25.7586C19.7921 25.7483 19.7741 25.738 19.7587 25.7277C19.7458 25.7199 19.7304 25.7122 19.7175 25.7019C19.6506 25.6607 19.5836 25.6195 19.5167 25.5783C19.5064 25.5732 19.4961 25.5654 19.4884 25.5603C19.424 25.5191 19.3596 25.4779 19.2927 25.4341C19.285 25.429 19.2747 25.4238 19.2669 25.4187C19.2618 25.4161 19.2592 25.4135 19.2541 25.411C19.182 25.3646 19.1099 25.3157 19.0378 25.2668C18.9374 25.1998 18.8396 25.1303 18.7392 25.0608C18.7263 25.0531 18.716 25.0453 18.7031 25.0376C18.6825 25.0222 18.6619 25.0067 18.6413 24.9939C18.5924 24.9578 18.5409 24.9218 18.492 24.8857C18.456 24.86 18.4199 24.8342 18.3865 24.8085C18.335 24.7724 18.2861 24.7338 18.2346 24.6978C18.214 24.6823 18.1908 24.6669 18.1702 24.6488C18.1573 24.6385 18.1419 24.6282 18.129 24.6179C18.0801 24.5819 18.0312 24.5433 17.9848 24.5072C17.9488 24.4815 17.9153 24.4532 17.8793 24.4274C17.8278 24.3888 17.7789 24.3476 17.7274 24.309C17.7016 24.2884 17.6759 24.2678 17.6502 24.2472C17.6424 24.242 17.6347 24.2369 17.6296 24.2292C17.5806 24.1905 17.5343 24.1519 17.4854 24.1133C17.4519 24.085 17.4184 24.0592 17.385 24.0309C17.3335 23.9871 17.282 23.9459 17.2279 23.9022C17.2022 23.879 17.1739 23.8584 17.1481 23.8352C17.1455 23.8352 17.143 23.8301 17.1404 23.8275C17.1018 23.7966 17.0632 23.7631 17.0271 23.7297C16.9859 23.6962 16.9447 23.6601 16.9035 23.6267C16.8649 23.5932 16.8263 23.5597 16.7877 23.5263C16.7516 23.4954 16.713 23.4619 16.677 23.431C16.6744 23.4284 16.6693 23.4233 16.6667 23.4207C16.6409 23.3975 16.6152 23.3743 16.5894 23.3512C16.5405 23.3074 16.489 23.2636 16.4401 23.2173C16.4092 23.1915 16.3809 23.1632 16.35 23.1349C16.314 23.104 16.2805 23.0705 16.2445 23.0396C16.2367 23.0345 16.2316 23.0267 16.2239 23.0216C16.1106 22.9186 15.9973 22.813 15.884 22.7049C15.8737 22.6946 15.8634 22.6869 15.8531 22.6766C15.8377 22.6637 15.8248 22.6483 15.8094 22.6354C15.7193 22.5478 15.6266 22.4603 15.5365 22.3728C15.5262 22.3625 15.5159 22.3522 15.5056 22.3419C15.503 22.3393 15.4979 22.3341 15.4953 22.3316C15.4026 22.2414 15.3099 22.1488 15.2198 22.0586C15.2121 22.0509 15.2044 22.0432 15.1992 22.038C15.1786 22.0174 15.1554 21.9943 15.1348 21.9737C15.0782 21.917 15.0241 21.8604 14.9675 21.8037C14.9546 21.7909 14.9392 21.7754 14.9263 21.7625C14.9057 21.7394 14.8825 21.7188 14.8619 21.6956C14.8208 21.6518 14.7796 21.6081 14.7358 21.5669C14.7204 21.5488 14.7023 21.5334 14.6869 21.5154C14.6663 21.4922 14.6457 21.4716 14.6225 21.4484C14.5865 21.4098 14.5504 21.3712 14.5144 21.3326C14.4989 21.3145 14.4809 21.2965 14.4655 21.2811C14.4397 21.2553 14.4166 21.227 14.3908 21.2012C14.3625 21.1704 14.3342 21.1395 14.3059 21.1111C14.293 21.0983 14.2801 21.0854 14.2672 21.0699C14.2312 21.0287 14.1926 20.9901 14.1565 20.9489C14.1359 20.9283 14.1179 20.9052 14.0973 20.8846C14.0922 20.8794 14.087 20.8717 14.0819 20.8665C14.0252 20.8047 13.9686 20.7404 13.912 20.676C13.9068 20.6709 13.9017 20.6657 13.8965 20.6606C13.8836 20.6451 13.8682 20.6297 13.8553 20.6142C13.8193 20.573 13.7832 20.5344 13.7472 20.4932C13.7292 20.4726 13.7111 20.4494 13.6905 20.4288C13.6751 20.4108 13.6571 20.3902 13.6416 20.3722C13.6262 20.3567 13.6133 20.3387 13.5979 20.3233C13.5489 20.2666 13.5 20.21 13.4485 20.1533C13.4485 20.1533 13.4485 20.1533 13.446 20.1508C13.4434 20.1456 13.4382 20.143 13.4357 20.1379C13.3945 20.0915 13.3559 20.0426 13.3147 19.9963C13.2941 19.9705 13.2709 19.9448 13.2503 19.919C13.2374 19.9036 13.2246 19.8881 13.2117 19.8727C13.2014 19.8598 13.1911 19.8495 13.1834 19.8366C13.1396 19.7851 13.0958 19.7336 13.0546 19.6821C13.0443 19.6719 13.0366 19.659 13.0263 19.6487C13.016 19.6358 13.0031 19.6229 12.9929 19.6075C12.9723 19.5817 12.9517 19.556 12.9285 19.5302C12.8873 19.4813 12.8461 19.4298 12.8049 19.3783C12.8049 19.3783 12.8023 19.3758 12.7998 19.3732C12.7972 19.368 12.792 19.3655 12.7895 19.3603C12.7534 19.3165 12.72 19.2753 12.6839 19.2316C12.6556 19.1955 12.6273 19.1595 12.5989 19.126C12.5912 19.1183 12.5861 19.1106 12.5784 19.1003C12.5758 19.0951 12.5706 19.09 12.5681 19.0848C12.5294 19.0359 12.4908 18.987 12.4522 18.9381C12.4342 18.9149 12.4136 18.8891 12.3956 18.866C12.3853 18.8531 12.375 18.8376 12.3647 18.8248C12.3544 18.8119 12.3441 18.799 12.3363 18.7861C12.2977 18.7346 12.2565 18.6832 12.2179 18.6317C12.2076 18.6188 12.1973 18.6059 12.187 18.593C12.1767 18.5776 12.1639 18.5647 12.1536 18.5493C12.1355 18.5261 12.1175 18.5029 12.0995 18.4772C12.0583 18.4231 12.0171 18.3716 11.9785 18.3175C11.9785 18.3175 11.9759 18.3124 11.9733 18.3098C11.9682 18.3047 11.9656 18.2995 11.9605 18.2918C11.927 18.2454 11.891 18.2017 11.8575 18.1553C11.8266 18.1167 11.7983 18.0755 11.7674 18.0369C11.7545 18.0189 11.7416 18.0034 11.7313 17.9854C11.685 17.921 11.6361 17.8567 11.5897 17.7923C11.5846 17.7871 11.582 17.782 11.5769 17.7743C11.5666 17.7588 11.5537 17.7434 11.5434 17.7279C11.5125 17.6841 11.4816 17.6404 11.4481 17.5992C11.4327 17.5786 11.4198 17.5606 11.4044 17.54C11.3786 17.5065 11.3555 17.4704 11.3297 17.4344C11.3117 17.4087 11.2937 17.3855 11.2756 17.3597C11.2576 17.334 11.2396 17.3108 11.2242 17.2851C11.1958 17.2439 11.1675 17.2027 11.1366 17.1615C11.1212 17.1409 11.1083 17.1203 11.0929 17.0997C11.08 17.0791 11.0671 17.0611 11.0517 17.0405C10.9976 16.9632 10.9435 16.886 10.892 16.8087C10.8766 16.7881 10.8612 16.765 10.8483 16.7444C10.8406 16.7315 10.8328 16.7212 10.8251 16.7083C10.7865 16.6517 10.7504 16.5976 10.7144 16.541C10.6887 16.5023 10.6603 16.4611 10.6346 16.4225C10.596 16.3633 10.5574 16.3041 10.5187 16.2449C10.4956 16.2088 10.4698 16.1728 10.4467 16.1341C10.4029 16.0672 10.3591 16.0003 10.3154 15.9307C10.2973 15.9024 10.2793 15.8741 10.2613 15.8458C10.1995 15.7505 10.1403 15.6527 10.0811 15.5574C10.0811 15.5548 10.0759 15.5497 10.0759 15.5471C10.0064 15.4338 9.9369 15.3231 9.86996 15.2098C9.86224 15.1944 9.85194 15.1815 9.84422 15.166C9.82877 15.1403 9.8159 15.1171 9.80045 15.0914C9.76956 15.0399 9.73866 14.9884 9.70777 14.9343C9.6949 14.9137 9.68202 14.8905 9.66915 14.8699C9.6537 14.8416 9.63568 14.8133 9.62023 14.785C9.59964 14.7515 9.58162 14.718 9.56102 14.6846C9.55072 14.6665 9.54042 14.6485 9.53013 14.6305C9.50438 14.5867 9.48121 14.543 9.45546 14.4992C9.44259 14.476 9.42972 14.4554 9.41685 14.4322C9.4117 14.4245 9.40912 14.4194 9.40397 14.4116C9.36793 14.3447 9.32931 14.2803 9.29327 14.2134C9.28812 14.2057 9.28297 14.1954 9.27782 14.1876C9.26753 14.1696 9.25723 14.1516 9.24693 14.1336C9.22633 14.095 9.20574 14.0589 9.18514 14.0203C9.16712 13.9894 9.15167 13.9585 9.13365 13.9276C9.12335 13.9096 9.11305 13.8915 9.10533 13.8735C9.10018 13.8606 9.09246 13.8504 9.08731 13.8375C9.05384 13.7757 9.02295 13.7165 8.98948 13.6547C8.98433 13.6469 8.98175 13.6392 8.9766 13.6315C8.96888 13.616 8.96116 13.6006 8.95086 13.5852C8.93284 13.5491 8.91224 13.5105 8.89422 13.4744C8.8762 13.441 8.86075 13.4075 8.84273 13.374C8.83501 13.356 8.82471 13.3406 8.81698 13.3225C8.81184 13.3122 8.80669 13.3019 8.80154 13.2916C8.77064 13.2298 8.73975 13.1706 8.70886 13.1088C8.70371 13.0985 8.70113 13.0908 8.69598 13.0805C8.68826 13.0625 8.67796 13.0445 8.67024 13.029C8.65222 12.993 8.63419 12.9595 8.61875 12.9234C8.6033 12.89 8.58785 12.8565 8.56983 12.8256C8.56211 12.8076 8.55181 12.7896 8.54409 12.7715C8.53894 12.7612 8.53379 12.7509 8.52864 12.7406C8.49517 12.6737 8.46428 12.6067 8.43338 12.5398C8.43338 12.5347 8.42823 12.5321 8.42823 12.5269C8.42051 12.5115 8.41536 12.4986 8.40764 12.4832C8.38447 12.4342 8.3613 12.3853 8.3407 12.339C8.33298 12.321 8.32525 12.3029 8.31753 12.2849C8.30466 12.254 8.28921 12.2257 8.27634 12.1948C8.26346 12.169 8.25317 12.1433 8.24029 12.1175C8.22742 12.0892 8.21455 12.0609 8.20168 12.0326C8.1888 12.0017 8.17336 11.9708 8.16048 11.9399C8.15276 11.9244 8.14504 11.909 8.13989 11.891C8.12444 11.8575 8.11157 11.824 8.09869 11.7906C8.08067 11.7494 8.06265 11.7082 8.0472 11.6695C8.04206 11.6567 8.03691 11.6438 8.03176 11.6335C8.01888 11.6026 8.00601 11.5717 7.99314 11.5408C7.97254 11.4945 7.95452 11.4455 7.93393 11.3992C7.92878 11.3863 7.92363 11.3734 7.91848 11.3606C7.90818 11.3374 7.90046 11.3116 7.89016 11.2885C7.86441 11.2267 7.84124 11.1649 7.8155 11.1031C7.80777 11.0851 7.80263 11.067 7.7949 11.049C7.78975 11.0336 7.78203 11.0156 7.77688 11.0001C7.74341 10.91 7.70994 10.8199 7.67647 10.7323C7.67133 10.7169 7.6636 10.6989 7.65845 10.6834C7.65588 10.6757 7.6533 10.668 7.65073 10.6628C7.64301 10.6371 7.63271 10.6139 7.62498 10.5882C7.60439 10.5315 7.58379 10.4749 7.56577 10.4182C7.55547 10.3899 7.54517 10.359 7.53488 10.3307C7.52715 10.3049 7.51685 10.2766 7.50913 10.2509C7.50141 10.2303 7.49626 10.2097 7.48853 10.1865C7.47309 10.1427 7.46021 10.0989 7.44734 10.0552C7.43447 10.0114 7.41902 9.97021 7.40615 9.92644C7.39328 9.88267 7.3804 9.84147 7.36753 9.7977C7.35981 9.7771 7.35466 9.75393 7.34694 9.73333C7.33921 9.70501 7.33149 9.67926 7.32377 9.65094C7.31604 9.62777 7.31089 9.60717 7.30317 9.58399C7.28257 9.50675 7.2594 9.43208 7.24138 9.35742C7.22078 9.2776 7.20019 9.19779 7.17959 9.12054C7.17959 9.12054 7.17959 9.11539 7.17959 9.11282C7.17959 9.1051 7.17702 9.09737 7.17444 9.09222C7.159 9.02527 7.14355 8.96091 7.1281 8.89654C7.12295 8.87852 7.12038 8.86049 7.11523 8.84247C7.09978 8.77295 7.08434 8.70086 7.06889 8.63134C7.06889 8.62877 7.06889 8.62619 7.06889 8.62362C7.05859 8.5747 7.04829 8.5232 7.04057 8.47428C7.03799 8.45626 7.03542 8.44081 7.03027 8.42536C7.0277 8.40734 7.02255 8.38931 7.01997 8.37129C7.00967 8.3095 6.99938 8.25028 6.98908 8.18849C6.98908 8.18076 6.98908 8.17561 6.9865 8.16788C6.97621 8.10094 6.96591 8.03658 6.95818 7.97221C6.95818 7.95419 6.95303 7.93873 6.95046 7.92071C6.94789 7.90011 6.94531 7.87951 6.94274 7.85634C6.93759 7.82287 6.93501 7.7894 6.92986 7.75593C6.92986 7.74563 6.92986 7.73533 6.92729 7.7276C6.91957 7.66581 6.91442 7.60402 6.90927 7.5448C6.90927 7.52935 6.90927 7.51647 6.90669 7.50103C6.90154 7.44696 6.89897 7.39547 6.8964 7.34397C6.8964 7.33367 6.8964 7.32594 6.8964 7.31564C6.8964 7.31307 6.8964 7.30793 6.8964 7.30535C6.89382 7.25128 6.89125 7.19721 6.88867 7.14314C6.88867 7.13027 6.88867 7.11739 6.88867 7.10451C6.88867 7.04787 6.88867 6.99123 6.88867 6.93459C6.88867 6.89339 6.88867 6.85476 6.88867 6.81614C6.88867 6.80069 6.88867 6.78525 6.88867 6.7698C6.88867 6.7595 6.88867 6.74663 6.88867 6.73633C6.88867 6.68226 6.89382 6.63077 6.8964 6.57927C6.8964 6.57155 6.8964 6.56125 6.8964 6.55352C6.89897 6.5046 6.90412 6.45826 6.90927 6.41191C6.90927 6.40419 6.90927 6.39904 6.90927 6.39131C6.90927 6.38874 6.90927 6.38358 6.90927 6.38101C6.91442 6.33466 6.91957 6.29089 6.92729 6.24455C6.92729 6.23425 6.92986 6.22395 6.93244 6.21365C6.94016 6.16473 6.94789 6.11839 6.95561 6.07205C6.95561 6.06432 6.95561 6.05917 6.95818 6.05144C6.96333 6.03084 6.96591 6.01025 6.97106 5.98707C6.97621 5.9639 6.98135 5.94073 6.9865 5.91756C6.9865 5.91241 6.9865 5.90726 6.98908 5.90469C6.99938 5.86092 7.00967 5.81714 7.02255 5.77337C7.02255 5.76565 7.0277 5.75792 7.03027 5.74762C7.04057 5.71158 7.05087 5.67296 7.06374 5.63949C7.06374 5.63434 7.06631 5.62918 7.06889 5.62403C7.06889 5.61631 7.07404 5.61116 7.07661 5.60344C7.08948 5.56224 7.10493 5.51847 7.12038 5.47985C7.13583 5.43865 7.15127 5.40003 7.16929 5.36141C7.17187 5.35626 7.17444 5.34854 7.17702 5.34339C7.17702 5.33824 7.18217 5.33309 7.18217 5.33052C7.19761 5.29705 7.21306 5.26615 7.22851 5.23525C7.23108 5.22753 7.23623 5.22237 7.23881 5.21465C7.25683 5.1786 7.27485 5.14513 7.29545 5.10908C7.29545 5.10394 7.30059 5.10136 7.30317 5.09621C7.31347 5.08077 7.32119 5.06532 7.33149 5.04987C7.34179 5.03185 7.35208 5.0164 7.36496 4.99837C7.36496 4.9958 7.37011 4.99323 7.37011 4.98808C7.3907 4.95461 7.41387 4.9237 7.43704 4.89281C7.44219 4.88766 7.44477 4.88251 7.44992 4.87479C7.46794 4.84904 7.48853 4.82329 7.50913 4.80012C7.5117 4.79497 7.51685 4.79239 7.51943 4.78724C7.52458 4.78209 7.52715 4.77694 7.5323 4.77179C7.55805 4.74347 7.58379 4.71515 7.60954 4.68683C7.63528 4.65851 7.6636 4.63276 7.68935 4.60701C7.6945 4.60186 7.69964 4.59929 7.70479 4.59414C7.70737 4.59156 7.71252 4.58642 7.71509 4.58384C7.73826 4.56324 7.76143 4.54264 7.78718 4.52204C7.79233 4.51689 7.79748 4.51175 7.8052 4.50917C7.83352 4.486 7.86441 4.46282 7.89531 4.44223L7.87986 4.42678Z" fill="url(#paint4_linear_4607_10460)"/>
<path d="M5.15277 6.55092L7.79937 4.4834C7.77105 4.50657 7.74016 4.52974 7.71184 4.55549C7.70154 4.56322 7.69381 4.57352 7.68609 4.58124C7.66807 4.59926 7.65005 4.61471 7.63203 4.63274C7.61915 4.64561 7.60628 4.65849 7.59341 4.67393C7.58054 4.68938 7.56509 4.70225 7.55222 4.7177C7.53934 4.73057 7.52647 4.74603 7.51617 4.76148C7.5033 4.77692 7.49043 4.79237 7.47756 4.80782C7.46468 4.82327 7.45438 4.83871 7.44409 4.85416C7.43121 4.86961 7.41834 4.88506 7.40804 4.90308C7.39775 4.91853 7.38745 4.93398 7.37457 4.952C7.36428 4.97003 7.3514 4.98548 7.34111 5.0035C7.33338 5.01638 7.32566 5.02667 7.32051 5.03954C7.30764 5.06014 7.29476 5.08332 7.28189 5.10391C7.27417 5.11679 7.26644 5.13224 7.25872 5.14511C7.24842 5.16571 7.23555 5.1863 7.22525 5.2069C7.21753 5.22235 7.20981 5.2378 7.20208 5.25325C7.19178 5.27385 7.18149 5.29445 7.17119 5.31762C7.16346 5.33307 7.15574 5.35109 7.15059 5.36653C7.14029 5.38971 7.13257 5.41031 7.12227 5.43348C7.11712 5.44893 7.1094 5.46438 7.10425 5.47982C7.09653 5.503 7.08623 5.52617 7.07851 5.55192C7.07336 5.56736 7.06821 5.58539 7.06306 5.60084C7.05533 5.62658 7.04761 5.65234 7.03989 5.67808C7.03474 5.69353 7.02959 5.70898 7.02701 5.72443C7.01929 5.75275 7.01157 5.78365 7.00384 5.81197C7.00127 5.82484 6.99612 5.83772 6.99355 5.85317C6.98325 5.89694 6.97295 5.94071 6.96523 5.98448C6.96523 5.9922 6.96523 5.99735 6.96008 6.00507C6.95235 6.0437 6.94463 6.08232 6.93948 6.12094C6.93691 6.13639 6.93433 6.15184 6.93176 6.16986C6.92661 6.20076 6.92146 6.23165 6.91889 6.26255C6.91889 6.28057 6.91374 6.2986 6.91116 6.31919C6.90859 6.35009 6.90344 6.37841 6.90086 6.40931C6.90086 6.42991 6.89829 6.44794 6.89571 6.46853C6.89314 6.49943 6.89057 6.53032 6.88799 6.56122C6.88799 6.58182 6.88542 6.59984 6.88284 6.62044C6.88284 6.65391 6.88027 6.68996 6.87769 6.72343C6.87769 6.74145 6.87769 6.75947 6.87769 6.77492C6.87769 6.82127 6.87769 6.87019 6.87769 6.91654C6.87769 6.92169 6.87769 6.92684 6.87769 6.93456C6.87769 6.98863 6.87769 7.04527 6.87769 7.09934C6.87769 7.11736 6.87769 7.13539 6.87769 7.15084C6.87769 7.18946 6.88027 7.22808 6.88284 7.26928C6.88284 7.29245 6.88542 7.31305 6.88799 7.33622C6.88799 7.37227 6.89314 7.40831 6.89571 7.44436C6.89571 7.46753 6.90086 7.49328 6.90086 7.51645C6.90344 7.54992 6.90601 7.58597 6.91116 7.62201C6.91374 7.65034 6.91631 7.67866 6.91889 7.70955C6.92146 7.74303 6.92661 7.7765 6.93176 7.81254C6.93433 7.84087 6.93948 7.87176 6.94206 7.90266C6.94721 7.93613 6.95235 7.97218 6.9575 8.00823C6.96265 8.03912 6.96523 8.06745 6.97038 8.09834C6.97552 8.13439 6.98067 8.17044 6.9884 8.20649C6.99355 8.23738 6.9987 8.26828 7.00384 8.29917C7.00899 8.33265 7.01672 8.36612 7.02187 8.39959C7.02959 8.44079 7.03731 8.4794 7.04504 8.5206C7.05276 8.55407 7.05791 8.58755 7.06563 8.62102C7.07336 8.66221 7.08365 8.70341 7.09138 8.74461C7.0991 8.77808 7.10683 8.81155 7.11455 8.8476C7.12485 8.88879 7.13257 8.93256 7.14287 8.97376C7.15059 9.00723 7.15832 9.04327 7.16861 9.07674C7.17891 9.12051 7.18921 9.16429 7.20208 9.20806C7.21495 9.2544 7.22525 9.30332 7.23813 9.35224C7.2613 9.44236 7.28704 9.53505 7.31536 9.62517C7.32308 9.65606 7.33338 9.68439 7.34111 9.71528C7.35913 9.77708 7.37715 9.83887 7.39775 9.90324C7.40804 9.93929 7.42092 9.97534 7.43121 10.0088C7.44924 10.0655 7.46726 10.1247 7.48785 10.1813C7.50073 10.2199 7.5136 10.256 7.52647 10.2946C7.54449 10.3512 7.56509 10.4105 7.58569 10.4671C7.59856 10.5032 7.61143 10.5392 7.6243 10.5752C7.6552 10.6602 7.68609 10.7478 7.71956 10.8353C7.72728 10.8533 7.73243 10.8713 7.74016 10.8894C7.77877 10.9924 7.81997 11.0979 7.86116 11.2035C7.87146 11.2318 7.88433 11.2601 7.89463 11.2885C7.92552 11.3683 7.95899 11.4455 7.98988 11.5253C8.00276 11.5588 8.0182 11.5923 8.03108 11.6283C8.06455 11.7107 8.10059 11.7931 8.13663 11.8755C8.14693 11.9012 8.15723 11.9244 8.1701 11.9502C8.21644 12.0557 8.26536 12.1639 8.31427 12.2694C8.32457 12.2952 8.33744 12.3209 8.35032 12.3441C8.38893 12.4265 8.42755 12.5115 8.46617 12.5964C8.48162 12.6325 8.49964 12.6659 8.51509 12.702C8.5537 12.7818 8.59232 12.8642 8.63351 12.944C8.64896 12.9723 8.66183 13.0032 8.67728 13.0316C8.73135 13.1397 8.78541 13.2478 8.84205 13.356C8.85492 13.3817 8.87037 13.41 8.88324 13.4358C8.91928 13.5079 8.9579 13.58 8.99652 13.6521C9.01712 13.6881 9.03514 13.7267 9.05573 13.7628C9.0892 13.8246 9.12267 13.889 9.15614 13.9507C9.17674 13.9868 9.19733 14.0228 9.21535 14.0615C9.25655 14.1361 9.29774 14.2134 9.34151 14.288C9.3621 14.3241 9.38012 14.3576 9.40072 14.3936C9.45221 14.4837 9.5037 14.5764 9.55519 14.6665C9.56549 14.6845 9.57579 14.7 9.58351 14.718C9.6453 14.8262 9.70966 14.9317 9.77402 15.0399C9.79205 15.0708 9.81007 15.1017 9.82809 15.13C9.87443 15.2098 9.92335 15.287 9.96969 15.3669C9.99286 15.4029 10.0135 15.4389 10.0366 15.475C10.0855 15.5522 10.1319 15.6295 10.1808 15.7067C10.2014 15.7376 10.2194 15.7685 10.24 15.802C10.3069 15.9101 10.3765 16.0157 10.446 16.1238C10.4537 16.1367 10.4614 16.147 10.4691 16.1599C10.5309 16.2551 10.5927 16.3504 10.6571 16.4457C10.6803 16.4791 10.7034 16.5126 10.724 16.5487C10.7755 16.6233 10.8244 16.698 10.8759 16.7752C10.9017 16.8113 10.9274 16.8499 10.9532 16.886C10.9918 16.9426 11.0304 16.9992 11.069 17.0559C11.0973 17.0971 11.1256 17.1357 11.1514 17.1769C11.1926 17.2361 11.2338 17.2928 11.275 17.352C11.3007 17.3906 11.329 17.4267 11.3548 17.4653C11.4011 17.5296 11.4475 17.594 11.4938 17.6584C11.517 17.6893 11.5376 17.7202 11.5607 17.7511C11.6303 17.8463 11.6998 17.9416 11.7693 18.0369C11.8182 18.1038 11.8697 18.1708 11.9212 18.2377C11.9546 18.2815 11.9881 18.3278 12.0216 18.3716C12.055 18.4153 12.0885 18.4617 12.1246 18.5055C12.158 18.5492 12.1941 18.5956 12.2275 18.6394C12.261 18.6831 12.2971 18.7269 12.3305 18.7732C12.364 18.817 12.4 18.8608 12.4335 18.9046C12.4695 18.9483 12.503 18.9921 12.5391 19.0359C12.5751 19.0796 12.6086 19.1234 12.6446 19.1672C12.6729 19.2006 12.6987 19.2367 12.727 19.2702C12.8377 19.4066 12.9484 19.5405 13.0591 19.677C13.0771 19.6976 13.0952 19.7182 13.1106 19.7388C13.2265 19.8778 13.3423 20.0168 13.4607 20.1533C13.4685 20.1636 13.4788 20.1739 13.4865 20.1842C13.5895 20.3052 13.695 20.4236 13.8006 20.5421C13.8186 20.5627 13.8366 20.5833 13.8546 20.6039C13.9628 20.7249 14.0709 20.8459 14.179 20.9643C14.2022 20.9901 14.2254 21.0133 14.246 21.039C14.3541 21.1549 14.4596 21.2707 14.5678 21.3866C14.5729 21.3918 14.5755 21.3943 14.5806 21.3995C14.6862 21.5102 14.7918 21.6209 14.8973 21.729C14.9205 21.7522 14.9437 21.7754 14.9668 21.8011C15.0724 21.9093 15.1779 22.0148 15.2835 22.1204C15.3015 22.1384 15.3221 22.1565 15.3401 22.1771C15.4354 22.2723 15.5306 22.365 15.6285 22.4603C15.6491 22.4783 15.6671 22.4989 15.6877 22.5169C15.7958 22.6199 15.9014 22.7229 16.0095 22.8233C16.0327 22.8465 16.0558 22.8671 16.079 22.8877C16.182 22.983 16.285 23.0782 16.3905 23.1735C16.3983 23.1812 16.406 23.1889 16.4163 23.1967C16.5296 23.2996 16.6428 23.4001 16.7561 23.4979C16.7793 23.5185 16.805 23.5391 16.8282 23.5597C16.9415 23.6575 17.0522 23.7528 17.1655 23.8481C17.2195 23.8944 17.2736 23.9382 17.3277 23.9819C17.3457 23.9974 17.3637 24.0103 17.3817 24.0257C17.4564 24.0875 17.531 24.1467 17.6057 24.206C17.6237 24.2214 17.6443 24.2369 17.6623 24.2523C17.719 24.2961 17.773 24.3398 17.8297 24.3836C17.858 24.4042 17.8838 24.4274 17.9121 24.448C17.9584 24.484 18.0048 24.5201 18.0511 24.5561C18.0897 24.5844 18.1258 24.6128 18.1644 24.6411C18.2056 24.672 18.2468 24.7029 18.288 24.7338C18.3266 24.7621 18.3626 24.7879 18.4012 24.8162C18.4424 24.8471 18.4836 24.8754 18.5248 24.9063C18.5634 24.932 18.5995 24.9604 18.6381 24.9861C18.6793 25.0144 18.7205 25.0453 18.7617 25.0737C18.8003 25.0994 18.8363 25.1251 18.8749 25.1509C18.9342 25.1921 18.9908 25.2307 19.05 25.2719C19.1324 25.3285 19.2174 25.3826 19.2997 25.4367C19.3281 25.4547 19.3538 25.4702 19.3821 25.4882C19.4362 25.5242 19.4928 25.5577 19.5469 25.5937C19.5778 25.6143 19.6113 25.6324 19.6421 25.653C19.6911 25.6839 19.74 25.7122 19.7889 25.7431C19.8224 25.7637 19.8558 25.7843 19.8893 25.8023C19.9356 25.8306 19.982 25.8564 20.0283 25.8847C20.0695 25.9079 20.1107 25.931 20.1519 25.9542C20.1776 25.9697 20.2034 25.9851 20.2317 25.998C20.2806 26.0237 20.327 26.052 20.3759 26.0778C20.3965 26.0881 20.4171 26.101 20.4377 26.1113C20.5072 26.1473 20.5741 26.1834 20.6411 26.2168C20.6514 26.222 20.6591 26.2271 20.6694 26.2297C20.7286 26.258 20.7852 26.2889 20.8419 26.3172C20.865 26.3275 20.8882 26.3378 20.9088 26.3507C20.9526 26.3713 20.9963 26.3919 21.0375 26.4125C21.0633 26.4254 21.089 26.4357 21.1122 26.446C21.1534 26.464 21.192 26.482 21.2332 26.5001C21.2589 26.5104 21.2847 26.5232 21.3104 26.5335C21.3491 26.5515 21.3902 26.567 21.4289 26.5824C21.452 26.5927 21.4778 26.603 21.5009 26.6133C21.5421 26.6314 21.5833 26.6468 21.6245 26.6623C21.6451 26.67 21.6657 26.6777 21.6863 26.6854C21.743 26.706 21.7996 26.7266 21.8537 26.7472C21.8588 26.7472 21.864 26.7498 21.8691 26.7524C21.9283 26.773 21.9901 26.7936 22.0493 26.8116C22.0673 26.8168 22.0854 26.8219 22.106 26.8296C22.1472 26.8425 22.1883 26.8554 22.227 26.8657C22.2501 26.8734 22.2707 26.8785 22.2939 26.8837C22.3299 26.894 22.366 26.9043 22.402 26.9146C22.4252 26.9197 22.4484 26.9275 22.469 26.9326C22.505 26.9403 22.5385 26.9506 22.5745 26.9584C22.5977 26.9635 22.6183 26.9687 22.6389 26.9738C22.6749 26.9815 22.711 26.9893 22.7444 26.997C22.765 27.0021 22.7831 27.0047 22.8037 27.0098C22.8448 27.0176 22.8886 27.0253 22.9298 27.033C22.9427 27.033 22.953 27.0382 22.9658 27.0382C23.0199 27.0459 23.0714 27.0536 23.1229 27.0588C23.1358 27.0588 23.1512 27.0613 23.1641 27.0639C23.2027 27.0691 23.2387 27.0716 23.2774 27.0742C23.2954 27.0742 23.3134 27.0768 23.334 27.0794C23.3649 27.0794 23.3984 27.0845 23.4293 27.0845C23.4499 27.0845 23.4679 27.0845 23.4885 27.0845C23.5194 27.0845 23.5477 27.0845 23.5786 27.0845C23.5966 27.0845 23.6172 27.0845 23.6352 27.0845C23.6661 27.0845 23.6944 27.0845 23.7253 27.0845C23.7434 27.0845 23.7614 27.0845 23.7768 27.0845C23.8103 27.0845 23.8438 27.0794 23.8747 27.0768C23.8875 27.0768 23.9004 27.0768 23.9133 27.0742C23.9596 27.0691 24.0034 27.0639 24.0471 27.0588C24.0549 27.0588 24.0626 27.0562 24.0703 27.0536C24.1064 27.0485 24.1424 27.0433 24.1759 27.0356C24.1913 27.033 24.2042 27.0304 24.2196 27.0253C24.248 27.0201 24.2737 27.0124 24.302 27.0073C24.3175 27.0021 24.3329 26.9995 24.3509 26.9944C24.3767 26.9867 24.3999 26.9815 24.4256 26.9738C24.441 26.9687 24.4565 26.9635 24.4719 26.9584C24.4977 26.9506 24.5209 26.9429 24.544 26.9326C24.5595 26.9275 24.5723 26.9223 24.5878 26.9172C24.6135 26.9069 24.6393 26.8966 24.6625 26.8863C24.6753 26.8811 24.6856 26.876 24.6985 26.8708C24.7345 26.8554 24.7706 26.8373 24.8066 26.8193C24.9122 26.7653 25.01 26.7009 25.1001 26.6288L22.4535 28.6963C22.3608 28.7684 22.263 28.8328 22.16 28.8868C22.124 28.9049 22.0879 28.9229 22.0519 28.9383C22.039 28.9435 22.0287 28.9486 22.0159 28.9538C21.9901 28.9641 21.9669 28.9744 21.9412 28.9847C21.9257 28.9898 21.9129 28.995 21.8974 29.0001C21.8743 29.0079 21.8485 29.0182 21.8253 29.0259C21.8099 29.031 21.7944 29.0362 21.779 29.0413C21.7533 29.0491 21.7301 29.0568 21.7043 29.0619C21.6889 29.0671 21.6734 29.0697 21.658 29.0748C21.6322 29.0825 21.6039 29.0877 21.5756 29.0928C21.5602 29.0954 21.5473 29.1005 21.5318 29.1031C21.4984 29.1108 21.4623 29.116 21.4263 29.1211C21.4186 29.1211 21.4108 29.1237 21.4031 29.1263C21.3593 29.1314 21.3156 29.1366 21.2692 29.1417C21.2564 29.1417 21.2435 29.1417 21.2306 29.1443C21.1972 29.1469 21.1663 29.1495 21.1328 29.152C21.1148 29.152 21.0967 29.152 21.0813 29.152C21.0504 29.152 21.0221 29.152 20.9912 29.152C20.9732 29.152 20.9526 29.152 20.9346 29.152C20.9037 29.152 20.8753 29.152 20.8444 29.152C20.8264 29.152 20.8058 29.152 20.7852 29.152C20.7543 29.152 20.7209 29.1495 20.69 29.1469C20.672 29.1469 20.6539 29.1469 20.6359 29.1417C20.5999 29.1392 20.5612 29.134 20.5226 29.1314C20.5098 29.1314 20.4943 29.1289 20.4814 29.1263C20.4299 29.1211 20.3785 29.1134 20.3244 29.1057C20.3115 29.1057 20.3012 29.1005 20.2883 29.1005C20.2472 29.0928 20.206 29.0877 20.1622 29.0774C20.1442 29.0748 20.1236 29.0697 20.103 29.0645C20.0669 29.0568 20.0309 29.0491 19.9949 29.0413C19.9743 29.0362 19.9511 29.031 19.9305 29.0259C19.897 29.0182 19.861 29.0104 19.8249 29.0001C19.8018 28.995 19.7812 28.9898 19.758 28.9821C19.722 28.9718 19.6859 28.9615 19.6499 28.9512C19.6293 28.9461 19.6061 28.9383 19.5829 28.9332C19.5417 28.9203 19.5031 28.91 19.4619 28.8971C19.4439 28.892 19.4259 28.8868 19.4053 28.8791C19.3461 28.8611 19.2869 28.8405 19.2251 28.8199C19.2199 28.8199 19.2148 28.8173 19.2096 28.8147C19.153 28.7941 19.0989 28.7736 19.0423 28.753C19.0217 28.7452 19.0011 28.7375 18.9805 28.7298C18.9393 28.7143 18.8981 28.6989 18.8569 28.6809C18.8337 28.6706 18.808 28.6603 18.7848 28.65C18.7462 28.6345 18.705 28.6165 18.6664 28.601C18.6407 28.5907 18.6149 28.5804 18.5892 28.5676C18.548 28.5495 18.5094 28.5315 18.4682 28.5135C18.4424 28.5032 18.4193 28.4903 18.3935 28.48C18.3497 28.4594 18.306 28.4388 18.2622 28.4182C18.239 28.4079 18.2184 28.3976 18.1953 28.3848C18.1386 28.3564 18.0794 28.3281 18.0228 28.2972C18.0125 28.2921 18.0048 28.2895 17.9945 28.2844C17.9275 28.2509 17.8606 28.2148 17.7911 28.1788C17.7705 28.1685 17.7499 28.1556 17.7293 28.1453C17.6804 28.1196 17.634 28.0938 17.5851 28.0655C17.5594 28.0501 17.5336 28.0372 17.5079 28.0217C17.4796 28.0063 17.4512 27.9908 17.4255 27.9754C17.4126 27.9677 17.3997 27.9599 17.3843 27.9522C17.338 27.9265 17.2916 27.8981 17.2453 27.8698C17.2118 27.8492 17.1783 27.8312 17.1449 27.8106C17.096 27.7823 17.047 27.7514 16.9981 27.7205C16.9672 27.6999 16.9338 27.6819 16.9029 27.6613C16.8488 27.6278 16.7922 27.5917 16.7381 27.5557C16.7123 27.5377 16.684 27.5222 16.6583 27.5042C16.5759 27.4501 16.4935 27.3961 16.4086 27.3394C16.3725 27.3163 16.3365 27.2905 16.3004 27.2647C16.2773 27.2493 16.2567 27.2339 16.2335 27.2184C16.1949 27.1927 16.1588 27.1669 16.1202 27.1412C16.079 27.1128 16.0378 27.0845 15.9966 27.0536C15.958 27.0279 15.922 26.9996 15.8834 26.9738C15.8422 26.9429 15.801 26.9146 15.7598 26.8837C15.7212 26.8554 15.6851 26.8296 15.6465 26.8013C15.6053 26.7704 15.5641 26.7395 15.5229 26.7086C15.4843 26.6803 15.4483 26.652 15.4096 26.6236C15.3968 26.6133 15.3813 26.603 15.3684 26.5927C15.335 26.567 15.3041 26.5413 15.2706 26.5155C15.2423 26.4949 15.2166 26.4743 15.1882 26.4511C15.1316 26.4074 15.0775 26.3636 15.0209 26.3198C15.0029 26.3044 14.9823 26.2889 14.9642 26.2735C14.8896 26.2143 14.8149 26.1525 14.7403 26.0932C14.7222 26.0804 14.7068 26.0649 14.6888 26.0495C14.6399 26.0083 14.5909 25.9696 14.542 25.9285C14.5369 25.9233 14.5317 25.9182 14.5266 25.9156C14.4133 25.8203 14.3026 25.7251 14.1893 25.6272C14.1662 25.6066 14.1404 25.586 14.1172 25.5654C14.004 25.465 13.8907 25.3672 13.7774 25.2642C13.7774 25.2642 13.7748 25.2616 13.7722 25.259C13.7671 25.2539 13.7594 25.2461 13.7542 25.241C13.6512 25.1483 13.5457 25.053 13.4427 24.9552C13.4195 24.932 13.3964 24.9114 13.3706 24.8883C13.2625 24.7878 13.1569 24.6849 13.0488 24.5819C13.0437 24.5767 13.0359 24.569 13.0308 24.5638C13.0179 24.551 13.005 24.5381 12.9922 24.5252C12.8969 24.4325 12.7991 24.3373 12.7038 24.242C12.6858 24.224 12.6678 24.206 12.6472 24.1854C12.5416 24.0798 12.4361 23.9717 12.3305 23.8661C12.3202 23.8558 12.3099 23.8455 12.3022 23.8378C12.2893 23.8249 12.2765 23.8094 12.2636 23.7966C12.158 23.6884 12.0525 23.5777 11.9469 23.467C11.9418 23.4618 11.9392 23.4593 11.934 23.4541C11.8259 23.3408 11.7178 23.225 11.6122 23.1065C11.5994 23.0937 11.5865 23.0808 11.5736 23.0653C11.5633 23.055 11.553 23.0422 11.5427 23.0319C11.4346 22.9134 11.3265 22.7924 11.2183 22.6714C11.2003 22.6508 11.1823 22.6302 11.1643 22.6096C11.0587 22.4912 10.9557 22.3702 10.8502 22.2517C10.8424 22.244 10.8373 22.2363 10.8296 22.2286C10.8296 22.2286 10.8244 22.2234 10.8244 22.2208C10.706 22.0844 10.5901 21.9453 10.4743 21.8063C10.4563 21.7857 10.4382 21.7651 10.4228 21.7445C10.3121 21.6106 10.2014 21.4742 10.0907 21.3377C10.0804 21.3248 10.0701 21.3145 10.0598 21.3016C10.0418 21.281 10.0238 21.2579 10.0083 21.2347C9.97226 21.1909 9.93879 21.1472 9.90275 21.1034C9.86671 21.0596 9.83324 21.0158 9.79977 20.9721C9.76373 20.9283 9.73026 20.8845 9.69679 20.8382C9.66332 20.7944 9.62728 20.7506 9.59381 20.7043C9.56034 20.6605 9.5243 20.6142 9.49083 20.5704C9.45736 20.5266 9.42389 20.4803 9.38785 20.4365C9.35438 20.3928 9.32091 20.3464 9.28744 20.3026C9.26942 20.2795 9.25397 20.2589 9.23595 20.2357C9.20248 20.1919 9.16901 20.1456 9.13554 20.1018C9.06603 20.0065 8.99652 19.9113 8.92701 19.816C8.90384 19.7851 8.88324 19.7542 8.86007 19.7233C8.81373 19.659 8.76739 19.5946 8.72105 19.5302C8.6953 19.4916 8.66698 19.4555 8.64124 19.4169C8.60004 19.3577 8.55885 19.3011 8.51766 19.2418C8.48934 19.2006 8.46102 19.162 8.4327 19.1208C8.39408 19.0642 8.35547 19.0075 8.31685 18.9509C8.30398 18.9329 8.29368 18.9174 8.2808 18.8994C8.26793 18.8788 8.25248 18.8582 8.23961 18.8376C8.18812 18.7629 8.13921 18.6883 8.08772 18.6136C8.06455 18.5801 8.04137 18.5441 8.0182 18.5106C7.95642 18.4154 7.89205 18.3201 7.83026 18.2274C7.82254 18.2145 7.81482 18.2017 7.80709 18.1914C7.73758 18.0858 7.67064 17.9776 7.60113 17.8695C7.58054 17.8386 7.56251 17.8051 7.54192 17.7742C7.493 17.697 7.44409 17.6198 7.39775 17.5425C7.37457 17.5065 7.35398 17.4704 7.33081 17.4344C7.28189 17.3571 7.23555 17.2773 7.18921 17.2001C7.17119 17.1692 7.15317 17.1383 7.13514 17.11C7.07078 17.0018 7.00899 16.8963 6.94463 16.7881C6.93433 16.7701 6.92403 16.7546 6.91631 16.7366C6.86482 16.6465 6.81076 16.5538 6.76184 16.4637C6.74124 16.4276 6.72322 16.3942 6.70263 16.3581C6.66143 16.2835 6.61767 16.2062 6.57647 16.1316C6.56618 16.111 6.5533 16.0904 6.54043 16.0672C6.53271 16.0517 6.52498 16.0363 6.51469 16.0208C6.48122 15.959 6.44775 15.8947 6.41428 15.8329C6.39368 15.7968 6.37566 15.7582 6.35507 15.7222C6.31645 15.6501 6.28041 15.578 6.24179 15.5059C6.22891 15.4827 6.21604 15.4595 6.20574 15.4364C6.20574 15.4338 6.20317 15.4286 6.2006 15.4261C6.14396 15.3179 6.08989 15.2098 6.03583 15.1017C6.02038 15.0733 6.00751 15.0424 5.99206 15.0141C5.95344 14.9343 5.91225 14.8519 5.87363 14.7721C5.85818 14.7386 5.84016 14.7026 5.82472 14.6691C5.7861 14.5841 5.74491 14.5017 5.70886 14.4193C5.69599 14.3936 5.68569 14.3679 5.67282 14.3447C5.6239 14.2365 5.57756 14.131 5.52865 14.0254C5.51835 13.9997 5.50805 13.9765 5.49518 13.9507C5.45913 13.8684 5.42309 13.786 5.38962 13.7036C5.37418 13.6701 5.3613 13.634 5.34586 13.6006C5.31239 13.5208 5.28149 13.4435 5.2506 13.3637C5.2403 13.3354 5.22743 13.3071 5.21713 13.2787C5.17594 13.1732 5.13475 13.0702 5.09613 12.9646C5.0884 12.9466 5.08326 12.9286 5.07553 12.9105C5.04464 12.823 5.01117 12.738 4.98027 12.6505C4.97513 12.6376 4.96998 12.6222 4.96483 12.6093C4.9571 12.5861 4.94938 12.5655 4.94166 12.5449C4.92106 12.4883 4.90304 12.4291 4.88244 12.3724C4.86957 12.3338 4.8567 12.2978 4.84383 12.2591C4.8258 12.1999 4.80521 12.1433 4.78719 12.0866C4.77689 12.0506 4.76402 12.0145 4.75372 11.9785C4.7357 11.9167 4.7151 11.8549 4.69708 11.7931C4.68935 11.7622 4.67906 11.7339 4.67133 11.703C4.64559 11.6103 4.61984 11.5202 4.5941 11.4301C4.58637 11.4043 4.58122 11.3811 4.5735 11.3554C4.56835 11.3322 4.5632 11.3091 4.55548 11.2859C4.54518 11.2421 4.53231 11.1983 4.52201 11.1571C4.51429 11.1211 4.50656 11.0876 4.49627 11.0542C4.48597 11.013 4.47567 10.9692 4.46795 10.928C4.46022 10.8945 4.4525 10.861 4.44478 10.8276C4.43705 10.7864 4.42675 10.7452 4.41903 10.704C4.41131 10.6705 4.40616 10.637 4.39843 10.6036C4.39071 10.5624 4.38299 10.5238 4.37526 10.4826C4.37269 10.4645 4.36754 10.4439 4.36497 10.4233C4.36497 10.4079 4.35982 10.395 4.35724 10.3796C4.35209 10.3487 4.34694 10.3178 4.34179 10.2869C4.33665 10.2508 4.3315 10.2148 4.32377 10.1813C4.31862 10.1504 4.31347 10.1195 4.3109 10.0912C4.30575 10.0551 4.3006 10.0217 4.29545 9.98821C4.2903 9.95731 4.28773 9.92899 4.28515 9.89809C4.28001 9.86462 4.27743 9.83115 4.27228 9.7951C4.26971 9.76678 4.26713 9.73588 4.26198 9.70756C4.26198 9.69469 4.25941 9.67924 4.25684 9.66636C4.25684 9.64577 4.25426 9.62517 4.25169 9.60199C4.25169 9.57882 4.24654 9.55307 4.24654 9.5299C4.24396 9.49386 4.24139 9.45781 4.23881 9.42176C4.23881 9.39859 4.23624 9.37799 4.23366 9.35482C4.23366 9.3162 4.23109 9.27501 4.22852 9.23639C4.22852 9.21836 4.22852 9.20034 4.22852 9.18489C4.22852 9.12824 4.22852 9.07417 4.22852 9.0201C4.22852 9.01495 4.22852 9.0098 4.22852 9.00465C4.22852 8.95573 4.22852 8.90939 4.22852 8.86047C4.22852 8.84244 4.22852 8.82442 4.22852 8.8064C4.22852 8.77293 4.23109 8.73688 4.23366 8.70341C4.23366 8.68281 4.23366 8.66479 4.23881 8.64419C4.23881 8.61329 4.24396 8.5824 4.24654 8.5515C4.24654 8.5309 4.24911 8.51288 4.25169 8.49228C4.25169 8.47941 4.25169 8.46653 4.25426 8.45366C4.25426 8.43564 4.25941 8.42019 4.25941 8.40216C4.25941 8.38414 4.26456 8.36612 4.26713 8.34552C4.27228 8.31462 4.27486 8.28373 4.28001 8.25283C4.28001 8.23738 4.28515 8.21936 4.28773 8.20391C4.29545 8.16529 4.3006 8.12666 4.30833 8.08804C4.30833 8.08032 4.30833 8.07517 4.31347 8.06745C4.3212 8.02625 4.3315 7.98505 4.34179 7.94386C4.34179 7.94128 4.34179 7.93871 4.34179 7.93613C4.34437 7.92326 4.34952 7.91039 4.35209 7.89494C4.35982 7.86661 4.36754 7.83572 4.37526 7.8074C4.38041 7.79195 4.38556 7.7765 4.39071 7.75848C4.39843 7.73273 4.40616 7.70698 4.41388 7.68124C4.41903 7.66579 4.42418 7.64776 4.42933 7.63232C4.43705 7.60914 4.44478 7.58597 4.45507 7.56022C4.46022 7.54477 4.46795 7.52933 4.47309 7.51388C4.47567 7.50358 4.48082 7.49585 4.48339 7.48555C4.48854 7.47268 4.49369 7.45981 4.49884 7.44693C4.50656 7.43149 4.51171 7.41346 4.51944 7.39801C4.52973 7.37741 4.54003 7.35424 4.55033 7.33364C4.55805 7.3182 4.56578 7.30275 4.5735 7.2873C4.5838 7.2667 4.59667 7.2461 4.60697 7.2255C4.61469 7.21263 4.62242 7.19719 4.63014 7.18431C4.64301 7.16114 4.65589 7.14054 4.66876 7.11994C4.67648 7.10707 4.68421 7.09677 4.68935 7.08389C4.68935 7.08389 4.68935 7.08132 4.69193 7.07875C4.70223 7.0633 4.71252 7.04784 4.72282 7.0324C4.73312 7.01695 4.74342 6.99893 4.75629 6.98348C4.76916 6.96803 4.77946 6.95258 4.79233 6.93456C4.80521 6.91911 4.81551 6.90366 4.82838 6.88821C4.84125 6.87276 4.85412 6.85732 4.867 6.84187C4.87987 6.82642 4.89017 6.81355 4.90304 6.7981C4.91591 6.78265 4.93136 6.76977 4.94423 6.75433C4.9571 6.74145 4.96998 6.726 4.98285 6.71313C4.98285 6.71313 4.98285 6.71313 4.98542 6.71055C5.00087 6.6951 5.01889 6.67966 5.03691 6.66421C5.04721 6.65648 5.05494 6.64618 5.06523 6.63846C5.09355 6.61271 5.12187 6.58954 5.15277 6.56637V6.55092Z" fill="url(#paint5_linear_4607_10460)"/>
<path d="M18.7139 18.0138C18.6598 18.0576 18.5723 18.0653 18.5466 18.0653C18.3844 18.0653 18.2041 17.9726 18.0934 17.9134C17.6867 17.6971 17.2722 17.3109 17.0817 17.1229L16.5256 17.5555L18.9559 20.6709L19.512 20.2384L19.1747 19.8058C19.3395 19.8985 19.5686 20.0067 19.7978 20.0504C19.9806 20.0865 20.1093 20.071 20.1968 20.0453L21.067 21.1601L21.5716 20.7662L20.7014 19.6513C20.7349 19.6076 20.7684 19.5587 20.8018 19.502C20.807 19.4943 20.8096 19.4866 20.8147 19.4763C20.9666 19.1879 20.9537 18.7219 20.7529 18.1271C20.6216 17.7409 20.4208 17.3135 20.1556 16.8706C20.014 16.6363 19.8467 16.3866 19.7386 16.2347C19.6227 16.0725 19.4863 15.8948 19.4863 15.8948C19.4863 15.8948 19.4631 15.8665 19.4399 15.8356C18.4719 14.6048 17.6712 14.0744 17.6712 14.0744C17.5579 13.9998 17.2696 13.8144 16.9915 13.7578C16.8937 13.7372 16.8268 13.7397 16.8036 13.7423C16.7212 13.7475 16.4741 13.7629 16.4252 14.0281C16.4149 14.0822 16.4123 14.162 16.3531 14.2083C16.2218 14.3113 15.9437 14.1877 15.6579 13.9251C15.5524 13.8298 15.4468 13.714 15.3464 13.5852C15.3078 13.5363 15.2743 13.49 15.2409 13.4411C14.9397 13.0059 14.8264 12.5811 14.986 12.4549C15.0401 12.4112 15.1276 12.4034 15.1533 12.4034C15.3155 12.4034 15.4958 12.4961 15.6065 12.5553C16.0132 12.7716 16.4277 13.1578 16.6208 13.3458L17.1769 12.9132L14.7466 9.79779L14.1905 10.2303L14.5277 10.6629C14.363 10.5702 14.1338 10.4621 13.9047 10.4183C13.7219 10.3823 13.5932 10.3977 13.5057 10.4209L12.6355 9.30859L12.1309 9.70253L13.001 10.8148C12.9676 10.8586 12.9341 10.9075 12.9006 10.9642C12.8955 10.9719 12.8929 10.9796 12.8878 10.9899C12.7359 11.2783 12.7487 11.7443 12.9496 12.3391C13.0937 12.7613 13.3203 13.2351 13.6241 13.7217C13.7013 13.8479 13.8455 14.0667 13.9639 14.2315C14.0566 14.3602 14.2085 14.5611 14.2136 14.5636C14.2136 14.5636 14.2136 14.5636 14.2136 14.5662C14.9808 15.5626 15.6013 16.0699 15.6013 16.0699C15.6013 16.0699 15.9798 16.3814 16.3865 16.5848C16.4844 16.6337 16.6234 16.6878 16.7083 16.7058C16.7238 16.7084 16.7367 16.711 16.747 16.711C16.747 16.711 16.8268 16.7239 16.8963 16.7187C17.025 16.7136 17.267 16.6183 17.2773 16.4355C17.2773 16.4278 17.2773 16.4046 17.2825 16.3788C17.2928 16.3248 17.3134 16.2836 17.3494 16.2578C17.4807 16.1548 17.7588 16.2784 18.0445 16.5411C18.1501 16.6363 18.2556 16.7522 18.356 16.8809C18.3921 16.9273 18.4281 16.9762 18.4616 17.0225C18.7628 17.4602 18.8761 17.8825 18.7165 18.0087L18.7139 18.0138Z" fill="url(#paint6_linear_4607_10460)"/>
<path d="M18.9678 17.8157C18.9137 17.8595 18.8262 17.8672 18.8005 17.8672C18.6383 17.8672 18.4581 17.7745 18.3473 17.7153C17.9406 17.499 17.5261 17.1128 17.3356 16.9248L16.7795 17.3574L19.2098 20.4728L19.7659 20.0403L19.4286 19.6077C19.5934 19.7004 19.8225 19.8085 20.0517 19.8523C20.2345 19.8884 20.3632 19.8729 20.4507 19.8472L21.3209 20.962L21.8255 20.5681L20.9553 19.4532C20.9888 19.4095 21.0223 19.3605 21.0557 19.3039C21.0609 19.2962 21.0635 19.2885 21.0686 19.2782C21.2205 18.9898 21.2076 18.5238 21.0068 17.929C20.8755 17.5428 20.6747 17.1154 20.4095 16.6725C20.2679 16.4382 20.1006 16.1885 19.9925 16.0365C19.8766 15.8743 19.7402 15.6967 19.7402 15.6967C19.7402 15.6967 19.717 15.6684 19.6938 15.6375C18.7258 14.4067 17.9251 13.8763 17.9251 13.8763C17.8118 13.8017 17.5235 13.6163 17.2455 13.5596C17.1476 13.539 17.0807 13.5416 17.0575 13.5442C16.9751 13.5493 16.728 13.5648 16.6791 13.83C16.6688 13.8841 16.6662 13.9639 16.607 14.0102C16.4757 14.1132 16.1976 13.9896 15.9119 13.727C15.8063 13.6317 15.7007 13.5159 15.6003 13.3871C15.5617 13.3382 15.5283 13.2919 15.4948 13.243C15.1936 12.8078 15.0803 12.383 15.2399 12.2568C15.294 12.213 15.3815 12.2053 15.4072 12.2053C15.5694 12.2053 15.7497 12.298 15.8604 12.3572C16.2671 12.5735 16.6816 12.9597 16.8747 13.1477L17.4308 12.7151L15.0005 9.59968L14.4444 10.0322L14.7816 10.4648C14.6169 10.3721 14.3877 10.264 14.1586 10.2202C13.9758 10.1841 13.8471 10.1996 13.7596 10.2228L12.8894 9.10791L12.3848 9.50185L13.255 10.6141C13.2215 10.6579 13.188 10.7068 13.1545 10.7635C13.1494 10.7712 13.1468 10.7789 13.1417 10.7892C12.9898 11.0776 13.0026 11.5436 13.2035 12.1384C13.3476 12.5606 13.5742 13.0344 13.878 13.521C13.9552 13.6472 14.0994 13.866 14.2178 14.0308C14.3105 14.1596 14.4624 14.3604 14.4675 14.363C15.2348 15.3568 15.8552 15.8666 15.8552 15.8666C15.8552 15.8666 16.2337 16.1782 16.6404 16.3816C16.7383 16.4305 16.8773 16.4845 16.9623 16.5026C16.9777 16.5051 16.9906 16.5077 17.0009 16.5077C17.0009 16.5077 17.0807 16.5206 17.1502 16.5155C17.2789 16.5103 17.5209 16.415 17.5312 16.2322C17.5312 16.2245 17.5312 16.2013 17.5364 16.1756C17.5467 16.1215 17.5673 16.0803 17.6033 16.0546C17.7346 15.9516 18.0127 16.0752 18.2984 16.3378C18.404 16.4331 18.5095 16.5489 18.6099 16.6777C18.646 16.724 18.682 16.7729 18.7155 16.8193C19.0167 17.257 19.13 17.6792 18.9704 17.8054L18.9678 17.8157Z" fill="url(#paint7_linear_4607_10460)"/>
</g>
<defs>
<filter id="filter0_f_4607_10460" x="0" y="0" width="30.25" height="33.1572" filterUnits="userSpaceOnUse" color-interpolation-filters="sRGB">
<feFlood flood-opacity="0" result="BackgroundImageFix"/>
<feBlend mode="normal" in="SourceGraphic" in2="BackgroundImageFix" result="shape"/>
<feGaussianBlur stdDeviation="2" result="effect1_foregroundBlur_4607_10460"/>
</filter>
<linearGradient id="paint0_linear_4607_10460" x1="22.3239" y1="24.8065" x2="12.2831" y2="4.75718" gradientUnits="userSpaceOnUse">
<stop stop-color="#E5AC3A"/>
<stop offset="0.15" stop-color="#CD8D33"/>
<stop offset="0.32" stop-color="#E1A537"/>
<stop offset="0.53" stop-color="#C2741B"/>
<stop offset="0.72" stop-color="#D99B30"/>
<stop offset="0.88" stop-color="#C98022"/>
<stop offset="1" stop-color="#E0B25E"/>
</linearGradient>
<linearGradient id="paint1_linear_4607_10460" x1="25.2628" y1="27.0123" x2="8.15209" y2="2.22215" gradientUnits="userSpaceOnUse">
<stop stop-color="#FBF6A2"/>
<stop offset="0.17" stop-color="#F5DB68"/>
<stop offset="0.36" stop-color="#F3D64C"/>
<stop offset="0.49" stop-color="#F2D139"/>
<stop offset="0.65" stop-color="#F5DF7D"/>
<stop offset="0.86" stop-color="#F3D64C"/>
<stop offset="1" stop-color="#F9EF92"/>
</linearGradient>
<linearGradient id="paint2_linear_4607_10460" x1="21.3511" y1="24.8649" x2="11.7899" y2="5.77327" gradientUnits="userSpaceOnUse">
<stop stop-color="#EDCB4F"/>
<stop offset="0.5" stop-color="#E7B730"/>
<stop offset="1" stop-color="#EDCB4F"/>
</linearGradient>
<linearGradient id="paint3_linear_4607_10460" x1="2.02568" y1="9.39296" x2="20.3981" y2="29.4904" gradientUnits="userSpaceOnUse">
<stop stop-color="#D9A338"/>
<stop offset="0.15" stop-color="#BD822F"/>
<stop offset="0.32" stop-color="#D59E35"/>
<stop offset="0.53" stop-color="#A66518"/>
<stop offset="0.72" stop-color="#CD932E"/>
<stop offset="0.88" stop-color="#B4741F"/>
<stop offset="1" stop-color="#D3A759"/>
</linearGradient>
<linearGradient id="paint4_linear_4607_10460" x1="21.9602" y1="28.0492" x2="9.60425" y2="3.37724" gradientUnits="userSpaceOnUse">
<stop stop-color="#F0CD4F"/>
<stop offset="0.5" stop-color="#EABA31"/>
<stop offset="1" stop-color="#F0CD4F"/>
</linearGradient>
<linearGradient id="paint5_linear_4607_10460" x1="4.09247" y1="6.91468" x2="21.7928" y2="29.0392" gradientUnits="userSpaceOnUse">
<stop stop-color="#E5AC3A"/>
<stop offset="0.15" stop-color="#CD8D33"/>
<stop offset="0.32" stop-color="#E1A537"/>
<stop offset="0.53" stop-color="#C2741B"/>
<stop offset="0.72" stop-color="#D99B30"/>
<stop offset="0.88" stop-color="#C98022"/>
<stop offset="1" stop-color="#E0B25E"/>
</linearGradient>
<linearGradient id="paint6_linear_4607_10460" x1="25.057" y1="27.1803" x2="7.94397" y2="2.38736" gradientUnits="userSpaceOnUse">
<stop stop-color="#E5AC3A"/>
<stop offset="0.15" stop-color="#CD8D33"/>
<stop offset="0.32" stop-color="#E1A537"/>
<stop offset="0.53" stop-color="#C2741B"/>
<stop offset="0.72" stop-color="#D99B30"/>
<stop offset="0.88" stop-color="#C98022"/>
<stop offset="1" stop-color="#E0B25E"/>
</linearGradient>
<linearGradient id="paint7_linear_4607_10460" x1="25.3088" y1="26.9804" x2="8.19837" y2="2.18769" gradientUnits="userSpaceOnUse">
<stop stop-color="#FBF6A2"/>
<stop offset="0.17" stop-color="#F5DB68"/>
<stop offset="0.36" stop-color="#F3D64C"/>
<stop offset="0.49" stop-color="#F2D139"/>
<stop offset="0.65" stop-color="#F5DF7D"/>
<stop offset="0.86" stop-color="#F3D64C"/>
<stop offset="1" stop-color="#F9EF92"/>
</linearGradient>
</defs>
</svg>
