<svg width="1421" height="170" viewBox="0 0 1421 170" fill="none" xmlns="http://www.w3.org/2000/svg">
<path d="M1.78125 168C64.4827 166.181 123.597 161.602 185.051 152.128C233.046 144.73 287.292 134.965 324.843 110.784C350.683 94.1438 344.291 55.5242 308.607 48.0811C291.976 44.612 261.113 44.3018 260.726 61.4055C260.357 77.6758 293.707 83.2357 310.534 86.4865C342.505 92.6633 382.929 92.496 413.176 82.1757C490.031 55.9529 561.57 27.0429 645.428 12.8109C696.148 4.2029 745.096 1.83789 797.052 1.83789C843.025 1.83789 870.871 2.67286 915.713 10.6555C966.229 19.6482 1030.6 107.748 1082.71 110.784C1148.72 114.629 1214.92 33.7326 1281.09 33.5811C1326.2 33.4779 1373.04 87.0805 1418.71 82.1757" stroke="#AA56E3" stroke-width="3" stroke-linecap="round"/>
</svg>
