<svg width="41" height="108" viewBox="0 0 41 108" fill="none" xmlns="http://www.w3.org/2000/svg">
<path d="M29.1658 6.19057C25.5748 6.68546 22.0823 7.09782 18.1224 7.65046C18.6091 5.31481 20.1764 4.0852 21.8492 3.68919C26.8674 2.50114 31.9674 1.41214 37.116 0.785327C40.0593 0.414176 41.4006 2.64268 40.2412 5.37443C38.3661 9.96311 36.2288 14.4362 34.1735 19.0084C34.0583 19.2725 33.9349 19.6274 33.7463 19.7016C33.0736 20.0977 32.3274 20.304 31.5729 20.601C31.3606 19.9408 30.7877 19.2474 30.9278 18.711C31.373 16.8293 31.9901 15.0549 32.5171 13.2722C32.7889 12.2901 33.1426 11.407 32.8249 9.91312C31.6515 10.8126 30.388 11.7039 29.2146 12.6034C5.77745 32.2443 -1.70014 64.2417 10.3528 92.4443C11.93 96.0676 13.8927 99.4517 15.6586 103.001C16.2717 104.247 16.7946 105.485 17.4077 106.731C17.2025 106.987 16.9154 107.144 16.7101 107.4C15.9237 107.053 14.8501 106.863 14.3674 106.178C12.6571 104.007 10.9468 101.837 9.53195 99.4183C-4.63326 75.4164 -2.39444 44.0376 15.3336 21.2187C18.733 16.8612 22.894 13.1228 26.7109 9.1698C27.5153 8.32803 28.3933 7.6761 29.2796 6.93337C29.3864 6.76006 29.3212 6.47944 29.1658 6.19057Z" fill="#F41E92"/>
</svg>
