<svg width="58" height="66" viewBox="0 0 58 66" fill="none" xmlns="http://www.w3.org/2000/svg">
<path d="M7.58539 3.69336C6.22257 13.2081 4.77369 22.6942 3.23438 32.1765M38.2573 23.4096C29.1847 26.6289 21.5661 33.8944 13.7658 39.2571M22.4103 55.1049C33.0732 57.277 43.5777 59.6764 54.1053 62.3083" stroke="#F5851E" stroke-width="6" stroke-linecap="round"/>
</svg>
