<svg width="42" height="148" viewBox="0 0 42 148" fill="none" xmlns="http://www.w3.org/2000/svg">
<path d="M30.8849 26.3984C31.3959 30.6267 31.7142 34.9286 32.4363 39.1315C33.0193 42.3923 33.8616 45.6094 34.9928 48.7161C35.343 49.633 36.978 50.4462 38.1255 50.5609C39.9616 50.7444 41.3228 49.3951 41.4555 47.5751C41.5996 45.6401 41.3328 43.6409 40.9696 41.6784C39.0317 29.8118 37.8602 17.9289 41.1612 6.05211C42.1747 2.3475 39.7942 0.160226 36.2087 1.03184C26.2301 3.51557 16.2699 6.04753 6.30965 8.5795C3.79091 9.20963 0.805931 9.63077 0.781243 13.1789C0.732253 15.7964 3.54762 17.0988 7.90663 16.3741C13.3508 15.4562 18.7694 14.3269 25.1173 13.1744C24.5285 15.3898 24.356 16.6721 23.8987 17.7867C22.3114 21.434 20.5427 25.0399 18.8888 28.6573C7.99854 52.8874 6.53667 78.1062 11.5308 103.901C14.2058 117.697 18.5553 130.965 26.0354 143.038C26.5782 143.881 26.9948 144.828 27.5192 145.623C28.8046 147.399 30.5247 148.29 32.6439 147.481C34.7149 146.69 35.3561 144.178 34.113 141.501C33.3164 139.704 32.1643 137.988 31.3196 136.21C14.3155 101.51 11.0631 66.2592 26.8907 30.2462C27.5449 28.7799 28.3988 27.4032 29.138 26.015C29.7005 26.1873 30.2927 26.2928 30.8849 26.3984Z" fill="#F41E92"/>
</svg>
