<svg width="369" height="43" viewBox="0 0 369 43" fill="none" xmlns="http://www.w3.org/2000/svg">
<path d="M10.1971 11.868C10.0171 12.408 9.65708 12.954 9.11708 13.506C8.58908 14.046 7.91708 14.496 7.10108 14.856C6.29708 15.204 5.41508 15.378 4.45508 15.378C2.99108 15.378 1.91708 15.024 1.23308 14.316C0.549078 13.596 0.207078 12.678 0.207078 11.562C0.207078 9.978 0.561078 8.544 1.26908 7.26C1.97708 5.964 2.93108 4.95 4.13108 4.218C5.33108 3.474 6.62708 3.102 8.01908 3.102C8.57108 3.102 9.07508 3.228 9.53108 3.48C9.98708 3.732 10.3471 4.098 10.6111 4.578C10.8751 5.046 11.0071 5.598 11.0071 6.234C11.0071 6.594 10.8691 6.9 10.5931 7.152C10.3291 7.404 9.96908 7.53 9.51308 7.53C9.15308 7.53 8.90708 7.434 8.77508 7.242C8.65508 7.05 8.59508 6.804 8.59508 6.504L8.61308 5.928C8.61308 5.712 8.49308 5.502 8.25308 5.298C8.01308 5.094 7.79108 4.992 7.58708 4.992C6.91508 4.992 6.17708 5.298 5.37308 5.91C4.56908 6.51 3.89108 7.326 3.33908 8.358C2.78708 9.378 2.51108 10.488 2.51108 11.688C2.51108 12.24 2.72708 12.69 3.15908 13.038C3.59108 13.386 4.13708 13.56 4.79708 13.56C5.01308 13.56 5.29508 13.488 5.64308 13.344C5.99108 13.2 6.30908 13.02 6.59708 12.804C6.89708 12.588 7.09508 12.378 7.19108 12.174C7.33508 11.874 7.53908 11.538 7.80308 11.166C8.06708 10.794 8.33108 10.608 8.59508 10.608C9.20708 10.608 9.62108 10.74 9.83708 11.004C10.0651 11.268 10.1851 11.556 10.1971 11.868ZM14.3015 9.06C14.5775 8.52 14.9555 8.058 15.4355 7.674C15.9275 7.29 16.4255 6.996 16.9295 6.792C17.4335 6.588 17.8475 6.486 18.1715 6.486C18.7955 6.486 19.2455 6.606 19.5215 6.846C19.7975 7.074 19.9355 7.44 19.9355 7.944C19.2275 9.792 18.7595 11.784 18.5315 13.92L18.7835 14.802C18.6395 15.078 18.4475 15.294 18.2075 15.45C17.9675 15.618 17.6015 15.702 17.1095 15.702C16.8215 15.702 16.6115 15.606 16.4795 15.414C16.3475 15.222 16.2815 14.982 16.2815 14.694C16.2815 13.89 16.3955 13.008 16.6235 12.048C16.8635 11.076 17.1395 10.086 17.4515 9.078C17.5715 8.694 17.6315 8.496 17.6315 8.484C17.6315 8.316 17.5355 8.232 17.3435 8.232C17.0915 8.232 16.7255 8.418 16.2455 8.79C15.7655 9.162 15.2675 9.792 14.7515 10.68C14.2355 11.556 13.8035 12.708 13.4555 14.136C13.4435 14.196 13.4135 14.322 13.3655 14.514C13.3175 14.706 13.2095 14.844 13.0415 14.928C12.8735 15.012 12.6155 15.054 12.2675 15.054C11.8475 15.054 11.5235 15.012 11.2955 14.928C11.0675 14.832 10.9535 14.652 10.9535 14.388C12.5255 8.208 13.4975 4.344 13.8695 2.796C13.8575 2.64 13.8455 2.436 13.8335 2.184C13.8335 1.92 13.8335 1.716 13.8335 1.572C13.8695 1.404 13.9955 1.278 14.2115 1.194C14.4395 1.098 14.6675 1.05 14.8955 1.05C15.2795 1.05 15.6035 1.152 15.8675 1.356C16.1315 1.56 16.2755 1.818 16.2995 2.13L14.3015 9.06ZM25.649 4.47C25.817 4.218 26.135 3.864 26.603 3.408C27.083 2.952 27.551 2.55 28.007 2.202C28.475 1.842 28.775 1.662 28.907 1.662C29.159 1.662 29.447 1.776 29.771 2.004C30.095 2.232 30.257 2.442 30.257 2.634C30.257 2.79 30.173 2.946 30.005 3.102C29.837 3.258 29.495 3.516 28.979 3.876C28.247 4.392 27.689 4.752 27.305 4.956C26.921 5.148 26.573 5.244 26.261 5.244C26.033 5.244 25.865 5.202 25.757 5.118C25.649 5.034 25.595 4.89 25.595 4.686C25.595 4.59 25.613 4.518 25.649 4.47ZM28.169 14.946C28.121 15.15 28.013 15.288 27.845 15.36C27.677 15.444 27.455 15.486 27.179 15.486C26.351 15.486 25.937 15.3 25.937 14.928L26.045 14.244C25.709 14.496 25.313 14.748 24.857 15C24.401 15.252 24.023 15.378 23.723 15.378C21.947 15.378 21.059 14.796 21.059 13.632C21.059 11.652 21.653 9.504 22.841 7.188C22.985 6.912 23.135 6.714 23.291 6.594C23.459 6.474 23.741 6.414 24.137 6.414C24.557 6.414 24.869 6.474 25.073 6.594C25.289 6.702 25.397 6.834 25.397 6.99C25.397 7.026 25.331 7.134 25.199 7.314C25.067 7.47 24.953 7.626 24.857 7.782C23.729 9.666 23.165 11.502 23.165 13.29C23.165 13.446 23.225 13.584 23.345 13.704C23.465 13.824 23.573 13.884 23.669 13.884C23.933 13.884 24.377 13.758 25.001 13.506C25.637 13.254 26.123 12.996 26.459 12.732L26.819 11.274C27.251 9.534 27.521 8.466 27.629 8.07C27.761 7.59 27.929 7.2 28.133 6.9C28.349 6.588 28.685 6.432 29.141 6.432C29.777 6.432 30.095 6.624 30.095 7.008C30.095 7.068 30.077 7.146 30.041 7.242C30.017 7.326 29.999 7.398 29.987 7.458L29.267 10.374C28.691 12.69 28.325 14.214 28.169 14.946ZM32.5093 6.27C33.0973 5.97 33.5653 5.82 33.9133 5.82C34.3213 5.82 34.5493 6.03 34.5973 6.45L34.0033 8.664C34.2553 8.316 34.6273 7.974 35.1193 7.638C35.6113 7.302 36.1033 7.026 36.5953 6.81C37.0993 6.594 37.5013 6.486 37.8013 6.486C38.4373 6.486 38.8993 6.606 39.1873 6.846C39.4753 7.074 39.6193 7.44 39.6193 7.944C39.4993 8.616 39.3193 9.426 39.0793 10.374C38.8393 11.31 38.6893 11.904 38.6293 12.156C38.3653 13.14 38.1793 13.878 38.0713 14.37C37.9993 14.67 37.9273 14.88 37.8553 15C37.7953 15.108 37.6813 15.186 37.5133 15.234C37.3573 15.282 37.0813 15.306 36.6853 15.306C36.4693 15.306 36.2653 15.27 36.0733 15.198C35.8933 15.126 35.8033 15.006 35.8033 14.838C35.8393 14.442 35.9593 13.836 36.1633 13.02C36.3793 12.192 36.6673 11.124 37.0273 9.816C37.2673 9 37.3873 8.556 37.3873 8.484C37.3873 8.316 37.2913 8.232 37.0993 8.232C36.8233 8.232 36.4093 8.424 35.8573 8.808C35.3053 9.18 34.7353 9.81 34.1473 10.698C33.5593 11.574 33.0973 12.72 32.7613 14.136C32.7373 14.208 32.7073 14.34 32.6713 14.532C32.6353 14.724 32.5393 14.862 32.3833 14.946C32.2273 15.018 31.9753 15.054 31.6273 15.054C31.2313 15.054 30.9373 15.012 30.7453 14.928C30.5653 14.844 30.4753 14.664 30.4753 14.388L30.6733 13.614C31.3813 10.842 31.9933 8.394 32.5093 6.27ZM45.0925 14.406C44.2045 15.006 43.3585 15.306 42.5545 15.306C42.0625 15.306 41.6245 15.15 41.2405 14.838C40.8565 14.514 40.5565 14.112 40.3405 13.632C40.1365 13.14 40.0345 12.666 40.0345 12.21C40.0345 11.55 40.2325 10.8 40.6285 9.96C41.0245 9.108 41.6125 8.382 42.3925 7.782C43.1725 7.17 44.1025 6.864 45.1825 6.864C45.9625 6.864 46.6885 7.002 47.3605 7.278C48.0445 7.542 48.3865 7.992 48.3865 8.628C48.3865 8.784 48.3745 8.904 48.3505 8.988C48.1825 9.768 48.0385 10.458 47.9185 11.058C47.5225 12.918 47.2045 14.328 46.9645 15.288C46.7005 16.32 46.3285 17.112 45.8485 17.664C45.3805 18.228 44.8405 18.606 44.2285 18.798C43.6285 18.99 42.9205 19.086 42.1045 19.086C41.7925 19.086 41.4445 19.014 41.0605 18.87C40.6885 18.738 40.3705 18.552 40.1065 18.312C39.8425 18.072 39.7105 17.814 39.7105 17.538C39.7105 17.274 39.7825 17.064 39.9265 16.908C40.0585 16.752 40.2625 16.674 40.5385 16.674C40.6585 16.674 40.7965 16.764 40.9525 16.944C41.1445 17.148 41.3425 17.304 41.5465 17.412C41.7625 17.532 42.0745 17.592 42.4825 17.592C43.1425 17.592 43.7065 17.316 44.1745 16.764C44.6425 16.212 44.9485 15.426 45.0925 14.406ZM45.4525 12.714C45.4885 12.486 45.6385 11.856 45.9025 10.824C45.9625 10.608 46.0405 10.32 46.1365 9.96C46.2325 9.588 46.3105 9.264 46.3705 8.988C46.3105 8.748 46.1605 8.586 45.9205 8.502C45.6925 8.418 45.4765 8.376 45.2725 8.376C44.7925 8.376 44.3065 8.586 43.8145 9.006C43.3345 9.426 42.9385 9.942 42.6265 10.554C42.3145 11.154 42.1585 11.694 42.1585 12.174C42.1585 12.45 42.2365 12.768 42.3925 13.128C42.5485 13.476 42.7105 13.65 42.8785 13.65C43.1545 13.65 43.5925 13.548 44.1925 13.344C44.7925 13.128 45.2125 12.918 45.4525 12.714ZM56.7501 13.02C56.7501 13.296 56.8221 13.518 56.9661 13.686C57.1101 13.842 57.3141 13.92 57.5781 13.92C57.9381 13.92 58.2321 13.818 58.4601 13.614C58.7001 13.398 58.9521 13.098 59.2161 12.714C59.4081 12.438 59.5641 12.24 59.6841 12.12C59.8041 12 59.9421 11.94 60.0981 11.94C60.4101 11.94 60.6321 11.982 60.7641 12.066C60.8961 12.138 60.9621 12.294 60.9621 12.534C60.9621 12.642 60.9501 12.774 60.9261 12.93C60.9021 13.074 60.8721 13.182 60.8361 13.254C60.5481 13.866 60.0741 14.394 59.4141 14.838C58.7661 15.282 58.0281 15.504 57.2001 15.504C56.3721 15.504 55.7481 15.306 55.3281 14.91C54.9081 14.502 54.6981 13.926 54.6981 13.182C54.6981 13.074 54.7521 12.792 54.8601 12.336C54.9681 11.88 55.1061 11.334 55.2741 10.698L55.7781 8.646L54.6801 8.736C54.5361 8.736 54.4281 8.682 54.3561 8.574C54.2841 8.466 54.2481 8.334 54.2481 8.178C54.2481 7.878 54.3561 7.578 54.5721 7.278C54.5961 7.242 54.7161 7.206 54.9321 7.17C55.1481 7.134 55.4121 7.098 55.7241 7.062L56.2101 7.008L56.8221 4.38C56.9421 4.068 57.1221 3.828 57.3621 3.66C57.6141 3.48 57.8481 3.39 58.0641 3.39C58.3041 3.39 58.5081 3.462 58.6761 3.606C58.8441 3.75 58.9341 3.918 58.9461 4.11L58.2981 6.81C58.7661 6.75 59.1981 6.702 59.5941 6.666C60.0021 6.618 60.3201 6.594 60.5481 6.594C61.0041 6.594 61.2321 6.858 61.2321 7.386C61.2321 7.59 61.1421 7.776 60.9621 7.944C60.7941 8.1 60.6081 8.196 60.4041 8.232L57.8841 8.484L56.7501 13.02ZM68.3696 1.896C68.6096 1.896 68.8196 1.956 68.9996 2.076C69.1916 2.184 69.4256 2.418 69.7016 2.778L70.6196 3.966C70.7396 4.122 70.7996 4.272 70.7996 4.416C70.7996 4.608 70.7036 4.776 70.5116 4.92C70.3316 5.052 70.1156 5.118 69.8636 5.118C69.6236 5.118 69.3956 4.992 69.1796 4.74L68.1896 3.552C67.4696 4.176 66.9356 4.614 66.5876 4.866C66.2516 5.118 66.0056 5.244 65.8496 5.244C65.6096 5.244 65.3936 5.19 65.2016 5.082C65.0216 4.974 64.9316 4.83 64.9316 4.65C64.9316 4.518 64.9496 4.398 64.9856 4.29C65.0336 4.182 65.1416 4.062 65.3096 3.93L65.7056 3.606C66.6056 2.862 67.2236 2.364 67.5596 2.112C67.7396 1.968 68.0096 1.896 68.3696 1.896ZM65.4176 15.378C64.3616 15.378 63.5396 15.018 62.9516 14.298C62.3636 13.578 62.0696 12.66 62.0696 11.544C62.0696 10.608 62.2916 9.726 62.7356 8.898C63.1916 8.07 63.8096 7.404 64.5896 6.9C65.3696 6.396 66.2276 6.144 67.1636 6.144C68.0876 6.144 68.8436 6.45 69.4316 7.062C70.0316 7.662 70.3316 8.55 70.3316 9.726C70.3316 10.554 70.1036 11.412 69.6476 12.3C69.1916 13.188 68.5796 13.926 67.8116 14.514C67.0556 15.09 66.2576 15.378 65.4176 15.378ZM65.6876 13.938C66.0716 13.938 66.4556 13.698 66.8396 13.218C67.2356 12.738 67.5596 12.132 67.8116 11.4C68.0636 10.668 68.1896 9.954 68.1896 9.258C68.1896 8.19 67.7456 7.656 66.8576 7.656C66.3656 7.656 65.9156 7.89 65.5076 8.358C65.0996 8.826 64.7756 9.408 64.5356 10.104C64.2956 10.788 64.1756 11.43 64.1756 12.03C64.1756 12.378 64.2536 12.702 64.4096 13.002C64.5656 13.29 64.7576 13.518 64.9856 13.686C65.2256 13.854 65.4596 13.938 65.6876 13.938ZM73.1722 4.308C73.1722 3.936 73.2862 3.606 73.5142 3.318C73.7542 3.03 74.0842 2.886 74.5042 2.886C74.9482 2.886 75.3322 3.024 75.6562 3.3C75.9922 3.576 76.1602 3.888 76.1602 4.236C76.1602 4.584 75.9922 4.884 75.6562 5.136C75.3202 5.388 74.9302 5.514 74.4862 5.514C74.0542 5.514 73.7242 5.406 73.4962 5.19C73.2802 4.962 73.1722 4.668 73.1722 4.308ZM75.0622 7.494C74.4262 10.086 73.9402 12.036 73.6042 13.344C73.5562 13.536 73.5322 13.746 73.5322 13.974L73.5502 14.478C73.5502 14.682 73.4842 14.826 73.3522 14.91C73.2322 14.994 72.9682 15.042 72.5602 15.054C72.1642 15.054 71.8642 15.012 71.6602 14.928C71.4562 14.844 71.3542 14.664 71.3542 14.388C71.3542 14.256 71.5042 13.554 71.8042 12.282C72.1162 11.01 72.5362 9.354 73.0642 7.314L72.6502 6.774C72.6142 6.738 72.5962 6.696 72.5962 6.648C72.5962 6.528 72.7282 6.432 72.9922 6.36C73.2562 6.276 73.6222 6.234 74.0902 6.234C74.4982 6.234 74.7562 6.354 74.8642 6.594C74.9842 6.822 75.0502 7.122 75.0622 7.494ZM83.7226 9.078C83.7226 9.318 83.8306 9.51 84.0466 9.654C84.2626 9.798 84.6046 9.96 85.0726 10.14C85.5766 10.344 85.9846 10.536 86.2966 10.716C86.6086 10.896 86.8786 11.16 87.1066 11.508C87.3466 11.844 87.4666 12.276 87.4666 12.804C87.4666 13.668 87.1066 14.334 86.3866 14.802C85.6786 15.258 84.7246 15.486 83.5246 15.486C82.9366 15.486 82.3846 15.39 81.8686 15.198C81.3646 15.018 80.9626 14.79 80.6626 14.514C80.3626 14.238 80.2126 13.962 80.2126 13.686C80.2126 13.398 80.3386 13.164 80.5906 12.984C80.8426 12.792 81.1966 12.666 81.6526 12.606C81.6646 12.846 81.7906 13.074 82.0306 13.29C82.2706 13.494 82.5526 13.662 82.8766 13.794C83.2126 13.914 83.5006 13.974 83.7406 13.974C84.1486 13.974 84.5206 13.866 84.8566 13.65C85.1926 13.422 85.3606 13.158 85.3606 12.858C85.3606 12.306 84.8266 11.868 83.7586 11.544C83.0746 11.34 82.5466 11.016 82.1746 10.572C81.8146 10.128 81.6346 9.66 81.6346 9.168C81.6346 8.304 81.9886 7.638 82.6966 7.17C83.4166 6.702 84.3766 6.468 85.5766 6.468C86.1646 6.468 86.6866 6.558 87.1426 6.738C87.6106 6.918 87.9706 7.152 88.2226 7.44C88.4746 7.716 88.6006 7.992 88.6006 8.268C88.6006 8.556 88.4746 8.796 88.2226 8.988C87.9706 9.168 87.6166 9.288 87.1606 9.348C87.1486 9.108 87.0406 8.886 86.8366 8.682C86.6446 8.466 86.4106 8.298 86.1346 8.178C85.8586 8.046 85.6006 7.98 85.3606 7.98C84.9526 7.98 84.5746 8.088 84.2266 8.304C83.8906 8.52 83.7226 8.778 83.7226 9.078ZM93.8919 4.326C93.4959 4.326 92.9739 4.68 92.3259 5.388C92.1819 5.304 92.0799 5.202 92.0199 5.082C91.9599 4.95 91.9299 4.728 91.9299 4.416C91.9299 4.176 92.0559 3.924 92.3079 3.66C92.5599 3.396 92.8599 3.18 93.2079 3.012C93.5679 2.832 93.8919 2.742 94.1799 2.742C94.7079 2.742 95.2479 2.952 95.7999 3.372C96.0279 3.552 96.2319 3.678 96.4119 3.75C96.5919 3.822 96.7839 3.858 96.9879 3.858C97.1319 3.858 97.2639 3.822 97.3839 3.75C97.5039 3.666 97.6239 3.57 97.7439 3.462C97.8639 3.342 97.9539 3.252 98.0139 3.192C98.0619 3.144 98.1159 3.12 98.1759 3.12C98.2239 3.12 98.2719 3.15 98.3199 3.21C98.3679 3.27 98.3979 3.3 98.4099 3.3C98.4339 3.3 98.4459 3.354 98.4459 3.462C98.4459 3.798 98.3319 4.116 98.1039 4.416C97.8759 4.704 97.6119 4.938 97.3119 5.118C97.0119 5.298 96.7719 5.388 96.5919 5.388C96.3159 5.388 96.0639 5.346 95.8359 5.262C95.6199 5.166 95.3559 5.016 95.0439 4.812C94.8159 4.632 94.6119 4.506 94.4319 4.434C94.2639 4.362 94.0839 4.326 93.8919 4.326ZM92.3079 15.378C91.1319 15.378 90.2739 15.144 89.7339 14.676C89.1939 14.208 88.9239 13.584 88.9239 12.804C88.9239 11.664 89.2059 10.608 89.7699 9.636C90.3459 8.664 91.1079 7.896 92.0559 7.332C93.0159 6.756 94.0479 6.468 95.1519 6.468C95.8239 6.468 96.3879 6.66 96.8439 7.044C97.2999 7.416 97.5279 7.968 97.5279 8.7C97.5279 9.12 97.3899 9.468 97.1139 9.744C96.8499 10.008 96.4659 10.248 95.9619 10.464C95.4579 10.668 94.6419 10.962 93.5139 11.346C92.4939 11.682 91.6659 11.964 91.0299 12.192C90.9819 12.372 90.9579 12.558 90.9579 12.75C90.9579 13.086 91.0959 13.344 91.3719 13.524C91.6599 13.704 92.0619 13.794 92.5779 13.794C92.9019 13.794 93.2739 13.728 93.6939 13.596C94.1139 13.464 94.3779 13.296 94.4859 13.092C94.8939 12.348 95.2659 11.976 95.6019 11.976C96.0939 11.976 96.4239 12.072 96.5919 12.264C96.7719 12.444 96.8679 12.648 96.8799 12.876C96.7359 13.26 96.4539 13.65 96.0339 14.046C95.6139 14.43 95.0799 14.748 94.4319 15C93.7839 15.252 93.0759 15.378 92.3079 15.378ZM91.5339 10.536C92.7219 10.152 93.6999 9.798 94.4679 9.474C95.2359 9.138 95.6199 8.808 95.6199 8.484C95.6199 8.34 95.5419 8.226 95.3859 8.142C95.2299 8.046 95.0619 7.998 94.8819 7.998C94.5219 7.998 94.1079 8.136 93.6399 8.412C93.1839 8.688 92.7579 9.024 92.3619 9.42C91.9659 9.816 91.6899 10.188 91.5339 10.536ZM105.708 1.608C105.792 1.224 105.93 0.942 106.122 0.762C106.326 0.569999 106.548 0.473999 106.788 0.473999C107.076 0.473999 107.334 0.575999 107.562 0.78C107.802 0.983999 107.928 1.224 107.94 1.5C107.94 1.572 107.928 1.668 107.904 1.788L104.736 14.64C104.556 15.144 104.31 15.396 103.998 15.396C103.746 15.396 103.518 15.24 103.314 14.928C103.122 14.616 103.026 14.262 103.026 13.866C103.026 13.71 103.044 13.554 103.08 13.398L105.708 1.608ZM115.197 4.47C115.233 4.518 115.251 4.59 115.251 4.686C115.251 4.89 115.197 5.034 115.089 5.118C114.981 5.202 114.813 5.244 114.585 5.244C114.273 5.244 113.925 5.148 113.541 4.956C113.157 4.752 112.599 4.392 111.867 3.876C111.351 3.516 111.009 3.258 110.841 3.102C110.673 2.946 110.589 2.79 110.589 2.634C110.589 2.442 110.751 2.232 111.075 2.004C111.399 1.776 111.687 1.662 111.939 1.662C112.071 1.662 112.365 1.842 112.821 2.202C113.289 2.55 113.757 2.952 114.225 3.408C114.705 3.864 115.029 4.218 115.197 4.47ZM114.963 14.064C114.987 14.376 115.029 14.658 115.089 14.91C115.065 14.982 114.957 15.054 114.765 15.126C114.585 15.198 114.429 15.234 114.297 15.234C113.865 15.234 113.553 15.168 113.361 15.036C113.181 14.916 113.091 14.73 113.091 14.478C113.091 14.238 113.115 13.998 113.163 13.758C112.899 14.118 112.509 14.418 111.993 14.658C111.489 14.886 111.081 15 110.769 15C109.965 15 109.293 14.766 108.753 14.298C108.225 13.83 107.961 13.08 107.961 12.048C107.961 11.076 108.189 10.164 108.645 9.312C109.113 8.448 109.755 7.758 110.571 7.242C111.387 6.714 112.293 6.45 113.289 6.45C113.481 6.45 113.733 6.504 114.045 6.612C114.357 6.708 114.669 6.882 114.981 7.134C115.305 7.374 115.575 7.686 115.791 8.07C115.887 8.07 116.001 8.118 116.133 8.214C116.265 8.31 116.331 8.406 116.331 8.502C116.331 8.61 116.313 8.718 116.277 8.826L114.963 14.064ZM114.153 9.024C114.081 8.76 113.937 8.538 113.721 8.358C113.517 8.178 113.331 8.088 113.163 8.088C112.611 8.088 112.089 8.286 111.597 8.682C111.117 9.066 110.727 9.546 110.427 10.122C110.127 10.698 109.977 11.244 109.977 11.76C109.977 12.264 110.037 12.678 110.157 13.002C110.277 13.326 110.511 13.488 110.859 13.488C111.159 13.488 111.501 13.398 111.885 13.218C112.281 13.038 112.629 12.798 112.929 12.498C113.241 12.186 113.445 11.862 113.541 11.526L114.153 9.024ZM129.646 12.876C129.502 13.26 129.22 13.65 128.8 14.046C128.38 14.43 127.846 14.748 127.198 15C126.55 15.252 125.842 15.378 125.074 15.378C123.898 15.378 123.028 15.138 122.464 14.658C121.9 14.166 121.618 13.53 121.618 12.75C121.618 11.622 121.906 10.578 122.482 9.618C123.058 8.646 123.832 7.878 124.804 7.314C125.776 6.75 126.814 6.468 127.918 6.468C128.602 6.468 129.166 6.672 129.61 7.08C130.066 7.476 130.294 8.016 130.294 8.7C130.294 8.964 130.186 9.186 129.97 9.366C129.754 9.534 129.466 9.618 129.106 9.618C128.818 9.618 128.62 9.552 128.512 9.42C128.416 9.288 128.368 9.114 128.368 8.898L128.386 8.484C128.386 8.34 128.308 8.226 128.152 8.142C127.996 8.046 127.828 7.998 127.648 7.998C127.276 7.998 126.772 8.22 126.136 8.664C125.512 9.108 124.96 9.696 124.48 10.428C124.012 11.148 123.778 11.922 123.778 12.75C123.778 13.086 123.91 13.344 124.174 13.524C124.438 13.704 124.828 13.794 125.344 13.794C125.668 13.794 126.04 13.728 126.46 13.596C126.88 13.464 127.144 13.296 127.252 13.092C127.66 12.348 128.032 11.976 128.368 11.976C128.86 11.976 129.19 12.072 129.358 12.264C129.538 12.444 129.634 12.648 129.646 12.876ZM134.38 2.508C134.404 2.556 134.416 2.604 134.416 2.652C134.416 2.796 134.38 2.898 134.308 2.958C134.236 3.018 134.116 3.048 133.948 3.048C133.792 3.048 133.636 3.006 133.48 2.922C133.336 2.838 133.12 2.688 132.832 2.472L132.22 2.04C131.86 1.8 131.62 1.626 131.5 1.518C131.38 1.398 131.32 1.284 131.32 1.176C131.32 1.056 131.494 0.917999 131.842 0.762C132.202 0.593999 132.478 0.509999 132.67 0.509999C132.802 0.509999 133.048 0.737999 133.408 1.194C133.78 1.65 134.104 2.088 134.38 2.508ZM137.08 2.022C137.32 2.022 137.53 2.082 137.71 2.202C137.902 2.31 138.136 2.544 138.412 2.904L139.33 4.092C139.45 4.248 139.51 4.398 139.51 4.542C139.51 4.734 139.414 4.902 139.222 5.046C139.042 5.178 138.826 5.244 138.574 5.244C138.334 5.244 138.106 5.118 137.89 4.866L136.9 3.678C136.18 4.302 135.646 4.74 135.298 4.992C134.962 5.244 134.716 5.37 134.56 5.37C134.32 5.37 134.104 5.316 133.912 5.208C133.732 5.1 133.642 4.956 133.642 4.776C133.642 4.644 133.66 4.524 133.696 4.416C133.744 4.308 133.852 4.188 134.02 4.056L134.416 3.732C135.316 2.988 135.934 2.49 136.27 2.238C136.45 2.094 136.72 2.022 137.08 2.022ZM137.656 14.064C137.68 14.376 137.722 14.658 137.782 14.91C137.758 14.982 137.65 15.054 137.458 15.126C137.278 15.198 137.122 15.234 136.99 15.234C136.558 15.234 136.246 15.168 136.054 15.036C135.874 14.916 135.784 14.73 135.784 14.478C135.784 14.238 135.808 13.998 135.856 13.758C135.592 14.118 135.202 14.418 134.686 14.658C134.182 14.886 133.774 15 133.462 15C132.658 15 131.986 14.766 131.446 14.298C130.918 13.83 130.654 13.08 130.654 12.048C130.654 11.076 130.882 10.164 131.338 9.312C131.806 8.448 132.448 7.758 133.264 7.242C134.08 6.714 134.986 6.45 135.982 6.45C136.174 6.45 136.426 6.504 136.738 6.612C137.05 6.708 137.362 6.882 137.674 7.134C137.998 7.374 138.268 7.686 138.484 8.07C138.58 8.07 138.694 8.118 138.826 8.214C138.958 8.31 139.024 8.406 139.024 8.502C139.024 8.61 139.006 8.718 138.97 8.826L137.656 14.064ZM136.846 9.024C136.774 8.76 136.63 8.538 136.414 8.358C136.21 8.178 136.024 8.088 135.856 8.088C135.304 8.088 134.782 8.286 134.29 8.682C133.81 9.066 133.42 9.546 133.12 10.122C132.82 10.698 132.67 11.244 132.67 11.76C132.67 12.264 132.73 12.678 132.85 13.002C132.97 13.326 133.204 13.488 133.552 13.488C133.852 13.488 134.194 13.398 134.578 13.218C134.974 13.038 135.322 12.798 135.622 12.498C135.934 12.186 136.138 11.862 136.234 11.526L136.846 9.024ZM146.997 14.946C146.949 15.15 146.841 15.288 146.673 15.36C146.505 15.444 146.283 15.486 146.007 15.486C145.179 15.486 144.765 15.3 144.765 14.928L144.873 14.244C144.537 14.496 144.141 14.748 143.685 15C143.229 15.252 142.851 15.378 142.551 15.378C140.775 15.378 139.887 14.796 139.887 13.632C139.887 11.652 140.481 9.504 141.669 7.188C141.813 6.912 141.963 6.714 142.119 6.594C142.287 6.474 142.569 6.414 142.965 6.414C143.385 6.414 143.697 6.474 143.901 6.594C144.117 6.702 144.225 6.834 144.225 6.99C144.225 7.026 144.159 7.134 144.027 7.314C143.895 7.47 143.781 7.626 143.685 7.782C142.557 9.666 141.993 11.502 141.993 13.29C141.993 13.446 142.053 13.584 142.173 13.704C142.293 13.824 142.401 13.884 142.497 13.884C142.761 13.884 143.205 13.758 143.829 13.506C144.465 13.254 144.951 12.996 145.287 12.732L145.647 11.274C146.079 9.534 146.349 8.466 146.457 8.07C146.589 7.59 146.757 7.2 146.961 6.9C147.177 6.588 147.513 6.432 147.969 6.432C148.605 6.432 148.923 6.624 148.923 7.008C148.923 7.068 148.905 7.146 148.869 7.242C148.845 7.326 148.827 7.398 148.815 7.458L148.095 10.374C147.519 12.69 147.153 14.214 146.997 14.946ZM155.275 6.774C155.239 6.738 155.221 6.696 155.221 6.648C155.221 6.528 155.353 6.432 155.617 6.36C155.881 6.276 156.247 6.234 156.715 6.234C157.147 6.234 157.465 6.348 157.669 6.576C157.873 6.792 157.993 7.056 158.029 7.368L157.705 8.538C157.957 8.19 158.311 7.86 158.767 7.548C159.223 7.224 159.685 6.966 160.153 6.774C160.621 6.582 161.005 6.486 161.305 6.486C161.941 6.486 162.403 6.606 162.691 6.846C162.979 7.074 163.123 7.44 163.123 7.944C162.415 9.792 161.947 11.784 161.719 13.92L161.971 14.802C161.827 15.078 161.623 15.294 161.359 15.45C161.107 15.618 160.735 15.702 160.243 15.702C159.955 15.702 159.745 15.606 159.613 15.414C159.481 15.222 159.415 14.982 159.415 14.694C159.415 13.89 159.529 13.008 159.757 12.048C159.997 11.076 160.273 10.086 160.585 9.078C160.705 8.694 160.765 8.496 160.765 8.484C160.765 8.316 160.669 8.232 160.477 8.232C160.213 8.232 159.811 8.418 159.271 8.79C158.743 9.162 158.197 9.792 157.633 10.68C157.069 11.556 156.613 12.708 156.265 14.136C156.241 14.208 156.211 14.34 156.175 14.532C156.139 14.724 156.043 14.862 155.887 14.946C155.731 15.018 155.479 15.054 155.131 15.054C154.735 15.054 154.441 15.012 154.249 14.928C154.069 14.844 153.979 14.664 153.979 14.388C154.015 14.22 154.069 14.016 154.141 13.776C154.837 10.98 155.371 8.826 155.743 7.314L155.275 6.774ZM172.034 2.508C172.31 2.088 172.628 1.65 172.988 1.194C173.36 0.737999 173.612 0.509999 173.744 0.509999C173.936 0.509999 174.206 0.593999 174.554 0.762C174.914 0.917999 175.094 1.056 175.094 1.176C175.094 1.284 175.034 1.398 174.914 1.518C174.794 1.626 174.554 1.8 174.194 2.04L173.582 2.472C173.294 2.688 173.072 2.838 172.916 2.922C172.772 3.006 172.622 3.048 172.466 3.048C172.298 3.048 172.178 3.018 172.106 2.958C172.034 2.898 171.998 2.796 171.998 2.652C171.998 2.604 172.01 2.556 172.034 2.508ZM170.144 2.022C170.384 2.022 170.594 2.082 170.774 2.202C170.966 2.31 171.2 2.544 171.476 2.904L172.394 4.092C172.514 4.248 172.574 4.398 172.574 4.542C172.574 4.734 172.478 4.902 172.286 5.046C172.106 5.178 171.89 5.244 171.638 5.244C171.398 5.244 171.17 5.118 170.954 4.866L169.964 3.678C169.244 4.302 168.71 4.74 168.362 4.992C168.026 5.244 167.78 5.37 167.624 5.37C167.384 5.37 167.168 5.316 166.976 5.208C166.796 5.1 166.706 4.956 166.706 4.776C166.706 4.644 166.724 4.524 166.76 4.416C166.808 4.308 166.916 4.188 167.084 4.056L167.48 3.732C168.38 2.988 168.998 2.49 169.334 2.238C169.514 2.094 169.784 2.022 170.144 2.022ZM167.3 15.378C166.244 15.378 165.422 15.018 164.834 14.298C164.246 13.578 163.952 12.66 163.952 11.544C163.952 10.608 164.174 9.726 164.618 8.898C165.074 8.07 165.692 7.404 166.472 6.9C167.252 6.396 168.11 6.144 169.046 6.144C169.97 6.144 170.726 6.45 171.314 7.062C171.914 7.662 172.214 8.55 172.214 9.726C172.214 10.554 171.986 11.412 171.53 12.3C171.074 13.188 170.462 13.926 169.694 14.514C168.938 15.09 168.14 15.378 167.3 15.378ZM167.57 13.938C167.954 13.938 168.338 13.698 168.722 13.218C169.118 12.738 169.442 12.132 169.694 11.4C169.946 10.668 170.072 9.954 170.072 9.258C170.072 8.19 169.628 7.656 168.74 7.656C168.248 7.656 167.798 7.89 167.39 8.358C166.982 8.826 166.658 9.408 166.418 10.104C166.178 10.788 166.058 11.43 166.058 12.03C166.058 12.378 166.136 12.702 166.292 13.002C166.448 13.29 166.64 13.518 166.868 13.686C167.108 13.854 167.342 13.938 167.57 13.938ZM175.055 4.308C175.055 3.936 175.169 3.606 175.397 3.318C175.637 3.03 175.967 2.886 176.387 2.886C176.831 2.886 177.215 3.024 177.539 3.3C177.875 3.576 178.043 3.888 178.043 4.236C178.043 4.584 177.875 4.884 177.539 5.136C177.203 5.388 176.813 5.514 176.369 5.514C175.937 5.514 175.607 5.406 175.379 5.19C175.163 4.962 175.055 4.668 175.055 4.308ZM176.945 7.494C176.309 10.086 175.823 12.036 175.487 13.344C175.439 13.536 175.415 13.746 175.415 13.974L175.433 14.478C175.433 14.682 175.367 14.826 175.235 14.91C175.115 14.994 174.851 15.042 174.443 15.054C174.047 15.054 173.747 15.012 173.543 14.928C173.339 14.844 173.237 14.664 173.237 14.388C173.237 14.256 173.387 13.554 173.687 12.282C173.999 11.01 174.419 9.354 174.947 7.314L174.533 6.774C174.497 6.738 174.479 6.696 174.479 6.648C174.479 6.528 174.611 6.432 174.875 6.36C175.139 6.276 175.505 6.234 175.973 6.234C176.381 6.234 176.639 6.354 176.747 6.594C176.867 6.822 176.933 7.122 176.945 7.494ZM190.483 12.876C190.339 13.26 190.057 13.65 189.637 14.046C189.217 14.43 188.683 14.748 188.035 15C187.387 15.252 186.679 15.378 185.911 15.378C184.735 15.378 183.865 15.138 183.301 14.658C182.737 14.166 182.455 13.53 182.455 12.75C182.455 11.622 182.743 10.578 183.319 9.618C183.895 8.646 184.669 7.878 185.641 7.314C186.613 6.75 187.651 6.468 188.755 6.468C189.439 6.468 190.003 6.672 190.447 7.08C190.903 7.476 191.131 8.016 191.131 8.7C191.131 8.964 191.023 9.186 190.807 9.366C190.591 9.534 190.303 9.618 189.943 9.618C189.655 9.618 189.457 9.552 189.349 9.42C189.253 9.288 189.205 9.114 189.205 8.898L189.223 8.484C189.223 8.34 189.145 8.226 188.989 8.142C188.833 8.046 188.665 7.998 188.485 7.998C188.113 7.998 187.609 8.22 186.973 8.664C186.349 9.108 185.797 9.696 185.317 10.428C184.849 11.148 184.615 11.922 184.615 12.75C184.615 13.086 184.747 13.344 185.011 13.524C185.275 13.704 185.665 13.794 186.181 13.794C186.505 13.794 186.877 13.728 187.297 13.596C187.717 13.464 187.981 13.296 188.089 13.092C188.497 12.348 188.869 11.976 189.205 11.976C189.697 11.976 190.027 12.072 190.195 12.264C190.375 12.444 190.471 12.648 190.483 12.876ZM194.372 9.06C194.648 8.52 194.996 8.058 195.416 7.674C195.836 7.278 196.262 6.984 196.694 6.792C197.138 6.588 197.516 6.486 197.828 6.486C198.572 6.486 199.154 6.672 199.574 7.044C200.006 7.416 200.222 7.866 200.222 8.394L198.872 13.92V14.046C198.872 14.67 198.776 15.102 198.584 15.342C198.404 15.582 198.056 15.702 197.54 15.702C197.264 15.702 197.03 15.612 196.838 15.432C196.658 15.252 196.568 15.048 196.568 14.82C196.568 14.748 196.574 14.694 196.586 14.658C196.898 13.338 197.156 12.264 197.36 11.436C197.48 10.92 197.624 10.302 197.792 9.582C197.972 8.862 198.062 8.478 198.062 8.43C198.062 8.262 197.966 8.178 197.774 8.178C197.498 8.178 197.114 8.304 196.622 8.556C196.13 8.796 195.596 9.258 195.02 9.942C194.456 10.626 193.976 11.562 193.58 12.75C193.412 13.266 193.286 13.716 193.202 14.1L193.184 14.172C193.136 14.388 193.082 14.556 193.022 14.676C192.962 14.784 192.848 14.874 192.68 14.946C192.524 15.018 192.278 15.054 191.942 15.054C191.174 15.054 190.79 14.784 190.79 14.244C190.826 14.076 190.904 13.836 191.024 13.524C191.132 13.284 191.222 13.026 191.294 12.75L194.084 2.508C194.132 2.34 194.264 2.202 194.48 2.094C194.696 1.974 194.912 1.914 195.128 1.914C195.488 1.914 195.74 2.01 195.884 2.202C196.04 2.394 196.13 2.658 196.154 2.994L194.372 9.06ZM204.513 15.18C203.457 15.18 202.635 14.82 202.047 14.1C201.459 13.38 201.165 12.462 201.165 11.346C201.165 10.41 201.363 9.552 201.759 8.772C202.167 7.992 202.731 7.38 203.451 6.936C204.183 6.48 205.017 6.252 205.953 6.252C206.997 6.252 207.699 6.342 208.059 6.522C208.167 6.57 208.263 6.648 208.347 6.756C208.431 6.852 208.473 6.948 208.473 7.044C208.473 7.164 208.443 7.29 208.383 7.422C208.335 7.554 208.257 7.656 208.149 7.728C208.425 7.752 208.659 7.89 208.851 8.142C209.043 8.382 209.187 8.664 209.283 8.988C209.379 9.312 209.427 9.594 209.427 9.834C209.427 10.686 209.217 11.526 208.797 12.354C208.389 13.182 207.813 13.86 207.069 14.388C206.325 14.916 205.473 15.18 204.513 15.18ZM204.783 13.686C205.167 13.686 205.557 13.5 205.953 13.128C206.361 12.744 206.697 12.24 206.961 11.616C207.225 10.992 207.357 10.338 207.357 9.654C207.357 9.522 207.309 9.402 207.213 9.294C207.129 9.186 207.009 9.072 206.853 8.952C206.769 8.892 206.691 8.832 206.619 8.772C206.559 8.7 206.529 8.634 206.529 8.574C206.529 8.526 206.541 8.46 206.565 8.376C206.601 8.292 206.619 8.232 206.619 8.196C206.619 8.016 206.397 7.926 205.953 7.926C205.461 7.926 205.005 8.124 204.585 8.52C204.177 8.916 203.853 9.42 203.613 10.032C203.385 10.644 203.271 11.244 203.271 11.832C203.271 12.18 203.349 12.498 203.505 12.786C203.661 13.062 203.853 13.284 204.081 13.452C204.321 13.608 204.555 13.686 204.783 13.686ZM215.09 12.948C215.342 11.7 215.756 9.888 216.332 7.512C216.716 6.036 217.04 4.686 217.304 3.462V3.066C217.304 2.61 217.382 2.226 217.538 1.914C217.706 1.602 218.042 1.446 218.546 1.446C218.834 1.446 219.08 1.554 219.284 1.77C219.5 1.974 219.608 2.298 219.608 2.742C219.608 2.874 219.602 2.976 219.59 3.048L218.204 8.556C218.588 7.86 219.038 7.374 219.554 7.098C220.082 6.81 220.58 6.666 221.048 6.666C221.84 6.666 222.458 6.96 222.902 7.548C223.346 8.124 223.568 8.916 223.568 9.924C223.568 10.764 223.34 11.61 222.884 12.462C222.428 13.302 221.792 13.998 220.976 14.55C220.172 15.102 219.254 15.378 218.222 15.378C217.178 15.378 216.302 15.198 215.594 14.838C214.898 14.478 214.55 13.98 214.55 13.344C214.55 13.284 214.634 13.224 214.802 13.164C214.982 13.092 215.078 13.02 215.09 12.948ZM216.908 13.236C216.908 13.272 216.86 13.338 216.764 13.434C216.668 13.53 216.638 13.584 216.674 13.596C217.202 13.812 217.694 13.92 218.15 13.92C218.81 13.92 219.398 13.728 219.914 13.344C220.442 12.96 220.85 12.444 221.138 11.796C221.438 11.148 221.588 10.434 221.588 9.654C221.588 9.234 221.522 8.898 221.39 8.646C221.27 8.394 221.084 8.268 220.832 8.268C220.58 8.268 220.22 8.454 219.752 8.826C219.284 9.198 218.786 9.756 218.258 10.5C217.742 11.244 217.292 12.156 216.908 13.236ZM231.365 14.064C231.389 14.376 231.431 14.658 231.491 14.91C231.467 14.982 231.359 15.054 231.167 15.126C230.987 15.198 230.831 15.234 230.699 15.234C230.267 15.234 229.955 15.168 229.763 15.036C229.583 14.916 229.493 14.73 229.493 14.478C229.493 14.238 229.517 13.998 229.565 13.758C229.301 14.118 228.911 14.418 228.395 14.658C227.891 14.886 227.483 15 227.171 15C226.367 15 225.695 14.766 225.155 14.298C224.627 13.83 224.363 13.08 224.363 12.048C224.363 11.076 224.591 10.164 225.047 9.312C225.515 8.448 226.157 7.758 226.973 7.242C227.789 6.714 228.695 6.45 229.691 6.45C229.883 6.45 230.135 6.504 230.447 6.612C230.759 6.708 231.071 6.882 231.383 7.134C231.707 7.374 231.977 7.686 232.193 8.07C232.289 8.07 232.403 8.118 232.535 8.214C232.667 8.31 232.733 8.406 232.733 8.502C232.733 8.61 232.715 8.718 232.679 8.826L231.365 14.064ZM230.555 9.024C230.483 8.76 230.339 8.538 230.123 8.358C229.919 8.178 229.733 8.088 229.565 8.088C229.013 8.088 228.491 8.286 227.999 8.682C227.519 9.066 227.129 9.546 226.829 10.122C226.529 10.698 226.379 11.244 226.379 11.76C226.379 12.264 226.439 12.678 226.559 13.002C226.679 13.326 226.913 13.488 227.261 13.488C227.561 13.488 227.903 13.398 228.287 13.218C228.683 13.038 229.031 12.798 229.331 12.498C229.643 12.186 229.847 11.862 229.943 11.526L230.555 9.024ZM227.045 18.87C226.769 18.87 226.505 18.756 226.253 18.528C226.001 18.312 225.875 18.066 225.875 17.79C225.875 17.382 226.043 17.028 226.379 16.728C226.715 16.428 227.087 16.278 227.495 16.278C227.795 16.278 228.065 16.404 228.305 16.656C228.545 16.92 228.665 17.202 228.665 17.502C228.665 17.886 228.503 18.21 228.179 18.474C227.855 18.738 227.477 18.87 227.045 18.87ZM234.658 6.774C234.622 6.738 234.604 6.696 234.604 6.648C234.604 6.528 234.736 6.432 235 6.36C235.264 6.276 235.63 6.234 236.098 6.234C236.53 6.234 236.848 6.348 237.052 6.576C237.256 6.792 237.376 7.056 237.412 7.368L237.088 8.538C237.34 8.19 237.694 7.86 238.15 7.548C238.606 7.224 239.068 6.966 239.536 6.774C240.004 6.582 240.388 6.486 240.688 6.486C241.324 6.486 241.786 6.606 242.074 6.846C242.362 7.074 242.506 7.44 242.506 7.944C241.798 9.792 241.33 11.784 241.102 13.92L241.354 14.802C241.21 15.078 241.006 15.294 240.742 15.45C240.49 15.618 240.118 15.702 239.626 15.702C239.338 15.702 239.128 15.606 238.996 15.414C238.864 15.222 238.798 14.982 238.798 14.694C238.798 13.89 238.912 13.008 239.14 12.048C239.38 11.076 239.656 10.086 239.968 9.078C240.088 8.694 240.148 8.496 240.148 8.484C240.148 8.316 240.052 8.232 239.86 8.232C239.596 8.232 239.194 8.418 238.654 8.79C238.126 9.162 237.58 9.792 237.016 10.68C236.452 11.556 235.996 12.708 235.648 14.136C235.624 14.208 235.594 14.34 235.558 14.532C235.522 14.724 235.426 14.862 235.27 14.946C235.114 15.018 234.862 15.054 234.514 15.054C234.118 15.054 233.824 15.012 233.632 14.928C233.452 14.844 233.362 14.664 233.362 14.388C233.398 14.22 233.452 14.016 233.524 13.776C234.22 10.98 234.754 8.826 235.126 7.314L234.658 6.774ZM250.117 15.378C249.757 15.318 249.499 15.246 249.343 15.162C249.187 15.09 249.079 15 249.019 14.892C248.971 14.784 248.923 14.598 248.875 14.334L248.857 14.208C248.749 13.596 248.635 12.444 248.515 10.752C248.407 9.048 248.353 7.836 248.353 7.116C248.353 6.924 248.449 6.768 248.641 6.648C248.845 6.516 249.103 6.45 249.415 6.45C250.051 6.45 250.369 6.744 250.369 7.332L250.441 9.816C250.513 11.424 250.555 12.66 250.567 13.524C251.215 12.12 252.013 10.59 252.961 8.934C253.921 7.266 254.557 6.432 254.869 6.432C255.301 6.432 255.655 6.492 255.931 6.612C256.219 6.72 256.363 6.96 256.363 7.332C256.363 7.464 256.237 7.728 255.985 8.124L254.401 10.644C253.573 11.976 252.937 12.978 252.493 13.65C252.049 14.31 251.719 14.742 251.503 14.946C251.371 15.066 251.179 15.168 250.927 15.252C250.675 15.336 250.405 15.378 250.117 15.378ZM260.896 4.47C261.064 4.218 261.382 3.864 261.85 3.408C262.33 2.952 262.798 2.55 263.254 2.202C263.722 1.842 264.022 1.662 264.154 1.662C264.406 1.662 264.694 1.776 265.018 2.004C265.342 2.232 265.504 2.442 265.504 2.634C265.504 2.79 265.42 2.946 265.252 3.102C265.084 3.258 264.742 3.516 264.226 3.876C263.494 4.392 262.936 4.752 262.552 4.956C262.168 5.148 261.82 5.244 261.508 5.244C261.28 5.244 261.112 5.202 261.004 5.118C260.896 5.034 260.842 4.89 260.842 4.686C260.842 4.59 260.86 4.518 260.896 4.47ZM259.726 15.378C258.67 15.378 257.848 15.018 257.26 14.298C256.672 13.578 256.378 12.66 256.378 11.544C256.378 10.608 256.6 9.726 257.044 8.898C257.5 8.07 258.118 7.404 258.898 6.9C259.678 6.396 260.536 6.144 261.472 6.144C262.396 6.144 263.152 6.45 263.74 7.062C264.328 7.662 264.628 8.544 264.64 9.708C265.036 9.6 265.324 9.432 265.504 9.204C265.684 8.964 265.774 8.616 265.774 8.16C265.774 8.052 265.75 7.92 265.702 7.764C265.666 7.596 265.648 7.476 265.648 7.404C265.648 7.2 265.702 7.014 265.81 6.846C265.918 6.666 266.08 6.576 266.296 6.576H266.728C267.04 6.576 267.238 6.666 267.322 6.846C267.406 7.014 267.448 7.23 267.448 7.494C267.448 8.034 267.328 8.538 267.088 9.006C266.86 9.474 266.524 9.858 266.08 10.158C265.648 10.458 265.138 10.62 264.55 10.644C264.394 11.412 264.076 12.162 263.596 12.894C263.116 13.626 262.534 14.226 261.85 14.694C261.178 15.15 260.47 15.378 259.726 15.378ZM259.996 13.938C260.38 13.938 260.764 13.698 261.148 13.218C261.544 12.738 261.868 12.132 262.12 11.4C262.372 10.668 262.498 9.954 262.498 9.258C262.498 8.19 262.054 7.656 261.166 7.656C260.674 7.656 260.224 7.89 259.816 8.358C259.408 8.826 259.084 9.408 258.844 10.104C258.604 10.788 258.484 11.43 258.484 12.03C258.484 12.378 258.562 12.702 258.718 13.002C258.874 13.29 259.066 13.518 259.294 13.686C259.534 13.854 259.768 13.938 259.996 13.938ZM268.922 4.308C268.922 3.936 269.036 3.606 269.264 3.318C269.504 3.03 269.834 2.886 270.254 2.886C270.698 2.886 271.082 3.024 271.406 3.3C271.742 3.576 271.91 3.888 271.91 4.236C271.91 4.584 271.742 4.884 271.406 5.136C271.07 5.388 270.68 5.514 270.236 5.514C269.804 5.514 269.474 5.406 269.246 5.19C269.03 4.962 268.922 4.668 268.922 4.308ZM270.812 7.494C270.176 10.086 269.69 12.036 269.354 13.344C269.306 13.536 269.282 13.746 269.282 13.974L269.3 14.478C269.3 14.682 269.234 14.826 269.102 14.91C268.982 14.994 268.718 15.042 268.31 15.054C267.914 15.054 267.614 15.012 267.41 14.928C267.206 14.844 267.104 14.664 267.104 14.388C267.104 14.256 267.254 13.554 267.554 12.282C267.866 11.01 268.286 9.354 268.814 7.314L268.4 6.774C268.364 6.738 268.346 6.696 268.346 6.648C268.346 6.528 268.478 6.432 268.742 6.36C269.006 6.276 269.372 6.234 269.84 6.234C270.248 6.234 270.506 6.354 270.614 6.594C270.734 6.822 270.8 7.122 270.812 7.494ZM285.467 6.936C285.515 7.008 285.575 7.146 285.647 7.35C285.731 7.542 285.773 7.692 285.773 7.8C285.773 7.86 285.767 7.896 285.755 7.908C285.695 7.98 285.557 8.04 285.341 8.088C285.125 8.136 284.981 8.166 284.909 8.178C284.537 8.418 283.943 8.802 283.127 9.33C282.323 9.846 281.735 10.224 281.363 10.464C281.387 10.752 281.603 11.196 282.011 11.796C282.419 12.384 282.857 12.942 283.325 13.47C283.793 13.998 284.075 14.262 284.171 14.262C284.279 14.262 284.411 14.352 284.567 14.532C284.735 14.712 284.819 14.874 284.819 15.018C284.819 15.15 284.735 15.234 284.567 15.27C284.459 15.294 284.255 15.336 283.955 15.396C283.667 15.456 283.415 15.486 283.199 15.486C283.007 15.486 282.857 15.462 282.749 15.414C282.473 15.318 282.095 15 281.615 14.46C281.147 13.908 280.697 13.296 280.265 12.624C279.833 11.94 279.551 11.352 279.419 10.86C279.035 12.408 278.765 13.47 278.609 14.046C278.453 14.61 278.327 14.976 278.231 15.144C278.135 15.324 278.021 15.414 277.889 15.414L277.385 15.432C276.593 15.432 276.179 15.114 276.143 14.478C276.383 13.89 276.551 13.404 276.647 13.02C277.835 8.616 278.681 5.298 279.185 3.066C279.173 2.886 279.161 2.64 279.149 2.328C279.137 2.004 279.131 1.752 279.131 1.572C279.167 1.416 279.299 1.29 279.527 1.194C279.767 1.098 279.983 1.05 280.175 1.05C280.475 1.05 280.793 1.152 281.129 1.356C281.465 1.56 281.639 1.806 281.651 2.094L280.049 8.376L279.743 9.618C279.995 9.306 280.421 8.922 281.021 8.466C281.633 8.01 282.257 7.602 282.893 7.242C283.541 6.882 284.057 6.666 284.441 6.594C284.537 6.594 284.711 6.624 284.963 6.684C285.227 6.744 285.395 6.828 285.467 6.936ZM288.819 9.06C289.095 8.52 289.443 8.058 289.863 7.674C290.283 7.278 290.709 6.984 291.141 6.792C291.585 6.588 291.963 6.486 292.275 6.486C293.019 6.486 293.601 6.672 294.021 7.044C294.453 7.416 294.669 7.866 294.669 8.394L293.319 13.92V14.046C293.319 14.67 293.223 15.102 293.031 15.342C292.851 15.582 292.503 15.702 291.987 15.702C291.711 15.702 291.477 15.612 291.285 15.432C291.105 15.252 291.015 15.048 291.015 14.82C291.015 14.748 291.021 14.694 291.033 14.658C291.345 13.338 291.603 12.264 291.807 11.436C291.927 10.92 292.071 10.302 292.239 9.582C292.419 8.862 292.509 8.478 292.509 8.43C292.509 8.262 292.413 8.178 292.221 8.178C291.945 8.178 291.561 8.304 291.069 8.556C290.577 8.796 290.043 9.258 289.467 9.942C288.903 10.626 288.423 11.562 288.027 12.75C287.859 13.266 287.733 13.716 287.649 14.1L287.631 14.172C287.583 14.388 287.529 14.556 287.469 14.676C287.409 14.784 287.295 14.874 287.127 14.946C286.971 15.018 286.725 15.054 286.389 15.054C285.621 15.054 285.237 14.784 285.237 14.244C285.273 14.076 285.351 13.836 285.471 13.524C285.579 13.284 285.669 13.026 285.741 12.75L288.531 2.508C288.579 2.34 288.711 2.202 288.927 2.094C289.143 1.974 289.359 1.914 289.575 1.914C289.935 1.914 290.187 2.01 290.331 2.202C290.487 2.394 290.577 2.658 290.601 2.994L288.819 9.06ZM298.871 4.47C299.039 4.218 299.357 3.864 299.825 3.408C300.305 2.952 300.773 2.55 301.229 2.202C301.697 1.842 301.997 1.662 302.129 1.662C302.381 1.662 302.669 1.776 302.993 2.004C303.317 2.232 303.479 2.442 303.479 2.634C303.479 2.79 303.395 2.946 303.227 3.102C303.059 3.258 302.717 3.516 302.201 3.876C301.469 4.392 300.911 4.752 300.527 4.956C300.143 5.148 299.795 5.244 299.483 5.244C299.255 5.244 299.087 5.202 298.979 5.118C298.871 5.034 298.817 4.89 298.817 4.686C298.817 4.59 298.835 4.518 298.871 4.47ZM302.381 14.064C302.405 14.376 302.447 14.658 302.507 14.91C302.483 14.982 302.375 15.054 302.183 15.126C302.003 15.198 301.847 15.234 301.715 15.234C301.283 15.234 300.971 15.168 300.779 15.036C300.599 14.916 300.509 14.73 300.509 14.478C300.509 14.238 300.533 13.998 300.581 13.758C300.317 14.118 299.927 14.418 299.411 14.658C298.907 14.886 298.499 15 298.187 15C297.383 15 296.711 14.766 296.171 14.298C295.643 13.83 295.379 13.08 295.379 12.048C295.379 11.076 295.607 10.164 296.063 9.312C296.531 8.448 297.173 7.758 297.989 7.242C298.805 6.714 299.711 6.45 300.707 6.45C300.899 6.45 301.151 6.504 301.463 6.612C301.775 6.708 302.087 6.882 302.399 7.134C302.723 7.374 302.993 7.686 303.209 8.07C303.305 8.07 303.419 8.118 303.551 8.214C303.683 8.31 303.749 8.406 303.749 8.502C303.749 8.61 303.731 8.718 303.695 8.826L302.381 14.064ZM301.571 9.024C301.499 8.76 301.355 8.538 301.139 8.358C300.935 8.178 300.749 8.088 300.581 8.088C300.029 8.088 299.507 8.286 299.015 8.682C298.535 9.066 298.145 9.546 297.845 10.122C297.545 10.698 297.395 11.244 297.395 11.76C297.395 12.264 297.455 12.678 297.575 13.002C297.695 13.326 297.929 13.488 298.277 13.488C298.577 13.488 298.919 13.398 299.303 13.218C299.699 13.038 300.047 12.798 300.347 12.498C300.659 12.186 300.863 11.862 300.959 11.526L301.571 9.024ZM312.964 12.318C312.832 12.714 312.52 13.152 312.028 13.632C311.548 14.112 310.96 14.526 310.264 14.874C309.568 15.21 308.842 15.378 308.086 15.378C307.474 15.378 306.898 15.264 306.358 15.036C305.83 14.808 305.404 14.46 305.08 13.992C304.756 13.524 304.594 12.954 304.594 12.282C304.594 11.154 304.816 10.152 305.26 9.276C305.704 8.4 306.334 7.716 307.15 7.224C307.978 6.72 308.932 6.468 310.012 6.468C310.708 6.468 311.308 6.672 311.812 7.08C312.328 7.488 312.592 8.028 312.604 8.7C312.604 8.964 312.514 9.186 312.334 9.366C312.154 9.534 311.89 9.618 311.542 9.618C311.266 9.618 311.062 9.558 310.93 9.438C310.81 9.306 310.69 9.108 310.57 8.844C310.45 8.568 310.318 8.358 310.174 8.214C310.03 8.07 309.802 7.998 309.49 7.998C309.13 7.998 308.734 8.19 308.302 8.574C307.87 8.946 307.504 9.474 307.204 10.158C306.904 10.83 306.754 11.592 306.754 12.444C306.754 12.804 306.892 13.122 307.168 13.398C307.456 13.662 307.846 13.794 308.338 13.794C308.746 13.794 309.13 13.662 309.49 13.398C309.85 13.122 310.264 12.732 310.732 12.228C311.032 11.916 311.266 11.688 311.434 11.544C311.614 11.4 311.77 11.328 311.902 11.328C312.502 11.328 312.856 11.658 312.964 12.318ZM316.276 9.06C316.552 8.52 316.93 8.058 317.41 7.674C317.902 7.29 318.4 6.996 318.904 6.792C319.408 6.588 319.822 6.486 320.146 6.486C320.77 6.486 321.22 6.606 321.496 6.846C321.772 7.074 321.91 7.44 321.91 7.944C321.202 9.792 320.734 11.784 320.506 13.92L320.758 14.802C320.614 15.078 320.422 15.294 320.182 15.45C319.942 15.618 319.576 15.702 319.084 15.702C318.796 15.702 318.586 15.606 318.454 15.414C318.322 15.222 318.256 14.982 318.256 14.694C318.256 13.89 318.37 13.008 318.598 12.048C318.838 11.076 319.114 10.086 319.426 9.078C319.546 8.694 319.606 8.496 319.606 8.484C319.606 8.316 319.51 8.232 319.318 8.232C319.066 8.232 318.7 8.418 318.22 8.79C317.74 9.162 317.242 9.792 316.726 10.68C316.21 11.556 315.778 12.708 315.43 14.136C315.418 14.196 315.388 14.322 315.34 14.514C315.292 14.706 315.184 14.844 315.016 14.928C314.848 15.012 314.59 15.054 314.242 15.054C313.822 15.054 313.498 15.012 313.27 14.928C313.042 14.832 312.928 14.652 312.928 14.388C314.5 8.208 315.472 4.344 315.844 2.796C315.832 2.64 315.82 2.436 315.808 2.184C315.808 1.92 315.808 1.716 315.808 1.572C315.844 1.404 315.97 1.278 316.186 1.194C316.414 1.098 316.642 1.05 316.87 1.05C317.254 1.05 317.578 1.152 317.842 1.356C318.106 1.56 318.25 1.818 318.274 2.13L316.276 9.06ZM330.391 9.06C330.667 8.52 331.015 8.058 331.435 7.674C331.855 7.278 332.281 6.984 332.713 6.792C333.157 6.588 333.535 6.486 333.847 6.486C334.591 6.486 335.173 6.672 335.593 7.044C336.025 7.416 336.241 7.866 336.241 8.394L334.891 13.92V14.046C334.891 14.67 334.795 15.102 334.603 15.342C334.423 15.582 334.075 15.702 333.559 15.702C333.283 15.702 333.049 15.612 332.857 15.432C332.677 15.252 332.587 15.048 332.587 14.82C332.587 14.748 332.593 14.694 332.605 14.658C332.917 13.338 333.175 12.264 333.379 11.436C333.499 10.92 333.643 10.302 333.811 9.582C333.991 8.862 334.081 8.478 334.081 8.43C334.081 8.262 333.985 8.178 333.793 8.178C333.517 8.178 333.133 8.304 332.641 8.556C332.149 8.796 331.615 9.258 331.039 9.942C330.475 10.626 329.995 11.562 329.599 12.75C329.431 13.266 329.305 13.716 329.221 14.1L329.203 14.172C329.155 14.388 329.101 14.556 329.041 14.676C328.981 14.784 328.867 14.874 328.699 14.946C328.543 15.018 328.297 15.054 327.961 15.054C327.193 15.054 326.809 14.784 326.809 14.244C326.845 14.076 326.923 13.836 327.043 13.524C327.151 13.284 327.241 13.026 327.313 12.75L330.103 2.508C330.151 2.34 330.283 2.202 330.499 2.094C330.715 1.974 330.931 1.914 331.147 1.914C331.507 1.914 331.759 2.01 331.903 2.202C332.059 2.394 332.149 2.658 332.173 2.994L330.391 9.06ZM344.187 4.47C344.223 4.518 344.241 4.59 344.241 4.686C344.241 4.89 344.187 5.034 344.079 5.118C343.971 5.202 343.803 5.244 343.575 5.244C343.263 5.244 342.915 5.148 342.531 4.956C342.147 4.752 341.589 4.392 340.857 3.876C340.341 3.516 339.999 3.258 339.831 3.102C339.663 2.946 339.579 2.79 339.579 2.634C339.579 2.442 339.741 2.232 340.065 2.004C340.389 1.776 340.677 1.662 340.929 1.662C341.061 1.662 341.355 1.842 341.811 2.202C342.279 2.55 342.747 2.952 343.215 3.408C343.695 3.864 344.019 4.218 344.187 4.47ZM343.953 14.064C343.977 14.376 344.019 14.658 344.079 14.91C344.055 14.982 343.947 15.054 343.755 15.126C343.575 15.198 343.419 15.234 343.287 15.234C342.855 15.234 342.543 15.168 342.351 15.036C342.171 14.916 342.081 14.73 342.081 14.478C342.081 14.238 342.105 13.998 342.153 13.758C341.889 14.118 341.499 14.418 340.983 14.658C340.479 14.886 340.071 15 339.759 15C338.955 15 338.283 14.766 337.743 14.298C337.215 13.83 336.951 13.08 336.951 12.048C336.951 11.076 337.179 10.164 337.635 9.312C338.103 8.448 338.745 7.758 339.561 7.242C340.377 6.714 341.283 6.45 342.279 6.45C342.471 6.45 342.723 6.504 343.035 6.612C343.347 6.708 343.659 6.882 343.971 7.134C344.295 7.374 344.565 7.686 344.781 8.07C344.877 8.07 344.991 8.118 345.123 8.214C345.255 8.31 345.321 8.406 345.321 8.502C345.321 8.61 345.303 8.718 345.267 8.826L343.953 14.064ZM343.143 9.024C343.071 8.76 342.927 8.538 342.711 8.358C342.507 8.178 342.321 8.088 342.153 8.088C341.601 8.088 341.079 8.286 340.587 8.682C340.107 9.066 339.717 9.546 339.417 10.122C339.117 10.698 338.967 11.244 338.967 11.76C338.967 12.264 339.027 12.678 339.147 13.002C339.267 13.326 339.501 13.488 339.849 13.488C340.149 13.488 340.491 13.398 340.875 13.218C341.271 13.038 341.619 12.798 341.919 12.498C342.231 12.186 342.435 11.862 342.531 11.526L343.143 9.024ZM347.894 6.27C348.458 5.97 348.926 5.82 349.298 5.82C349.706 5.82 349.934 6.03 349.982 6.45L349.262 9.132C350.054 7.992 350.792 7.206 351.476 6.774C352.16 6.33 352.772 6.108 353.312 6.108C353.948 6.108 354.41 6.228 354.698 6.468C354.998 6.696 355.154 7.062 355.166 7.566C354.758 8.67 354.416 9.72 354.14 10.716C353.876 11.712 353.744 12.63 353.744 13.47V13.884C353.744 14.22 353.648 14.442 353.456 14.55C353.276 14.646 352.91 14.694 352.358 14.694C352.142 14.694 351.938 14.658 351.746 14.586C351.566 14.514 351.476 14.394 351.476 14.226C351.476 13.746 351.584 13.044 351.8 12.12C352.016 11.196 352.256 10.284 352.52 9.384C352.796 8.484 352.934 8.058 352.934 8.106C352.934 7.938 352.838 7.854 352.646 7.854C352.394 7.854 351.986 8.076 351.422 8.52C350.858 8.964 350.282 9.66 349.694 10.608C349.106 11.544 348.638 12.72 348.29 14.136C348.278 14.208 348.254 14.34 348.218 14.532C348.182 14.724 348.086 14.862 347.93 14.946C347.774 15.018 347.522 15.054 347.174 15.054C346.778 15.054 346.484 15.012 346.292 14.928C346.1 14.844 346.004 14.664 346.004 14.388L346.544 12.084C346.688 11.46 346.874 10.668 347.102 9.708C347.33 8.736 347.594 7.59 347.894 6.27ZM357.847 19.086C357.295 19.086 356.773 18.966 356.281 18.726C355.801 18.486 355.399 18.174 355.075 17.79C354.739 17.418 354.499 17.04 354.355 16.656C354.367 16.44 354.475 16.224 354.679 16.008C354.871 15.804 355.213 15.702 355.705 15.702C355.861 15.702 355.993 15.762 356.101 15.882C356.221 16.002 356.353 16.194 356.497 16.458C356.689 16.818 356.887 17.094 357.091 17.286C357.307 17.49 357.601 17.592 357.973 17.592C358.393 17.592 358.795 17.424 359.179 17.088C359.575 16.764 359.911 16.32 360.187 15.756C360.475 15.192 360.673 14.568 360.781 13.884C360.517 14.244 360.211 14.52 359.863 14.712C359.527 14.904 359.209 15 358.909 15C357.949 15 357.187 14.79 356.623 14.37C356.071 13.938 355.795 13.176 355.795 12.084C355.795 11.1 356.065 10.182 356.605 9.33C357.157 8.478 357.889 7.8 358.801 7.296C359.713 6.792 360.691 6.54 361.735 6.54C362.419 6.54 362.923 6.678 363.247 6.954C363.583 7.23 363.787 7.578 363.859 7.998C364.063 8.094 364.171 8.19 364.183 8.286C364.183 8.322 364.159 8.448 364.111 8.664C363.883 9.648 363.403 11.592 362.671 14.496L362.473 15.288C362.173 16.452 361.597 17.376 360.745 18.06C359.905 18.744 358.939 19.086 357.847 19.086ZM361.915 8.394C361.819 8.226 361.723 8.118 361.627 8.07C361.543 8.022 361.411 7.998 361.231 7.998C360.667 7.998 360.121 8.184 359.593 8.556C359.065 8.916 358.639 9.39 358.315 9.978C357.991 10.554 357.829 11.148 357.829 11.76C357.829 12.204 357.907 12.588 358.063 12.912C358.231 13.236 358.495 13.422 358.855 13.47C359.335 13.386 359.785 13.17 360.205 12.822C360.637 12.474 360.931 12.024 361.087 11.472L361.915 8.394ZM366.539 15.594C366.203 15.594 365.909 15.492 365.657 15.288C365.417 15.084 365.297 14.844 365.297 14.568C365.297 14.16 365.471 13.806 365.819 13.506C366.167 13.206 366.545 13.056 366.953 13.056C367.313 13.056 367.607 13.17 367.835 13.398C368.075 13.626 368.195 13.896 368.195 14.208C368.195 14.58 368.027 14.904 367.691 15.18C367.355 15.456 366.971 15.594 366.539 15.594ZM25.479 36.92C25.383 37.34 25.233 37.664 25.029 37.892C24.837 38.12 24.519 38.234 24.075 38.234C23.703 38.234 23.427 38.168 23.247 38.036C23.079 37.916 22.995 37.706 22.995 37.406C22.995 37.274 23.013 37.148 23.049 37.028L25.245 28.316C25.233 28.316 24.843 28.358 24.075 28.442C23.151 28.514 22.575 28.574 22.347 28.622C22.107 28.538 21.921 28.412 21.789 28.244C21.669 28.064 21.609 27.854 21.609 27.614C21.609 27.422 21.675 27.242 21.807 27.074C21.951 26.894 22.119 26.762 22.311 26.678C22.911 26.558 23.751 26.456 24.831 26.372C25.911 26.288 27.297 26.198 28.989 26.102C29.853 26.066 30.435 26.03 30.735 25.994C30.927 26.078 31.089 26.21 31.221 26.39C31.365 26.558 31.437 26.738 31.437 26.93C31.437 27.146 31.329 27.356 31.113 27.56C30.897 27.764 30.651 27.908 30.375 27.992L27.225 28.154C27.357 28.202 27.423 28.364 27.423 28.64C27.423 28.784 27.411 28.892 27.387 28.964C27.183 29.876 26.901 31.058 26.541 32.51C26.193 33.962 25.959 34.946 25.839 35.462C25.767 35.762 25.701 36.032 25.641 36.272C25.581 36.512 25.527 36.728 25.479 36.92ZM33.699 32.06C33.975 31.52 34.353 31.058 34.833 30.674C35.325 30.29 35.823 29.996 36.327 29.792C36.831 29.588 37.245 29.486 37.569 29.486C38.193 29.486 38.643 29.606 38.919 29.846C39.195 30.074 39.333 30.44 39.333 30.944C38.625 32.792 38.157 34.784 37.929 36.92L38.181 37.802C38.037 38.078 37.845 38.294 37.605 38.45C37.365 38.618 36.999 38.702 36.507 38.702C36.219 38.702 36.009 38.606 35.877 38.414C35.745 38.222 35.679 37.982 35.679 37.694C35.679 36.89 35.793 36.008 36.021 35.048C36.261 34.076 36.537 33.086 36.849 32.078C36.969 31.694 37.029 31.496 37.029 31.484C37.029 31.316 36.933 31.232 36.741 31.232C36.489 31.232 36.123 31.418 35.643 31.79C35.163 32.162 34.665 32.792 34.149 33.68C33.633 34.556 33.201 35.708 32.853 37.136C32.841 37.196 32.811 37.322 32.763 37.514C32.715 37.706 32.607 37.844 32.439 37.928C32.271 38.012 32.013 38.054 31.665 38.054C31.245 38.054 30.921 38.012 30.693 37.928C30.465 37.832 30.351 37.652 30.351 37.388C31.923 31.208 32.895 27.344 33.267 25.796C33.255 25.64 33.243 25.436 33.231 25.184C33.231 24.92 33.231 24.716 33.231 24.572C33.267 24.404 33.393 24.278 33.609 24.194C33.837 24.098 34.065 24.05 34.293 24.05C34.677 24.05 35.001 24.152 35.265 24.356C35.529 24.56 35.673 24.818 35.697 25.13L33.699 32.06ZM46.7924 24.896C47.0324 24.896 47.2424 24.956 47.4224 25.076C47.6144 25.184 47.8484 25.418 48.1244 25.778L49.0424 26.966C49.1624 27.122 49.2224 27.272 49.2224 27.416C49.2224 27.608 49.1264 27.776 48.9344 27.92C48.7544 28.052 48.5384 28.118 48.2864 28.118C48.0464 28.118 47.8184 27.992 47.6024 27.74L46.6124 26.552C45.8924 27.176 45.3584 27.614 45.0104 27.866C44.6744 28.118 44.4284 28.244 44.2724 28.244C44.0324 28.244 43.8164 28.19 43.6244 28.082C43.4444 27.974 43.3544 27.83 43.3544 27.65C43.3544 27.518 43.3724 27.398 43.4084 27.29C43.4564 27.182 43.5644 27.062 43.7324 26.93L44.1284 26.606C45.0284 25.862 45.6464 25.364 45.9824 25.112C46.1624 24.968 46.4324 24.896 46.7924 24.896ZM43.8404 38.378C42.7844 38.378 41.9624 38.018 41.3744 37.298C40.7864 36.578 40.4924 35.66 40.4924 34.544C40.4924 33.608 40.7144 32.726 41.1584 31.898C41.6144 31.07 42.2324 30.404 43.0124 29.9C43.7924 29.396 44.6504 29.144 45.5864 29.144C46.5104 29.144 47.2664 29.45 47.8544 30.062C48.4544 30.662 48.7544 31.55 48.7544 32.726C48.7544 33.554 48.5264 34.412 48.0704 35.3C47.6144 36.188 47.0024 36.926 46.2344 37.514C45.4784 38.09 44.6804 38.378 43.8404 38.378ZM44.1104 36.938C44.4944 36.938 44.8784 36.698 45.2624 36.218C45.6584 35.738 45.9824 35.132 46.2344 34.4C46.4864 33.668 46.6124 32.954 46.6124 32.258C46.6124 31.19 46.1684 30.656 45.2804 30.656C44.7884 30.656 44.3384 30.89 43.9304 31.358C43.5224 31.826 43.1984 32.408 42.9584 33.104C42.7184 33.788 42.5984 34.43 42.5984 35.03C42.5984 35.378 42.6764 35.702 42.8324 36.002C42.9884 36.29 43.1804 36.518 43.4084 36.686C43.6484 36.854 43.8824 36.938 44.1104 36.938ZM51.397 29.27C51.985 28.97 52.453 28.82 52.801 28.82C53.209 28.82 53.437 29.03 53.485 29.45L52.891 31.664C53.143 31.316 53.515 30.974 54.007 30.638C54.499 30.302 54.991 30.026 55.483 29.81C55.987 29.594 56.389 29.486 56.689 29.486C57.325 29.486 57.787 29.606 58.075 29.846C58.363 30.074 58.507 30.44 58.507 30.944C58.387 31.616 58.207 32.426 57.967 33.374C57.727 34.31 57.577 34.904 57.517 35.156C57.253 36.14 57.067 36.878 56.959 37.37C56.887 37.67 56.815 37.88 56.743 38C56.683 38.108 56.569 38.186 56.401 38.234C56.245 38.282 55.969 38.306 55.573 38.306C55.357 38.306 55.153 38.27 54.961 38.198C54.781 38.126 54.691 38.006 54.691 37.838C54.727 37.442 54.847 36.836 55.051 36.02C55.267 35.192 55.555 34.124 55.915 32.816C56.155 32 56.275 31.556 56.275 31.484C56.275 31.316 56.179 31.232 55.987 31.232C55.711 31.232 55.297 31.424 54.745 31.808C54.193 32.18 53.623 32.81 53.035 33.698C52.447 34.574 51.985 35.72 51.649 37.136C51.625 37.208 51.595 37.34 51.559 37.532C51.523 37.724 51.427 37.862 51.271 37.946C51.115 38.018 50.863 38.054 50.515 38.054C50.119 38.054 49.825 38.012 49.633 37.928C49.453 37.844 49.363 37.664 49.363 37.388L49.561 36.614C50.269 33.842 50.881 31.394 51.397 29.27ZM63.9802 37.406C63.0922 38.006 62.2462 38.306 61.4422 38.306C60.9502 38.306 60.5122 38.15 60.1282 37.838C59.7442 37.514 59.4442 37.112 59.2282 36.632C59.0242 36.14 58.9222 35.666 58.9222 35.21C58.9222 34.55 59.1202 33.8 59.5162 32.96C59.9122 32.108 60.5002 31.382 61.2802 30.782C62.0602 30.17 62.9902 29.864 64.0702 29.864C64.8502 29.864 65.5762 30.002 66.2482 30.278C66.9322 30.542 67.2742 30.992 67.2742 31.628C67.2742 31.784 67.2622 31.904 67.2382 31.988C67.0702 32.768 66.9262 33.458 66.8062 34.058C66.4102 35.918 66.0922 37.328 65.8522 38.288C65.5882 39.32 65.2162 40.112 64.7362 40.664C64.2682 41.228 63.7282 41.606 63.1162 41.798C62.5162 41.99 61.8082 42.086 60.9922 42.086C60.6802 42.086 60.3322 42.014 59.9482 41.87C59.5762 41.738 59.2582 41.552 58.9942 41.312C58.7302 41.072 58.5982 40.814 58.5982 40.538C58.5982 40.274 58.6702 40.064 58.8142 39.908C58.9462 39.752 59.1502 39.674 59.4262 39.674C59.5462 39.674 59.6842 39.764 59.8402 39.944C60.0322 40.148 60.2302 40.304 60.4342 40.412C60.6502 40.532 60.9622 40.592 61.3702 40.592C62.0302 40.592 62.5942 40.316 63.0622 39.764C63.5302 39.212 63.8362 38.426 63.9802 37.406ZM64.3402 35.714C64.3762 35.486 64.5262 34.856 64.7902 33.824C64.8502 33.608 64.9282 33.32 65.0242 32.96C65.1202 32.588 65.1982 32.264 65.2582 31.988C65.1982 31.748 65.0482 31.586 64.8082 31.502C64.5802 31.418 64.3642 31.376 64.1602 31.376C63.6802 31.376 63.1942 31.586 62.7022 32.006C62.2222 32.426 61.8262 32.942 61.5142 33.554C61.2022 34.154 61.0462 34.694 61.0462 35.174C61.0462 35.45 61.1242 35.768 61.2802 36.128C61.4362 36.476 61.5982 36.65 61.7662 36.65C62.0422 36.65 62.4802 36.548 63.0802 36.344C63.6802 36.128 64.1002 35.918 64.3402 35.714ZM77.7798 29.594C78.2718 29.594 78.7878 29.72 79.3278 29.972C79.8798 30.224 80.3118 30.638 80.6238 31.214C80.7198 31.214 80.8338 31.262 80.9658 31.358C81.0978 31.454 81.1638 31.55 81.1638 31.646C81.1638 31.754 81.1458 31.862 81.1098 31.97L78.8958 40.898C78.8838 40.958 78.8778 41.042 78.8778 41.15C78.8778 41.33 78.9078 41.522 78.9678 41.726C78.9438 41.798 78.8358 41.87 78.6438 41.942C78.4638 42.014 78.3018 42.05 78.1578 42.05C77.7498 42.05 77.4558 41.984 77.2758 41.852C77.1078 41.72 77.0238 41.492 77.0238 41.168C77.0238 40.892 77.0658 40.556 77.1498 40.16C77.2458 39.764 77.3718 39.272 77.5278 38.684C77.7078 37.976 77.8158 37.532 77.8518 37.352C77.5758 37.58 77.2578 37.754 76.8978 37.874C76.5378 37.982 76.2018 38.036 75.8898 38.036C74.9058 38.036 74.1618 37.718 73.6578 37.082C73.1658 36.446 72.9198 35.642 72.9198 34.67C72.9198 33.782 73.1058 32.954 73.4778 32.186C73.8618 31.406 74.4198 30.782 75.1518 30.314C75.8958 29.834 76.7718 29.594 77.7798 29.594ZM77.6898 31.052C77.1378 31.052 76.6338 31.232 76.1778 31.592C75.7338 31.952 75.3798 32.414 75.1158 32.978C74.8638 33.53 74.7378 34.082 74.7378 34.634C74.7378 35.318 74.8998 35.816 75.2238 36.128C75.5478 36.44 75.9618 36.596 76.4658 36.596C76.6338 36.596 76.9398 36.452 77.3838 36.164C77.8398 35.876 78.1638 35.6 78.3558 35.336L79.1118 32.312C79.1238 32.276 79.1298 32.222 79.1298 32.15C79.0578 31.886 78.8538 31.64 78.5178 31.412C78.1938 31.172 77.9178 31.052 77.6898 31.052ZM88.9453 37.946C88.8973 38.15 88.7893 38.288 88.6213 38.36C88.4533 38.444 88.2313 38.486 87.9553 38.486C87.1273 38.486 86.7133 38.3 86.7133 37.928L86.8213 37.244C86.4853 37.496 86.0893 37.748 85.6333 38C85.1773 38.252 84.7993 38.378 84.4993 38.378C82.7233 38.378 81.8353 37.796 81.8353 36.632C81.8353 34.652 82.4293 32.504 83.6173 30.188C83.7613 29.912 83.9113 29.714 84.0673 29.594C84.2353 29.474 84.5173 29.414 84.9133 29.414C85.3333 29.414 85.6453 29.474 85.8493 29.594C86.0653 29.702 86.1733 29.834 86.1733 29.99C86.1733 30.026 86.1073 30.134 85.9753 30.314C85.8433 30.47 85.7293 30.626 85.6333 30.782C84.5053 32.666 83.9413 34.502 83.9413 36.29C83.9413 36.446 84.0013 36.584 84.1213 36.704C84.2413 36.824 84.3493 36.884 84.4453 36.884C84.7093 36.884 85.1533 36.758 85.7773 36.506C86.4133 36.254 86.8993 35.996 87.2353 35.732L87.5953 34.274C88.0273 32.534 88.2973 31.466 88.4053 31.07C88.5373 30.59 88.7053 30.2 88.9093 29.9C89.1253 29.588 89.4613 29.432 89.9173 29.432C90.5533 29.432 90.8713 29.624 90.8713 30.008C90.8713 30.068 90.8533 30.146 90.8173 30.242C90.7933 30.326 90.7753 30.398 90.7633 30.458L90.0433 33.374C89.4673 35.69 89.1013 37.214 88.9453 37.946ZM98.5777 37.694C98.4937 37.91 98.2957 38.054 97.9837 38.126C97.6837 38.21 97.4197 38.252 97.1917 38.252C96.9757 38.252 96.8317 38.198 96.7597 38.09C96.6997 37.994 96.6457 37.844 96.5977 37.64C96.5497 37.436 96.5197 37.298 96.5077 37.226C95.9917 37.574 95.4637 37.838 94.9237 38.018C94.3957 38.21 93.9517 38.306 93.5917 38.306C93.2797 38.306 92.9257 38.204 92.5297 38C92.1457 37.796 91.8157 37.52 91.5397 37.172C91.2637 36.824 91.1257 36.44 91.1257 36.02C91.1257 35.348 91.3477 34.49 91.7917 33.446C92.2357 32.402 92.8597 31.49 93.6637 30.71C94.4797 29.93 95.4277 29.54 96.5077 29.54C97.4557 29.54 98.3017 29.69 99.0457 29.99C99.7897 30.29 100.162 30.716 100.162 31.268C99.8257 31.892 99.4597 32.828 99.0637 34.076C98.6797 35.324 98.4877 36.248 98.4877 36.848C98.4877 37.244 98.5177 37.526 98.5777 37.694ZM96.5437 35.714C96.6397 35.186 96.8017 34.562 97.0297 33.842C97.2697 33.11 97.5877 32.378 97.9837 31.646C97.9237 31.406 97.7317 31.25 97.4077 31.178C97.0957 31.094 96.8137 31.052 96.5617 31.052C96.1177 31.052 95.6377 31.352 95.1217 31.952C94.6057 32.552 94.1617 33.254 93.7897 34.058C93.4297 34.85 93.2497 35.492 93.2497 35.984C93.2497 36.224 93.3157 36.398 93.4477 36.506C93.5797 36.602 93.7477 36.65 93.9517 36.65C94.2277 36.65 94.6657 36.548 95.2657 36.344C95.8777 36.128 96.3037 35.918 96.5437 35.714ZM107.879 32.06C108.155 31.52 108.503 31.058 108.923 30.674C109.343 30.278 109.769 29.984 110.201 29.792C110.645 29.588 111.023 29.486 111.335 29.486C112.079 29.486 112.661 29.672 113.081 30.044C113.513 30.416 113.729 30.866 113.729 31.394L112.379 36.92V37.046C112.379 37.67 112.283 38.102 112.091 38.342C111.911 38.582 111.563 38.702 111.047 38.702C110.771 38.702 110.537 38.612 110.345 38.432C110.165 38.252 110.075 38.048 110.075 37.82C110.075 37.748 110.081 37.694 110.093 37.658C110.405 36.338 110.663 35.264 110.867 34.436C110.987 33.92 111.131 33.302 111.299 32.582C111.479 31.862 111.569 31.478 111.569 31.43C111.569 31.262 111.473 31.178 111.281 31.178C111.005 31.178 110.621 31.304 110.129 31.556C109.637 31.796 109.103 32.258 108.527 32.942C107.963 33.626 107.483 34.562 107.087 35.75C106.919 36.266 106.793 36.716 106.709 37.1L106.691 37.172C106.643 37.388 106.589 37.556 106.529 37.676C106.469 37.784 106.355 37.874 106.187 37.946C106.031 38.018 105.785 38.054 105.449 38.054C104.681 38.054 104.297 37.784 104.297 37.244C104.333 37.076 104.411 36.836 104.531 36.524C104.639 36.284 104.729 36.026 104.801 35.75L107.591 25.508C107.639 25.34 107.771 25.202 107.987 25.094C108.203 24.974 108.419 24.914 108.635 24.914C108.995 24.914 109.247 25.01 109.391 25.202C109.547 25.394 109.637 25.658 109.661 25.994L107.879 32.06ZM118.956 27.47C118.992 27.518 119.01 27.59 119.01 27.686C119.01 27.89 118.956 28.034 118.848 28.118C118.74 28.202 118.572 28.244 118.344 28.244C118.032 28.244 117.684 28.148 117.3 27.956C116.916 27.752 116.358 27.392 115.626 26.876C115.11 26.516 114.768 26.258 114.6 26.102C114.432 25.946 114.348 25.79 114.348 25.634C114.348 25.442 114.51 25.232 114.834 25.004C115.158 24.776 115.446 24.662 115.698 24.662C115.83 24.662 116.124 24.842 116.58 25.202C117.048 25.55 117.516 25.952 117.984 26.408C118.464 26.864 118.788 27.218 118.956 27.47ZM118.524 30.494C117.888 33.086 117.402 35.036 117.066 36.344C117.018 36.524 116.994 36.728 116.994 36.956L117.012 37.478C117.012 37.682 116.946 37.826 116.814 37.91C116.694 37.994 116.43 38.042 116.022 38.054C115.626 38.054 115.326 38.012 115.122 37.928C114.918 37.844 114.816 37.664 114.816 37.388C114.816 37.256 114.966 36.554 115.266 35.282C115.578 34.01 115.998 32.354 116.526 30.314L116.112 29.774C116.076 29.738 116.058 29.696 116.058 29.648C116.058 29.528 116.19 29.432 116.454 29.36C116.718 29.276 117.084 29.234 117.552 29.234C117.828 29.234 118.032 29.3 118.164 29.432C118.308 29.552 118.392 29.684 118.416 29.828C118.452 29.972 118.488 30.194 118.524 30.494ZM121.321 29.27C121.885 28.97 122.353 28.82 122.725 28.82C123.133 28.82 123.361 29.03 123.409 29.45L122.689 32.132C123.481 30.992 124.219 30.206 124.903 29.774C125.587 29.33 126.199 29.108 126.739 29.108C127.375 29.108 127.837 29.228 128.125 29.468C128.425 29.696 128.581 30.062 128.593 30.566C128.185 31.67 127.843 32.72 127.567 33.716C127.303 34.712 127.171 35.63 127.171 36.47V36.884C127.171 37.22 127.075 37.442 126.883 37.55C126.703 37.646 126.337 37.694 125.785 37.694C125.569 37.694 125.365 37.658 125.173 37.586C124.993 37.514 124.903 37.394 124.903 37.226C124.903 36.746 125.011 36.044 125.227 35.12C125.443 34.196 125.683 33.284 125.947 32.384C126.223 31.484 126.361 31.058 126.361 31.106C126.361 30.938 126.265 30.854 126.073 30.854C125.821 30.854 125.413 31.076 124.849 31.52C124.285 31.964 123.709 32.66 123.121 33.608C122.533 34.544 122.065 35.72 121.717 37.136C121.705 37.208 121.681 37.34 121.645 37.532C121.609 37.724 121.513 37.862 121.357 37.946C121.201 38.018 120.949 38.054 120.601 38.054C120.205 38.054 119.911 38.012 119.719 37.928C119.527 37.844 119.431 37.664 119.431 37.388L119.971 35.084C120.115 34.46 120.301 33.668 120.529 32.708C120.757 31.736 121.021 30.59 121.321 29.27ZM132.066 32.06C132.342 31.52 132.72 31.058 133.2 30.674C133.692 30.29 134.19 29.996 134.694 29.792C135.198 29.588 135.612 29.486 135.936 29.486C136.56 29.486 137.01 29.606 137.286 29.846C137.562 30.074 137.7 30.44 137.7 30.944C136.992 32.792 136.524 34.784 136.296 36.92L136.548 37.802C136.404 38.078 136.212 38.294 135.972 38.45C135.732 38.618 135.366 38.702 134.874 38.702C134.586 38.702 134.376 38.606 134.244 38.414C134.112 38.222 134.046 37.982 134.046 37.694C134.046 36.89 134.16 36.008 134.388 35.048C134.628 34.076 134.904 33.086 135.216 32.078C135.336 31.694 135.396 31.496 135.396 31.484C135.396 31.316 135.3 31.232 135.108 31.232C134.856 31.232 134.49 31.418 134.01 31.79C133.53 32.162 133.032 32.792 132.516 33.68C132 34.556 131.568 35.708 131.22 37.136C131.208 37.196 131.178 37.322 131.13 37.514C131.082 37.706 130.974 37.844 130.806 37.928C130.638 38.012 130.38 38.054 130.032 38.054C129.612 38.054 129.288 38.012 129.06 37.928C128.832 37.832 128.718 37.652 128.718 37.388C130.29 31.208 131.262 27.344 131.634 25.796C131.622 25.64 131.61 25.436 131.598 25.184C131.598 24.92 131.598 24.716 131.598 24.572C131.634 24.404 131.76 24.278 131.976 24.194C132.204 24.098 132.432 24.05 132.66 24.05C133.044 24.05 133.368 24.152 133.632 24.356C133.896 24.56 134.04 24.818 134.064 25.13L132.066 32.06ZM149.619 28.01C149.439 28.334 149.163 28.496 148.791 28.496C148.599 28.496 148.449 28.466 148.341 28.406C148.233 28.346 148.179 28.262 148.179 28.154C148.179 28.07 148.275 27.674 148.467 26.966C148.515 26.774 148.617 26.63 148.773 26.534C148.929 26.438 149.157 26.342 149.457 26.246C149.757 26.15 149.979 26.054 150.123 25.958C150.267 25.85 150.339 25.688 150.339 25.472C150.339 25.376 150.285 25.286 150.177 25.202C150.081 25.118 149.913 25.076 149.673 25.076C149.421 25.076 149.229 25.106 149.097 25.166C148.977 25.214 148.911 25.244 148.899 25.256C148.887 25.268 148.833 25.298 148.737 25.346C148.653 25.382 148.545 25.4 148.413 25.4C148.293 25.4 148.185 25.34 148.089 25.22C148.005 25.1 147.963 24.974 147.963 24.842C147.963 24.494 148.155 24.254 148.539 24.122C148.935 23.99 149.397 23.924 149.925 23.924C150.441 23.924 150.897 24.038 151.293 24.266C151.689 24.494 151.887 24.83 151.887 25.274C151.887 25.73 151.743 26.096 151.455 26.372C151.167 26.636 150.795 26.858 150.339 27.038C150.123 27.122 149.973 27.224 149.889 27.344C149.805 27.464 149.745 27.59 149.709 27.722C149.673 27.842 149.643 27.938 149.619 28.01ZM150.303 37.064C150.327 37.376 150.369 37.658 150.429 37.91C150.405 37.982 150.297 38.054 150.105 38.126C149.925 38.198 149.769 38.234 149.637 38.234C149.205 38.234 148.893 38.168 148.701 38.036C148.521 37.916 148.431 37.73 148.431 37.478C148.431 37.238 148.455 36.998 148.503 36.758C148.239 37.118 147.849 37.418 147.333 37.658C146.829 37.886 146.421 38 146.109 38C145.305 38 144.633 37.766 144.093 37.298C143.565 36.83 143.301 36.08 143.301 35.048C143.301 34.076 143.529 33.164 143.985 32.312C144.453 31.448 145.095 30.758 145.911 30.242C146.727 29.714 147.633 29.45 148.629 29.45C148.821 29.45 149.073 29.504 149.385 29.612C149.697 29.708 150.009 29.882 150.321 30.134C150.645 30.374 150.915 30.686 151.131 31.07C151.227 31.07 151.341 31.118 151.473 31.214C151.605 31.31 151.671 31.406 151.671 31.502C151.671 31.61 151.653 31.718 151.617 31.826L150.303 37.064ZM149.493 32.024C149.421 31.76 149.277 31.538 149.061 31.358C148.857 31.178 148.671 31.088 148.503 31.088C147.951 31.088 147.429 31.286 146.937 31.682C146.457 32.066 146.067 32.546 145.767 33.122C145.467 33.698 145.317 34.244 145.317 34.76C145.317 35.264 145.377 35.678 145.497 36.002C145.617 36.326 145.851 36.488 146.199 36.488C146.499 36.488 146.841 36.398 147.225 36.218C147.621 36.038 147.969 35.798 148.269 35.498C148.581 35.186 148.785 34.862 148.881 34.526L149.493 32.024ZM153.597 29.774C153.561 29.738 153.543 29.696 153.543 29.648C153.543 29.528 153.675 29.432 153.939 29.36C154.203 29.276 154.569 29.234 155.037 29.234C155.469 29.234 155.787 29.348 155.991 29.576C156.195 29.792 156.315 30.056 156.351 30.368L156.027 31.538C156.279 31.19 156.633 30.86 157.089 30.548C157.545 30.224 158.007 29.966 158.475 29.774C158.943 29.582 159.327 29.486 159.627 29.486C160.263 29.486 160.725 29.606 161.013 29.846C161.301 30.074 161.445 30.44 161.445 30.944C160.737 32.792 160.269 34.784 160.041 36.92L160.293 37.802C160.149 38.078 159.945 38.294 159.681 38.45C159.429 38.618 159.057 38.702 158.565 38.702C158.277 38.702 158.067 38.606 157.935 38.414C157.803 38.222 157.737 37.982 157.737 37.694C157.737 36.89 157.851 36.008 158.079 35.048C158.319 34.076 158.595 33.086 158.907 32.078C159.027 31.694 159.087 31.496 159.087 31.484C159.087 31.316 158.991 31.232 158.799 31.232C158.535 31.232 158.133 31.418 157.593 31.79C157.065 32.162 156.519 32.792 155.955 33.68C155.391 34.556 154.935 35.708 154.587 37.136C154.563 37.208 154.533 37.34 154.497 37.532C154.461 37.724 154.365 37.862 154.209 37.946C154.053 38.018 153.801 38.054 153.453 38.054C153.057 38.054 152.763 38.012 152.571 37.928C152.391 37.844 152.301 37.664 152.301 37.388C152.337 37.22 152.391 37.016 152.463 36.776C153.159 33.98 153.693 31.826 154.065 30.314L153.597 29.774ZM164.92 32.06C165.196 31.52 165.544 31.058 165.964 30.674C166.384 30.278 166.81 29.984 167.242 29.792C167.686 29.588 168.064 29.486 168.376 29.486C169.12 29.486 169.702 29.672 170.122 30.044C170.554 30.416 170.77 30.866 170.77 31.394L169.42 36.92V37.046C169.42 37.67 169.324 38.102 169.132 38.342C168.952 38.582 168.604 38.702 168.088 38.702C167.812 38.702 167.578 38.612 167.386 38.432C167.206 38.252 167.116 38.048 167.116 37.82C167.116 37.748 167.122 37.694 167.134 37.658C167.446 36.338 167.704 35.264 167.908 34.436C168.028 33.92 168.172 33.302 168.34 32.582C168.52 31.862 168.61 31.478 168.61 31.43C168.61 31.262 168.514 31.178 168.322 31.178C168.046 31.178 167.662 31.304 167.17 31.556C166.678 31.796 166.144 32.258 165.568 32.942C165.004 33.626 164.524 34.562 164.128 35.75C163.96 36.266 163.834 36.716 163.75 37.1L163.732 37.172C163.684 37.388 163.63 37.556 163.57 37.676C163.51 37.784 163.396 37.874 163.228 37.946C163.072 38.018 162.826 38.054 162.49 38.054C161.722 38.054 161.338 37.784 161.338 37.244C161.374 37.076 161.452 36.836 161.572 36.524C161.68 36.284 161.77 36.026 161.842 35.75L164.632 25.508C164.68 25.34 164.812 25.202 165.028 25.094C165.244 24.974 165.46 24.914 165.676 24.914C166.036 24.914 166.288 25.01 166.432 25.202C166.588 25.394 166.678 25.658 166.702 25.994L164.92 32.06ZM185.695 27.74C184.495 32.348 183.799 35.144 183.607 36.128C183.535 36.488 183.499 36.764 183.499 36.956C183.499 37.28 183.535 37.598 183.607 37.91C183.583 37.982 183.487 38.054 183.319 38.126C183.163 38.198 183.019 38.234 182.887 38.234C182.647 38.234 182.383 38.204 182.095 38.144C181.807 38.084 181.627 38.018 181.555 37.946C181.447 37.85 181.393 37.658 181.393 37.37C181.393 37.154 181.417 36.95 181.465 36.758C181.213 37.118 180.829 37.418 180.313 37.658C179.809 37.886 179.401 38 179.089 38C177.253 38 176.335 37.01 176.335 35.03C176.335 34.166 176.527 33.302 176.911 32.438C177.307 31.574 177.865 30.86 178.585 30.296C179.317 29.732 180.163 29.45 181.123 29.45C181.387 29.45 181.681 29.558 182.005 29.774C182.329 29.978 182.593 30.212 182.797 30.476C182.857 30.212 183.025 29.522 183.301 28.406L183.409 27.974L181.591 28.172C181.507 28.184 181.399 28.19 181.267 28.19C180.799 28.19 180.547 28.028 180.511 27.704L180.493 27.488C180.493 27.176 180.595 26.936 180.799 26.768C181.003 26.588 181.357 26.474 181.861 26.426C182.077 26.402 182.233 26.39 182.329 26.39L183.859 26.228L184.237 24.662C184.285 24.482 184.423 24.338 184.651 24.23C184.891 24.11 185.143 24.05 185.407 24.05C185.623 24.05 185.857 24.098 186.109 24.194C186.361 24.29 186.487 24.428 186.487 24.608L186.145 25.976L186.343 25.958H186.451C187.075 25.958 187.411 26.192 187.459 26.66V26.75C187.459 27.014 187.369 27.224 187.189 27.38C187.009 27.524 186.751 27.614 186.415 27.65L185.695 27.74ZM182.401 32.15C182.329 31.886 182.155 31.646 181.879 31.43C181.615 31.202 181.399 31.088 181.231 31.088C180.679 31.088 180.163 31.268 179.683 31.628C179.203 31.988 178.819 32.456 178.531 33.032C178.255 33.608 178.117 34.202 178.117 34.814C178.117 35.27 178.201 35.678 178.369 36.038C178.537 36.398 178.795 36.578 179.143 36.578C179.443 36.578 179.791 36.482 180.187 36.29C180.595 36.086 180.955 35.828 181.267 35.516C181.579 35.192 181.771 34.862 181.843 34.526L182.401 32.15ZM189.049 38.378C187.873 38.378 187.015 38.144 186.475 37.676C185.935 37.208 185.665 36.584 185.665 35.804C185.665 34.664 185.947 33.608 186.511 32.636C187.087 31.664 187.849 30.896 188.797 30.332C189.757 29.756 190.789 29.468 191.893 29.468C192.565 29.468 193.129 29.66 193.585 30.044C194.041 30.416 194.269 30.968 194.269 31.7C194.269 32.12 194.131 32.468 193.855 32.744C193.591 33.008 193.207 33.248 192.703 33.464C192.199 33.668 191.383 33.962 190.255 34.346C189.235 34.682 188.407 34.964 187.771 35.192C187.723 35.372 187.699 35.558 187.699 35.75C187.699 36.086 187.837 36.344 188.113 36.524C188.401 36.704 188.803 36.794 189.319 36.794C189.643 36.794 190.015 36.728 190.435 36.596C190.855 36.464 191.119 36.296 191.227 36.092C191.635 35.348 192.007 34.976 192.343 34.976C192.835 34.976 193.165 35.072 193.333 35.264C193.513 35.444 193.609 35.648 193.621 35.876C193.477 36.26 193.195 36.65 192.775 37.046C192.355 37.43 191.821 37.748 191.173 38C190.525 38.252 189.817 38.378 189.049 38.378ZM188.275 33.536C189.463 33.152 190.441 32.798 191.209 32.474C191.977 32.138 192.361 31.808 192.361 31.484C192.361 31.34 192.283 31.226 192.127 31.142C191.971 31.046 191.803 30.998 191.623 30.998C191.263 30.998 190.849 31.136 190.381 31.412C189.925 31.688 189.499 32.024 189.103 32.42C188.707 32.816 188.431 33.188 188.275 33.536ZM188.383 41.87C188.107 41.87 187.843 41.756 187.591 41.528C187.339 41.312 187.213 41.066 187.213 40.79C187.213 40.382 187.381 40.028 187.717 39.728C188.053 39.428 188.425 39.278 188.833 39.278C189.133 39.278 189.403 39.404 189.643 39.656C189.883 39.92 190.003 40.202 190.003 40.502C190.003 40.886 189.841 41.21 189.517 41.474C189.193 41.738 188.815 41.87 188.383 41.87ZM197.035 37.208C197.023 37.28 196.879 37.874 196.603 38.99C196.327 40.106 196.129 40.826 196.009 41.15C195.961 41.282 195.817 41.378 195.577 41.438C195.337 41.51 195.163 41.546 195.055 41.546C194.539 41.546 194.263 41.216 194.227 40.556C194.419 39.2 194.749 37.442 195.217 35.282C195.697 33.11 196.135 31.25 196.531 29.702C196.543 29.522 196.645 29.348 196.837 29.18C197.041 29 197.221 28.91 197.377 28.91C197.485 28.91 197.587 28.904 197.683 28.892C197.791 28.868 197.887 28.856 197.971 28.856C198.127 28.856 198.241 28.904 198.313 29C198.385 29.096 198.421 29.282 198.421 29.558C198.421 29.858 198.379 30.254 198.295 30.746C198.595 30.278 198.925 29.93 199.285 29.702C199.645 29.474 199.993 29.36 200.329 29.36C201.001 29.36 201.595 29.54 202.111 29.9C202.627 30.248 203.023 30.716 203.299 31.304C203.575 31.892 203.713 32.528 203.713 33.212C203.713 34.04 203.533 34.844 203.173 35.624C202.813 36.404 202.291 37.04 201.607 37.532C200.923 38.024 200.131 38.27 199.231 38.27C198.919 38.27 198.517 38.168 198.025 37.964C197.533 37.748 197.203 37.496 197.035 37.208ZM197.539 34.922C197.527 34.994 197.521 35.096 197.521 35.228C197.533 35.528 197.635 35.792 197.827 36.02C198.019 36.248 198.241 36.428 198.493 36.56C198.745 36.68 198.955 36.74 199.123 36.74C199.615 36.74 200.053 36.566 200.437 36.218C200.833 35.87 201.139 35.432 201.355 34.904C201.571 34.364 201.679 33.818 201.679 33.266C201.679 31.73 201.121 30.962 200.005 30.962C199.465 30.962 199.039 31.148 198.727 31.52C198.415 31.892 198.139 32.51 197.899 33.374L197.539 34.922ZM211.293 38.378C210.885 38.294 210.597 38.21 210.429 38.126C210.261 38.042 210.153 37.928 210.105 37.784C210.057 37.64 210.027 37.394 210.015 37.046C209.979 36.23 209.925 35.42 209.853 34.616C209.841 34.424 209.805 33.854 209.745 32.906C209.685 31.958 209.655 31.058 209.655 30.206C209.655 29.99 209.763 29.81 209.979 29.666C210.207 29.522 210.489 29.45 210.825 29.45C211.473 29.45 211.797 29.744 211.797 30.332L211.815 35.264V36.524C212.619 35.012 213.525 33.452 214.533 31.844C215.553 30.236 216.213 29.432 216.513 29.432C216.897 29.432 217.221 29.51 217.485 29.666C217.749 29.81 217.887 29.978 217.899 30.17C217.791 30.374 217.557 30.746 217.197 31.286C217.053 31.49 216.795 31.886 216.423 32.474L215.793 33.464C214.785 35.036 214.083 36.116 213.687 36.704C213.291 37.28 212.955 37.694 212.679 37.946C212.547 38.066 212.355 38.168 212.103 38.252C211.851 38.336 211.581 38.378 211.293 38.378ZM224.682 27.47C224.718 27.518 224.736 27.59 224.736 27.686C224.736 27.89 224.682 28.034 224.574 28.118C224.466 28.202 224.298 28.244 224.07 28.244C223.758 28.244 223.41 28.148 223.026 27.956C222.642 27.752 222.084 27.392 221.352 26.876C220.836 26.516 220.494 26.258 220.326 26.102C220.158 25.946 220.074 25.79 220.074 25.634C220.074 25.442 220.236 25.232 220.56 25.004C220.884 24.776 221.172 24.662 221.424 24.662C221.556 24.662 221.85 24.842 222.306 25.202C222.774 25.55 223.242 25.952 223.71 26.408C224.19 26.864 224.514 27.218 224.682 27.47ZM224.448 37.064C224.472 37.376 224.514 37.658 224.574 37.91C224.55 37.982 224.442 38.054 224.25 38.126C224.07 38.198 223.914 38.234 223.782 38.234C223.35 38.234 223.038 38.168 222.846 38.036C222.666 37.916 222.576 37.73 222.576 37.478C222.576 37.238 222.6 36.998 222.648 36.758C222.384 37.118 221.994 37.418 221.478 37.658C220.974 37.886 220.566 38 220.254 38C219.45 38 218.778 37.766 218.238 37.298C217.71 36.83 217.446 36.08 217.446 35.048C217.446 34.076 217.674 33.164 218.13 32.312C218.598 31.448 219.24 30.758 220.056 30.242C220.872 29.714 221.778 29.45 222.774 29.45C222.966 29.45 223.218 29.504 223.53 29.612C223.842 29.708 224.154 29.882 224.466 30.134C224.79 30.374 225.06 30.686 225.276 31.07C225.372 31.07 225.486 31.118 225.618 31.214C225.75 31.31 225.816 31.406 225.816 31.502C225.816 31.61 225.798 31.718 225.762 31.826L224.448 37.064ZM223.638 32.024C223.566 31.76 223.422 31.538 223.206 31.358C223.002 31.178 222.816 31.088 222.648 31.088C222.096 31.088 221.574 31.286 221.082 31.682C220.602 32.066 220.212 32.546 219.912 33.122C219.612 33.698 219.462 34.244 219.462 34.76C219.462 35.264 219.522 35.678 219.642 36.002C219.762 36.326 219.996 36.488 220.344 36.488C220.644 36.488 220.986 36.398 221.37 36.218C221.766 36.038 222.114 35.798 222.414 35.498C222.726 35.186 222.93 34.862 223.026 34.526L223.638 32.024ZM238.501 36.362C238.285 36.974 237.859 37.466 237.223 37.838C236.587 38.198 235.699 38.378 234.559 38.378C233.767 38.378 233.113 38.24 232.597 37.964C232.081 37.688 231.703 37.328 231.463 36.884C231.223 36.44 231.103 35.96 231.103 35.444C231.103 34.292 231.331 33.266 231.787 32.366C232.243 31.454 232.885 30.746 233.713 30.242C234.553 29.726 235.525 29.468 236.629 29.468C237.325 29.468 237.925 29.672 238.429 30.08C238.933 30.488 239.185 31.028 239.185 31.7C239.185 31.964 239.089 32.186 238.897 32.366C238.717 32.534 238.453 32.618 238.105 32.618C237.817 32.618 237.613 32.546 237.493 32.402C237.373 32.246 237.313 32.066 237.313 31.862C237.313 31.598 237.223 31.388 237.043 31.232C236.863 31.076 236.635 30.998 236.359 30.998C235.999 30.998 235.567 31.19 235.063 31.574C234.571 31.958 234.145 32.492 233.785 33.176C233.437 33.848 233.263 34.604 233.263 35.444C233.263 35.816 233.401 36.134 233.677 36.398C233.953 36.662 234.337 36.794 234.829 36.794C235.237 36.794 235.567 36.716 235.819 36.56C236.071 36.404 236.341 36.182 236.629 35.894C236.809 35.714 236.959 35.582 237.079 35.498C237.199 35.414 237.325 35.372 237.457 35.372C237.745 35.372 237.979 35.456 238.159 35.624C238.339 35.78 238.453 36.026 238.501 36.362ZM242.623 33.626C243.283 32.138 243.949 31.076 244.621 30.44C245.293 29.804 245.893 29.486 246.421 29.486C247.165 29.486 247.753 29.672 248.185 30.044C248.629 30.416 248.857 30.866 248.869 31.394L247.375 37.352C247.279 37.724 247.177 37.994 247.069 38.162C246.961 38.342 246.841 38.45 246.709 38.486C246.577 38.534 246.391 38.558 246.151 38.558C245.863 38.558 245.623 38.486 245.431 38.342C245.251 38.21 245.161 38.036 245.161 37.82C245.161 37.748 245.167 37.694 245.179 37.658C245.311 37.07 245.635 35.696 246.151 33.536C246.487 32.228 246.655 31.526 246.655 31.43C246.655 31.262 246.571 31.178 246.403 31.178C246.271 31.178 245.869 31.532 245.197 32.24C244.525 32.948 243.865 33.74 243.217 34.616C242.581 35.492 242.173 36.236 241.993 36.848C241.981 36.896 241.963 36.968 241.939 37.064C241.915 37.148 241.897 37.214 241.885 37.262C241.837 37.454 241.783 37.604 241.723 37.712C241.663 37.808 241.549 37.892 241.381 37.964C241.225 38.024 240.991 38.054 240.679 38.054C240.331 38.054 240.073 37.988 239.905 37.856C239.749 37.724 239.665 37.514 239.653 37.226C239.821 36.566 239.935 36.074 239.995 35.75L242.803 24.59C242.851 24.422 242.977 24.284 243.181 24.176C243.397 24.056 243.613 23.996 243.829 23.996C244.189 23.996 244.447 24.092 244.603 24.284C244.759 24.476 244.855 24.74 244.891 25.076L242.623 33.626ZM256.887 37.946C256.839 38.15 256.731 38.288 256.563 38.36C256.395 38.444 256.173 38.486 255.897 38.486C255.069 38.486 254.655 38.3 254.655 37.928L254.763 37.244C254.427 37.496 254.031 37.748 253.575 38C253.119 38.252 252.741 38.378 252.441 38.378C250.665 38.378 249.777 37.796 249.777 36.632C249.777 34.652 250.371 32.504 251.559 30.188C251.703 29.912 251.853 29.714 252.009 29.594C252.177 29.474 252.459 29.414 252.855 29.414C253.275 29.414 253.587 29.474 253.791 29.594C254.007 29.702 254.115 29.834 254.115 29.99C254.115 30.026 254.049 30.134 253.917 30.314C253.785 30.47 253.671 30.626 253.575 30.782C252.447 32.666 251.883 34.502 251.883 36.29C251.883 36.446 251.943 36.584 252.063 36.704C252.183 36.824 252.291 36.884 252.387 36.884C252.651 36.884 253.095 36.758 253.719 36.506C254.355 36.254 254.841 35.996 255.177 35.732L255.537 34.274C255.969 32.534 256.239 31.466 256.347 31.07C256.479 30.59 256.647 30.2 256.851 29.9C257.067 29.588 257.403 29.432 257.859 29.432C258.495 29.432 258.813 29.624 258.813 30.008C258.813 30.068 258.795 30.146 258.759 30.242C258.735 30.326 258.717 30.398 258.705 30.458L257.985 33.374C257.409 35.69 257.043 37.214 256.887 37.946ZM264.395 37.244C263.987 37.628 263.591 37.91 263.207 38.09C262.823 38.282 262.391 38.378 261.911 38.378C261.119 38.378 260.507 38.132 260.075 37.64C259.655 37.148 259.445 36.494 259.445 35.678C259.445 35.438 259.481 35.174 259.553 34.886L260.759 30.188C260.831 29.924 260.957 29.732 261.137 29.612C261.329 29.48 261.635 29.414 262.055 29.414C262.679 29.414 262.991 29.588 262.991 29.936C262.991 30.08 262.949 30.308 262.865 30.62L261.659 35.444C261.623 35.588 261.605 35.732 261.605 35.876C261.605 36.128 261.671 36.332 261.803 36.488C261.935 36.644 262.145 36.722 262.433 36.722C262.805 36.722 263.207 36.614 263.639 36.398C264.071 36.182 264.437 35.918 264.737 35.606L265.079 34.184C265.307 33.224 265.571 32.186 265.871 31.07C266.003 30.59 266.171 30.2 266.375 29.9C266.591 29.588 266.927 29.432 267.383 29.432C268.019 29.432 268.337 29.624 268.337 30.008C268.337 30.068 268.319 30.146 268.283 30.242C268.259 30.326 268.241 30.398 268.229 30.458L267.635 32.924C267.011 35.54 266.603 37.214 266.411 37.946C266.099 39.146 265.745 40.088 265.349 40.772C264.953 41.456 264.455 41.948 263.855 42.248C263.267 42.548 262.511 42.698 261.587 42.698C260.999 42.698 260.513 42.614 260.129 42.446C259.757 42.278 259.481 42.074 259.301 41.834C259.133 41.594 259.049 41.372 259.049 41.168C259.049 40.58 259.373 40.286 260.021 40.286C260.201 40.286 260.345 40.322 260.453 40.394C260.573 40.466 260.693 40.568 260.813 40.7C260.993 40.868 261.155 40.994 261.299 41.078C261.455 41.162 261.665 41.204 261.929 41.204C262.133 41.204 262.361 41.12 262.613 40.952C262.865 40.784 263.111 40.52 263.351 40.16C263.591 39.8 263.789 39.35 263.945 38.81L264.395 37.244ZM274.881 24.896C275.121 24.896 275.331 24.956 275.511 25.076C275.703 25.184 275.937 25.418 276.213 25.778L277.131 26.966C277.251 27.122 277.311 27.272 277.311 27.416C277.311 27.608 277.215 27.776 277.023 27.92C276.843 28.052 276.627 28.118 276.375 28.118C276.135 28.118 275.907 27.992 275.691 27.74L274.701 26.552C273.981 27.176 273.447 27.614 273.099 27.866C272.763 28.118 272.517 28.244 272.361 28.244C272.121 28.244 271.905 28.19 271.713 28.082C271.533 27.974 271.443 27.83 271.443 27.65C271.443 27.518 271.461 27.398 271.497 27.29C271.545 27.182 271.653 27.062 271.821 26.93L272.217 26.606C273.117 25.862 273.735 25.364 274.071 25.112C274.251 24.968 274.521 24.896 274.881 24.896ZM271.965 38.378C270.789 38.378 269.931 38.144 269.391 37.676C268.851 37.208 268.581 36.584 268.581 35.804C268.581 34.664 268.863 33.608 269.427 32.636C270.003 31.664 270.765 30.896 271.713 30.332C272.673 29.756 273.705 29.468 274.809 29.468C275.481 29.468 276.045 29.66 276.501 30.044C276.957 30.416 277.185 30.968 277.185 31.7C277.185 32.12 277.047 32.468 276.771 32.744C276.507 33.008 276.123 33.248 275.619 33.464C275.115 33.668 274.299 33.962 273.171 34.346C272.151 34.682 271.323 34.964 270.687 35.192C270.639 35.372 270.615 35.558 270.615 35.75C270.615 36.086 270.753 36.344 271.029 36.524C271.317 36.704 271.719 36.794 272.235 36.794C272.559 36.794 272.931 36.728 273.351 36.596C273.771 36.464 274.035 36.296 274.143 36.092C274.551 35.348 274.923 34.976 275.259 34.976C275.751 34.976 276.081 35.072 276.249 35.264C276.429 35.444 276.525 35.648 276.537 35.876C276.393 36.26 276.111 36.65 275.691 37.046C275.271 37.43 274.737 37.748 274.089 38C273.441 38.252 272.733 38.378 271.965 38.378ZM271.191 33.536C272.379 33.152 273.357 32.798 274.125 32.474C274.893 32.138 275.277 31.808 275.277 31.484C275.277 31.34 275.199 31.226 275.043 31.142C274.887 31.046 274.719 30.998 274.539 30.998C274.179 30.998 273.765 31.136 273.297 31.412C272.841 31.688 272.415 32.024 272.019 32.42C271.623 32.816 271.347 33.188 271.191 33.536ZM279.807 29.27C280.395 28.97 280.863 28.82 281.211 28.82C281.619 28.82 281.847 29.03 281.895 29.45L281.301 31.664C281.553 31.316 281.925 30.974 282.417 30.638C282.909 30.302 283.401 30.026 283.893 29.81C284.397 29.594 284.799 29.486 285.099 29.486C285.735 29.486 286.197 29.606 286.485 29.846C286.773 30.074 286.917 30.44 286.917 30.944C286.797 31.616 286.617 32.426 286.377 33.374C286.137 34.31 285.987 34.904 285.927 35.156C285.663 36.14 285.477 36.878 285.369 37.37C285.297 37.67 285.225 37.88 285.153 38C285.093 38.108 284.979 38.186 284.811 38.234C284.655 38.282 284.379 38.306 283.983 38.306C283.767 38.306 283.563 38.27 283.371 38.198C283.191 38.126 283.101 38.006 283.101 37.838C283.137 37.442 283.257 36.836 283.461 36.02C283.677 35.192 283.965 34.124 284.325 32.816C284.565 32 284.685 31.556 284.685 31.484C284.685 31.316 284.589 31.232 284.397 31.232C284.121 31.232 283.707 31.424 283.155 31.808C282.603 32.18 282.033 32.81 281.445 33.698C280.857 34.574 280.395 35.72 280.059 37.136C280.035 37.208 280.005 37.34 279.969 37.532C279.933 37.724 279.837 37.862 279.681 37.946C279.525 38.018 279.273 38.054 278.925 38.054C278.529 38.054 278.235 38.012 278.043 37.928C277.863 37.844 277.773 37.664 277.773 37.388L277.971 36.614C278.679 33.842 279.291 31.394 279.807 29.27ZM294.096 29.27C294.66 28.97 295.128 28.82 295.5 28.82C295.908 28.82 296.136 29.03 296.184 29.45L295.464 32.132C296.256 30.992 296.994 30.206 297.678 29.774C298.362 29.33 298.974 29.108 299.514 29.108C300.15 29.108 300.612 29.228 300.9 29.468C301.2 29.696 301.356 30.062 301.368 30.566C300.96 31.67 300.618 32.72 300.342 33.716C300.078 34.712 299.946 35.63 299.946 36.47V36.884C299.946 37.22 299.85 37.442 299.658 37.55C299.478 37.646 299.112 37.694 298.56 37.694C298.344 37.694 298.14 37.658 297.948 37.586C297.768 37.514 297.678 37.394 297.678 37.226C297.678 36.746 297.786 36.044 298.002 35.12C298.218 34.196 298.458 33.284 298.722 32.384C298.998 31.484 299.136 31.058 299.136 31.106C299.136 30.938 299.04 30.854 298.848 30.854C298.596 30.854 298.188 31.076 297.624 31.52C297.06 31.964 296.484 32.66 295.896 33.608C295.308 34.544 294.84 35.72 294.492 37.136C294.48 37.208 294.456 37.34 294.42 37.532C294.384 37.724 294.288 37.862 294.132 37.946C293.976 38.018 293.724 38.054 293.376 38.054C292.98 38.054 292.686 38.012 292.494 37.928C292.302 37.844 292.206 37.664 292.206 37.388L292.746 35.084C292.89 34.46 293.076 33.668 293.304 32.708C293.532 31.736 293.796 30.59 294.096 29.27ZM304.05 42.086C303.498 42.086 302.976 41.966 302.484 41.726C302.004 41.486 301.602 41.174 301.278 40.79C300.942 40.418 300.702 40.04 300.558 39.656C300.57 39.44 300.678 39.224 300.882 39.008C301.074 38.804 301.416 38.702 301.908 38.702C302.064 38.702 302.196 38.762 302.304 38.882C302.424 39.002 302.556 39.194 302.7 39.458C302.892 39.818 303.09 40.094 303.294 40.286C303.51 40.49 303.804 40.592 304.176 40.592C304.596 40.592 304.998 40.424 305.382 40.088C305.778 39.764 306.114 39.32 306.39 38.756C306.678 38.192 306.876 37.568 306.984 36.884C306.72 37.244 306.414 37.52 306.066 37.712C305.73 37.904 305.412 38 305.112 38C304.152 38 303.39 37.79 302.826 37.37C302.274 36.938 301.998 36.176 301.998 35.084C301.998 34.1 302.268 33.182 302.808 32.33C303.36 31.478 304.092 30.8 305.004 30.296C305.916 29.792 306.894 29.54 307.938 29.54C308.622 29.54 309.126 29.678 309.45 29.954C309.786 30.23 309.99 30.578 310.062 30.998C310.266 31.094 310.374 31.19 310.386 31.286C310.386 31.322 310.362 31.448 310.314 31.664C310.086 32.648 309.606 34.592 308.874 37.496L308.676 38.288C308.376 39.452 307.8 40.376 306.948 41.06C306.108 41.744 305.142 42.086 304.05 42.086ZM308.118 31.394C308.022 31.226 307.926 31.118 307.83 31.07C307.746 31.022 307.614 30.998 307.434 30.998C306.87 30.998 306.324 31.184 305.796 31.556C305.268 31.916 304.842 32.39 304.518 32.978C304.194 33.554 304.032 34.148 304.032 34.76C304.032 35.204 304.11 35.588 304.266 35.912C304.434 36.236 304.698 36.422 305.058 36.47C305.538 36.386 305.988 36.17 306.408 35.822C306.84 35.474 307.134 35.024 307.29 34.472L308.118 31.394ZM313.929 32.06C314.205 31.52 314.553 31.058 314.973 30.674C315.393 30.278 315.819 29.984 316.251 29.792C316.695 29.588 317.073 29.486 317.385 29.486C318.129 29.486 318.711 29.672 319.131 30.044C319.563 30.416 319.779 30.866 319.779 31.394L318.429 36.92V37.046C318.429 37.67 318.333 38.102 318.141 38.342C317.961 38.582 317.613 38.702 317.097 38.702C316.821 38.702 316.587 38.612 316.395 38.432C316.215 38.252 316.125 38.048 316.125 37.82C316.125 37.748 316.131 37.694 316.143 37.658C316.455 36.338 316.713 35.264 316.917 34.436C317.037 33.92 317.181 33.302 317.349 32.582C317.529 31.862 317.619 31.478 317.619 31.43C317.619 31.262 317.523 31.178 317.331 31.178C317.055 31.178 316.671 31.304 316.179 31.556C315.687 31.796 315.153 32.258 314.577 32.942C314.013 33.626 313.533 34.562 313.137 35.75C312.969 36.266 312.843 36.716 312.759 37.1L312.741 37.172C312.693 37.388 312.639 37.556 312.579 37.676C312.519 37.784 312.405 37.874 312.237 37.946C312.081 38.018 311.835 38.054 311.499 38.054C310.731 38.054 310.347 37.784 310.347 37.244C310.383 37.076 310.461 36.836 310.581 36.524C310.689 36.284 310.779 36.026 310.851 35.75L313.641 25.508C313.689 25.34 313.821 25.202 314.037 25.094C314.253 24.974 314.469 24.914 314.685 24.914C315.045 24.914 315.297 25.01 315.441 25.202C315.597 25.394 315.687 25.658 315.711 25.994L313.929 32.06ZM322.685 27.308C322.685 26.936 322.799 26.606 323.027 26.318C323.267 26.03 323.597 25.886 324.017 25.886C324.461 25.886 324.845 26.024 325.169 26.3C325.505 26.576 325.673 26.888 325.673 27.236C325.673 27.584 325.505 27.884 325.169 28.136C324.833 28.388 324.443 28.514 323.999 28.514C323.567 28.514 323.237 28.406 323.009 28.19C322.793 27.962 322.685 27.668 322.685 27.308ZM324.575 30.494C323.939 33.086 323.453 35.036 323.117 36.344C323.069 36.536 323.045 36.746 323.045 36.974L323.063 37.478C323.063 37.682 322.997 37.826 322.865 37.91C322.745 37.994 322.481 38.042 322.073 38.054C321.677 38.054 321.377 38.012 321.173 37.928C320.969 37.844 320.867 37.664 320.867 37.388C320.867 37.256 321.017 36.554 321.317 35.282C321.629 34.01 322.049 32.354 322.577 30.314L322.163 29.774C322.127 29.738 322.109 29.696 322.109 29.648C322.109 29.528 322.241 29.432 322.505 29.36C322.769 29.276 323.135 29.234 323.603 29.234C324.011 29.234 324.269 29.354 324.377 29.594C324.497 29.822 324.563 30.122 324.575 30.494ZM331.889 25.022C332.129 25.022 332.339 25.082 332.519 25.202C332.711 25.31 332.945 25.544 333.221 25.904L334.139 27.092C334.259 27.248 334.319 27.398 334.319 27.542C334.319 27.734 334.223 27.902 334.031 28.046C333.851 28.178 333.635 28.244 333.383 28.244C333.143 28.244 332.915 28.118 332.699 27.866L331.709 26.678C330.989 27.302 330.455 27.74 330.107 27.992C329.771 28.244 329.525 28.37 329.369 28.37C329.129 28.37 328.913 28.316 328.721 28.208C328.541 28.1 328.451 27.956 328.451 27.776C328.451 27.644 328.469 27.524 328.505 27.416C328.553 27.308 328.661 27.188 328.829 27.056L329.225 26.732C330.125 25.988 330.743 25.49 331.079 25.238C331.259 25.094 331.529 25.022 331.889 25.022ZM328.865 38.378C327.689 38.378 326.831 38.144 326.291 37.676C325.751 37.208 325.481 36.584 325.481 35.804C325.481 34.664 325.763 33.608 326.327 32.636C326.903 31.664 327.665 30.896 328.613 30.332C329.573 29.756 330.605 29.468 331.709 29.468C332.381 29.468 332.945 29.66 333.401 30.044C333.857 30.416 334.085 30.968 334.085 31.7C334.085 32.12 333.947 32.468 333.671 32.744C333.407 33.008 333.023 33.248 332.519 33.464C332.015 33.668 331.199 33.962 330.071 34.346C329.051 34.682 328.223 34.964 327.587 35.192C327.539 35.372 327.515 35.558 327.515 35.75C327.515 36.086 327.653 36.344 327.929 36.524C328.217 36.704 328.619 36.794 329.135 36.794C329.459 36.794 329.831 36.728 330.251 36.596C330.671 36.464 330.935 36.296 331.043 36.092C331.451 35.348 331.823 34.976 332.159 34.976C332.651 34.976 332.981 35.072 333.149 35.264C333.329 35.444 333.425 35.648 333.437 35.876C333.293 36.26 333.011 36.65 332.591 37.046C332.171 37.43 331.637 37.748 330.989 38C330.341 38.252 329.633 38.378 328.865 38.378ZM328.091 33.536C329.279 33.152 330.257 32.798 331.025 32.474C331.793 32.138 332.177 31.808 332.177 31.484C332.177 31.34 332.099 31.226 331.943 31.142C331.787 31.046 331.619 30.998 331.439 30.998C331.079 30.998 330.665 31.136 330.197 31.412C329.741 31.688 329.315 32.024 328.919 32.42C328.523 32.816 328.247 33.188 328.091 33.536ZM328.505 41.87C328.229 41.87 327.965 41.756 327.713 41.528C327.461 41.312 327.335 41.066 327.335 40.79C327.335 40.382 327.503 40.028 327.839 39.728C328.175 39.428 328.547 39.278 328.955 39.278C329.255 39.278 329.525 39.404 329.765 39.656C330.005 39.92 330.125 40.202 330.125 40.502C330.125 40.886 329.963 41.21 329.639 41.474C329.315 41.738 328.937 41.87 328.505 41.87ZM336.834 37.208C336.822 37.28 336.66 37.934 336.348 39.17C336.048 40.418 335.838 41.204 335.718 41.528C335.67 41.66 335.526 41.756 335.286 41.816C335.046 41.888 334.872 41.924 334.764 41.924C334.5 41.924 334.284 41.84 334.116 41.672C333.936 41.504 333.84 41.252 333.828 40.916L335.088 35.75C335.568 33.866 335.964 32.258 336.276 30.926C336.276 30.854 336.234 30.662 336.15 30.35C336.114 30.158 336.078 29.978 336.042 29.81C336.006 29.642 335.982 29.516 335.97 29.432C335.994 29.276 336.114 29.15 336.33 29.054C336.558 28.958 336.768 28.91 336.96 28.91C337.248 28.91 337.53 29.012 337.806 29.216C338.094 29.42 338.256 29.666 338.292 29.954L338.238 30.422C338.778 29.75 339.468 29.414 340.308 29.414C340.992 29.414 341.58 29.582 342.072 29.918C342.576 30.242 342.96 30.686 343.224 31.25C343.488 31.802 343.62 32.414 343.62 33.086C343.62 33.986 343.446 34.832 343.098 35.624C342.75 36.416 342.228 37.058 341.532 37.55C340.836 38.03 339.996 38.27 339.012 38.27C338.7 38.27 338.298 38.168 337.806 37.964C337.314 37.748 336.99 37.496 336.834 37.208ZM337.392 34.922C337.368 35.066 337.356 35.168 337.356 35.228C337.368 35.528 337.464 35.792 337.644 36.02C337.836 36.248 338.058 36.428 338.31 36.56C338.562 36.68 338.772 36.74 338.94 36.74C339.468 36.74 339.93 36.542 340.326 36.146C340.734 35.738 341.046 35.24 341.262 34.652C341.478 34.052 341.586 33.482 341.586 32.942C341.586 32.438 341.448 31.994 341.172 31.61C340.908 31.214 340.572 31.016 340.164 31.016C339.708 31.016 339.33 31.118 339.03 31.322C338.742 31.514 338.412 31.814 338.04 32.222L337.392 34.922ZM345.911 38.594C345.575 38.594 345.281 38.492 345.029 38.288C344.789 38.084 344.669 37.844 344.669 37.568C344.669 37.16 344.843 36.806 345.191 36.506C345.539 36.206 345.917 36.056 346.325 36.056C346.685 36.056 346.979 36.17 347.207 36.398C347.447 36.626 347.567 36.896 347.567 37.208C347.567 37.58 347.399 37.904 347.063 38.18C346.727 38.456 346.343 38.594 345.911 38.594Z" fill="white"/>
</svg>
