<svg width="40" height="20" viewBox="0 0 40 20" fill="none" xmlns="http://www.w3.org/2000/svg">
<path d="M22 17.3333C22 16.2307 21.1027 15.3333 20 15.3333C18.8973 15.3333 18 16.2307 18 17.3333C18 18.436 18.8973 19.3333 20 19.3333C21.1027 19.3333 22 18.436 22 17.3333ZM19.3333 17.3333C19.3333 16.9653 19.632 16.6667 20 16.6667C20.368 16.6667 20.6667 16.9653 20.6667 17.3333C20.6667 17.7013 20.368 18 20 18C19.632 18 19.3333 17.7013 19.3333 17.3333Z" fill="#A943F9"/>
<path d="M19.3333 17.3333C19.3333 16.9653 19.632 16.6667 20 16.6667C20.368 16.6667 20.6667 16.9653 20.6667 17.3333C20.6667 17.7013 20.368 18 20 18C19.632 18 19.3333 17.7013 19.3333 17.3333Z" fill="#A943F9"/>
<path d="M28 14C28 12.8973 27.1027 12 26 12C24.8973 12 24 12.8973 24 14C24 15.1027 24.8973 16 26 16C27.1027 16 28 15.1027 28 14ZM25.3333 14C25.3333 13.632 25.632 13.3333 26 13.3333C26.368 13.3333 26.6667 13.632 26.6667 14C26.6667 14.368 26.368 14.6667 26 14.6667C25.632 14.6667 25.3333 14.368 25.3333 14Z" fill="#A943F9"/>
<path d="M25.3333 14C25.3333 13.632 25.632 13.3333 26 13.3333C26.368 13.3333 26.6667 13.632 26.6667 14C26.6667 14.368 26.368 14.6667 26 14.6667C25.632 14.6667 25.3333 14.368 25.3333 14Z" fill="#A943F9"/>
<path d="M34 10.6667C34 9.564 33.1027 8.66667 32 8.66667C30.8973 8.66667 30 9.564 30 10.6667C30 11.7693 30.8973 12.6667 32 12.6667C33.1027 12.6667 34 11.7693 34 10.6667ZM31.3333 10.6667C31.3333 10.2987 31.632 10 32 10C32.368 10 32.6667 10.2987 32.6667 10.6667C32.6667 11.0347 32.368 11.3333 32 11.3333C31.632 11.3333 31.3333 11.0347 31.3333 10.6667Z" fill="#A943F9"/>
<path d="M31.3333 10.6667C31.3333 10.2987 31.632 10 32 10C32.368 10 32.6667 10.2987 32.6667 10.6667C32.6667 11.0347 32.368 11.3333 32 11.3333C31.632 11.3333 31.3333 11.0347 31.3333 10.6667Z" fill="#A943F9"/>
<path d="M40 7.33334C40 6.23067 39.1027 5.33333 38 5.33333C36.8973 5.33333 36 6.23067 36 7.33333C36 8.436 36.8973 9.33333 38 9.33333C39.1027 9.33333 40 8.436 40 7.33334ZM37.3333 7.33333C37.3333 6.96533 37.632 6.66667 38 6.66667C38.368 6.66667 38.6667 6.96533 38.6667 7.33333C38.6667 7.70133 38.368 8 38 8C37.632 8 37.3333 7.70133 37.3333 7.33333Z" fill="#A943F9"/>
<path d="M37.3333 7.33333C37.3333 6.96533 37.632 6.66667 38 6.66667C38.368 6.66667 38.6667 6.96533 38.6667 7.33333C38.6667 7.70133 38.368 8 38 8C37.632 8 37.3333 7.70133 37.3333 7.33333Z" fill="#A943F9"/>
<path d="M16 14C16 12.8973 15.1027 12 14 12C12.8973 12 12 12.8973 12 14C12 15.1027 12.8973 16 14 16C15.1027 16 16 15.1027 16 14ZM13.3333 14C13.3333 13.632 13.632 13.3333 14 13.3333C14.368 13.3333 14.6667 13.632 14.6667 14C14.6667 14.368 14.368 14.6667 14 14.6667C13.632 14.6667 13.3333 14.368 13.3333 14Z" fill="#A943F9"/>
<path d="M13.3333 14C13.3333 13.632 13.632 13.3333 14 13.3333C14.368 13.3333 14.6667 13.632 14.6667 14C14.6667 14.368 14.368 14.6667 14 14.6667C13.632 14.6667 13.3333 14.368 13.3333 14Z" fill="#A943F9"/>
<path d="M10 10.6667C10 9.564 9.10267 8.66667 8 8.66667C6.89733 8.66667 6 9.564 6 10.6667C6 11.7693 6.89733 12.6667 8 12.6667C9.10267 12.6667 10 11.7693 10 10.6667ZM7.33333 10.6667C7.33333 10.2987 7.632 10 8 10C8.368 10 8.66667 10.2987 8.66667 10.6667C8.66667 11.0347 8.368 11.3333 8 11.3333C7.632 11.3333 7.33333 11.0347 7.33333 10.6667Z" fill="#A943F9"/>
<path d="M7.33333 10.6667C7.33333 10.2987 7.632 10 8 10C8.368 10 8.66667 10.2987 8.66667 10.6667C8.66667 11.0347 8.368 11.3333 8 11.3333C7.632 11.3333 7.33333 11.0347 7.33333 10.6667Z" fill="#A943F9"/>
<path d="M4 7.33333C4 6.23067 3.10267 5.33333 2 5.33333C0.897333 5.33333 4.81991e-08 6.23067 0 7.33333C-4.81991e-08 8.436 0.897333 9.33333 2 9.33333C3.10267 9.33333 4 8.436 4 7.33333ZM1.33333 7.33333C1.33333 6.96533 1.632 6.66667 2 6.66667C2.368 6.66667 2.66667 6.96533 2.66667 7.33333C2.66667 7.70133 2.368 8 2 8C1.632 8 1.33333 7.70133 1.33333 7.33333Z" fill="#A943F9"/>
<path d="M1.33333 7.33333C1.33333 6.96533 1.632 6.66667 2 6.66667C2.368 6.66667 2.66667 6.96533 2.66667 7.33333C2.66667 7.70133 2.368 8 2 8C1.632 8 1.33333 7.70133 1.33333 7.33333Z" fill="#A943F9"/>
<path d="M22 12C22 10.8973 21.1027 10 20 10C18.8973 10 18 10.8973 18 12C18 13.1027 18.8973 14 20 14C21.1027 14 22 13.1027 22 12ZM19.3333 12C19.3333 11.632 19.632 11.3333 20 11.3333C20.368 11.3333 20.6667 11.632 20.6667 12C20.6667 12.368 20.368 12.6667 20 12.6667C19.632 12.6667 19.3333 12.368 19.3333 12Z" fill="#A943F9"/>
<path d="M19.3333 12C19.3333 11.632 19.632 11.3333 20 11.3333C20.368 11.3333 20.6667 11.632 20.6667 12C20.6667 12.368 20.368 12.6667 20 12.6667C19.632 12.6667 19.3333 12.368 19.3333 12Z" fill="#A943F9"/>
<path d="M28 8.66667C28 7.564 27.1027 6.66667 26 6.66667C24.8973 6.66667 24 7.564 24 8.66667C24 9.76933 24.8973 10.6667 26 10.6667C27.1027 10.6667 28 9.76933 28 8.66667ZM25.3333 8.66667C25.3333 8.29867 25.632 8 26 8C26.368 8 26.6667 8.29867 26.6667 8.66667C26.6667 9.03467 26.368 9.33333 26 9.33333C25.632 9.33333 25.3333 9.03467 25.3333 8.66667Z" fill="#A943F9"/>
<path d="M25.3333 8.66667C25.3333 8.29867 25.632 8 26 8C26.368 8 26.6667 8.29867 26.6667 8.66667C26.6667 9.03467 26.368 9.33333 26 9.33333C25.632 9.33333 25.3333 9.03467 25.3333 8.66667Z" fill="#A943F9"/>
<path d="M34 5.33333C34 4.23067 33.1027 3.33333 32 3.33333C30.8973 3.33333 30 4.23067 30 5.33333C30 6.436 30.8973 7.33333 32 7.33333C33.1027 7.33333 34 6.436 34 5.33333ZM31.3333 5.33333C31.3333 4.96533 31.632 4.66667 32 4.66667C32.368 4.66667 32.6667 4.96533 32.6667 5.33333C32.6667 5.70133 32.368 6 32 6C31.632 6 31.3333 5.70133 31.3333 5.33333Z" fill="#A943F9"/>
<path d="M31.3333 5.33333C31.3333 4.96533 31.632 4.66667 32 4.66667C32.368 4.66667 32.6667 4.96533 32.6667 5.33333C32.6667 5.70133 32.368 6 32 6C31.632 6 31.3333 5.70133 31.3333 5.33333Z" fill="#A943F9"/>
<path d="M40 2C40 0.897335 39.1027 1.62181e-06 38 1.57361e-06C36.8973 1.52541e-06 36 0.897335 36 2C36 3.10267 36.8973 4 38 4C39.1027 4 40 3.10267 40 2ZM37.3333 2C37.3333 1.632 37.632 1.33333 38 1.33333C38.368 1.33333 38.6667 1.632 38.6667 2C38.6667 2.368 38.368 2.66667 38 2.66667C37.632 2.66667 37.3333 2.368 37.3333 2Z" fill="#A943F9"/>
<path d="M37.3333 2C37.3333 1.632 37.632 1.33333 38 1.33333C38.368 1.33333 38.6667 1.632 38.6667 2C38.6667 2.368 38.368 2.66667 38 2.66667C37.632 2.66667 37.3333 2.368 37.3333 2Z" fill="#A943F9"/>
<path d="M16 8.66667C16 7.564 15.1027 6.66667 14 6.66667C12.8973 6.66667 12 7.564 12 8.66667C12 9.76933 12.8973 10.6667 14 10.6667C15.1027 10.6667 16 9.76933 16 8.66667ZM13.3333 8.66667C13.3333 8.29867 13.632 8 14 8C14.368 8 14.6667 8.29867 14.6667 8.66667C14.6667 9.03467 14.368 9.33333 14 9.33333C13.632 9.33333 13.3333 9.03467 13.3333 8.66667Z" fill="#A943F9"/>
<path d="M13.3333 8.66667C13.3333 8.29867 13.632 8 14 8C14.368 8 14.6667 8.29867 14.6667 8.66667C14.6667 9.03467 14.368 9.33333 14 9.33333C13.632 9.33333 13.3333 9.03467 13.3333 8.66667Z" fill="#A943F9"/>
<path d="M10 5.33333C10 4.23067 9.10267 3.33333 8 3.33333C6.89733 3.33333 6 4.23067 6 5.33333C6 6.436 6.89733 7.33333 8 7.33333C9.10267 7.33333 10 6.436 10 5.33333ZM7.33333 5.33333C7.33333 4.96533 7.632 4.66667 8 4.66667C8.368 4.66667 8.66667 4.96533 8.66667 5.33333C8.66667 5.70133 8.368 6 8 6C7.632 6 7.33333 5.70133 7.33333 5.33333Z" fill="#A943F9"/>
<path d="M7.33333 5.33333C7.33333 4.96533 7.632 4.66667 8 4.66667C8.368 4.66667 8.66667 4.96533 8.66667 5.33333C8.66667 5.70133 8.368 6 8 6C7.632 6 7.33333 5.70133 7.33333 5.33333Z" fill="#A943F9"/>
<path d="M4 2C4 0.897334 3.10267 4.81991e-08 2 0C0.897334 -4.81991e-08 2.81326e-07 0.897333 2.33127e-07 2C1.84928e-07 3.10267 0.897334 4 2 4C3.10267 4 4 3.10267 4 2ZM1.33333 2C1.33333 1.632 1.632 1.33333 2 1.33333C2.368 1.33333 2.66667 1.632 2.66667 2C2.66667 2.368 2.368 2.66667 2 2.66667C1.632 2.66667 1.33333 2.368 1.33333 2Z" fill="#A943F9"/>
<path d="M1.33333 2C1.33333 1.632 1.632 1.33333 2 1.33333C2.368 1.33333 2.66667 1.632 2.66667 2C2.66667 2.368 2.368 2.66667 2 2.66667C1.632 2.66667 1.33333 2.368 1.33333 2Z" fill="#A943F9"/>
</svg>
