<svg width="20" height="10" viewBox="0 0 20 10" fill="none" xmlns="http://www.w3.org/2000/svg">
<path d="M19.8067 4.53999L16.125 0.905828C15.71 0.495828 15 0.786662 15 1.36583V4.16666H0.833333C0.3725 4.16666 0 4.53999 0 4.99999C0 5.45999 0.3725 5.83333 0.833333 5.83333H15V8.63416C15 9.21333 15.71 9.50416 16.125 9.09416L19.8067 5.45999C20.0642 5.20583 20.0642 4.79416 19.8067 4.53999Z" fill="#F3973D"/>
</svg>
